class;timetype;"scheduled days";"days with too few lesson hours";"days with too many lesson hours";"days with too many sequential free hours";"days with too many free hours"
AHH1DA;D;82;12;3;0;0
AHH1EE;V;107;6;23;1;2
AHH1EF;V;111;10;17;4;3
AHH1EG;V;98;9;9;3;5
AHH1EH;V;96;7;12;3;4
AHH1V2;V;179;25;22;2;3
AHH1VA;V;209;30;20;1;3
AHH1VB;V;207;31;21;2;3
AHH1VC;V;200;24;21;2;3
AHH1VD;V;201;28;18;2;2
AHH1VE;V;205;30;27;2;3
AHH1VF;V;201;36;23;1;2
AHH1VH;V;98;23;15;2;1
AHH2DA;D;85;11;2;0;0
AHH2EA;V;100;18;11;1;1
AHH2EB;NULL;54;10;0;3;3
AHH2VA;V;105;35;8;2;5
AHH2VB;V;97;22;9;3;4
AHH2VC;V;97;18;6;2;4
AHH2VE;V;100;21;12;2;1
AHH2VF;V;98;26;8;3;2
AHH2VG;V;52;11;7;0;0
AHH3EA;V;98;18;13;5;6
AHH3EB;V;46;7;6;1;1
AHH3EC;V;47;10;4;4;3
AHH3EI;NULL;27;8;0;0;0
AHH3EK;NULL;26;5;0;3;3
AHH3EM;NULL;47;15;0;5;5
AHH3EN;NULL;20;1;0;0;0
AHH3EO;NULL;23;4;0;0;0
AHH3ES;NULL;22;2;0;0;0
AHH3UO;V;16;0;0;0;0
AHH3VA;V;224;38;26;6;2
AHH3VB;V;175;51;13;9;8
AHH3VC;V;56;12;10;4;3
AHH3VD;V;65;14;8;9;9
AHH3VH;V;103;17;6;5;5
AHH3VI;V;22;1;1;2;2
AHH3VJ;V;27;3;2;0;0
AHH3VK;V;17;1;9;1;1
AHH3VL;V;25;4;6;1;1
AHH3VM;V;52;19;3;7;4
AHH3VN;V;25;10;1;3;3
AHH3VO;V;29;19;1;1;1
AHH3VP;V;25;14;1;1;1
AHH3VR;V;25;14;6;1;1
AHH3VS;V;30;15;2;0;0
AHH4DA;D;7;5;0;0;0
AHH4DB;D;49;5;0;0;0
AHH4EA;V;4;2;0;0;0
AHH4EA1;V;4;2;0;0;0
AHH4EA2;V;4;2;0;0;0
AHH4EB;V;45;5;9;0;0
AHH4EC;V;47;10;4;4;3
AHH4EH;NULL;52;6;0;2;2
AHH4VA;V;4;4;0;0;0
AHH4VA1;V;4;4;0;0;0
AHH4VA2;V;4;4;0;0;0
AHH4VA3;V;4;4;0;0;0
AHH4VA4;V;4;4;0;0;0
AHH4VA5;V;4;4;0;0;0
ASE1D;D;66;2;0;0;0
ASE1VA;V;238;5;16;0;0
ASE1VB;V;245;6;11;2;3
ASE1VC;V;156;4;2;1;1
ASE2D;D;65;2;1;0;0
ASE2VA;V;253;2;32;5;6
ASE2VB;V;128;2;9;1;1
ASE3D;D;17;1;0;0;0
ASE3VA;V;131;0;14;0;0
ASE4VA;V;53;2;12;0;0
ATH4IP01;NULL;8;4;0;0;0
ATH4IP02;NULL;4;3;0;0;0
ATH4IP03;NULL;3;1;0;0;0
ATH4IP04;NULL;3;1;0;0;0
ATH4NL01;NULL;15;8;0;2;2
ATH4NL02;NULL;14;7;0;0;0
ATH4NL03;NULL;6;1;0;0;0
ATH4NL04;NULL;7;2;0;1;1
ATH4NL05;NULL;5;4;0;0;0
ATH4NL06;NULL;4;2;0;1;1
ATH4NL07;NULL;3;1;0;0;0
ATH4NL08;NULL;3;1;0;1;1
ATH4NL09;NULL;3;1;0;1;1
ATH4NL10;NULL;4;2;0;0;0
ATH4NL99;NULL;57;42;0;1;1
ATHIP01;V;13;7;0;0;0
ATHIP02;V;4;1;0;0;0
ATHIP03;V;6;5;0;0;0
ATHIP04;V;5;3;0;0;0
ATHNL01;V;15;7;1;1;1
ATHNL02;V;14;6;2;1;1
ATHNL03;V;10;6;0;0;0
ATHNL04;V;9;4;0;0;0
ATHNL05;V;2;1;0;0;0
ATHNL06;V;2;1;0;0;0
ATHNL07;V;5;3;0;0;0
ATHNL08;V;5;3;0;0;0
ATHNL09;V;5;3;0;0;0
ATHNL10;V;6;5;0;0;0
ATHNL11;V;6;5;0;0;0
ATHNL12;V;5;3;0;0;0
DAC3VA;V;132;33;1;5;4
DAC4VA;V;92;36;12;5;4
DAG0;V;48;29;0;11;11
DAR1VA;V;240;49;51;18;22
DAR1VB;V;237;38;52;19;30
DAR1VC;V;212;44;23;19;22
DAR2VA;V;200;58;28;21;16
DAR2VB;V;202;55;23;18;21
DAR3V12;V;10;4;0;0;0
DAR3V34;V;10;4;0;0;0
DAR3V56;V;10;4;0;0;0
DAR3V78;V;10;4;0;0;0
DAR3VA;V;189;38;52;15;11
DAR3VB;V;187;29;54;16;11
DAR3VC;V;90;20;24;6;6
DAR4VA;V;37;31;1;0;0
DAR4VB;V;32;27;0;0;0
DAR5VA;V;31;25;1;0;0
DAR5VB;V;31;25;1;0;0
DAR6V;V;32;26;1;0;0
DAR7V;V;14;10;1;0;0
DAR8V;V;13;10;1;0;0
DBE1DA;D;61;0;0;0;0
DBE2DA;D;63;0;0;0;0
DBE3DA;D;30;0;0;0;0
DBE3VA;V;204;17;16;14;10
DBI1DA;D;54;22;0;0;0
DBI1VA;V;136;33;4;7;3
DBI1VB;V;137;31;2;9;8
DBI2DA;D;111;41;0;0;0
DBI2VA;V;250;80;14;10;8
DBI3DA;D;23;0;0;0;0
DBI3VA;V;96;50;4;0;0
DBI4DA;D;16;0;0;0;0
DBI4VA;V;25;1;0;0;0
DBM1A;V;291;52;59;20;16
DBM1B;V;290;48;73;32;35
DBM1C;V;280;40;76;21;14
DBM1D;D;143;34;4;14;20
DBM1I;V;143;33;30;23;28
DBM2A;V;230;21;71;19;28
DBM2B;V;254;25;86;21;28
DBM2C;V;136;13;61;16;23
DBM3a;V;55;13;1;5;5
DBM3b;V;55;13;1;5;5
DBM4a;V;55;13;1;5;5
DBM4b;V;55;13;1;5;5
DBMint1;NULL;9;5;0;1;1
DBO01;NULL;3;3;0;0;0
DCE001;NULL;107;37;0;13;8
DCE002;NULL;107;37;0;13;8
DCE003;NULL;96;43;0;3;3
DCE004;NULL;114;38;0;11;13
DCE005;NULL;47;21;0;1;1
DCE0V01;V;111;40;15;2;2
DCE0V02;V;93;15;9;1;1
DCE0V03;V;52;8;5;1;1
DCE0V04;V;52;8;5;1;1
DCE0V05;V;46;13;3;1;1
DCE0V06;V;52;32;5;1;1
DCE0V07;V;59;23;2;6;3
DCE0V08;V;57;23;0;6;3
DCE0V09;V;51;8;3;1;1
DCE0V10;V;51;31;2;1;1
DCE1VA;V;229;29;41;10;13
DCE1VB;V;229;24;42;15;16
DCE1VC;V;228;28;40;22;26
DCE1VD;V;228;20;31;18;20
DCE1VE;V;230;29;35;22;25
DCE1VF;V;230;29;33;22;26
DCE1VG;V;114;13;16;7;7
DCE1VH;V;114;13;15;4;4
DCE2IA;NULL;184;22;0;2;1
DCE2VA;V;244;13;83;6;8
DCE2VB;V;248;29;77;8;12
DCE3IA;NULL;240;74;0;11;11
DCE3VA;V;120;14;32;5;5
DCE3VB;V;117;14;26;9;12
DCE4IA;NULL;54;25;0;1;1
DCE4VA;V;1;0;0;0;0
DCE4VB;V;1;0;0;0;0
DCEdoc1;V;1;0;0;0;0
DCEdoc2;V;35;35;0;0;0
DCEdoc3;V;3;0;0;0;0
DCEEHL;NULL;2;2;0;0;0
DCEMHAVO;V;9;4;0;0;0
DCH1;V;160;16;65;19;18
DCH1A;V;131;14;32;5;6
DCH1B;V;137;20;23;5;5
DCH1I;V;278;13;131;26;27
DCH2;V;245;25;117;21;14
DCH3;V;85;55;2;5;2
DCH4;V;85;63;2;5;2
DCHint1;NULL;4;4;0;0;0
DCS1VA;V;242;20;37;11;15
DCS1VB;V;239;20;36;9;8
DCS1VC;V;242;22;39;4;6
DCS1VD;V;242;26;35;9;13
DCS1VE;V;243;26;41;14;18
DCS1VF;V;242;26;42;8;13
DCS1VG;V;134;20;22;0;0
DCS1VH;V;134;20;17;0;1
DCS1VR;V;128;13;0;0;0
DCS2VA;V;235;30;61;12;10
DCS2VB;V;231;32;59;5;4
DCS2VR;V;115;12;3;1;1
DCS3VA;V;113;17;16;2;3
DCS3VB;V;61;6;6;1;1
DCS3VR;V;65;6;3;0;0
DCS4VA;V;56;20;7;1;1
DCS4VB;V;1;0;0;0;0
DCS4VR;V;31;2;0;0;0
DCT4VIB;V;66;17;3;4;3
DDSTE;NULL;22;22;0;0;0
DEC1CE;D;67;0;0;0;0
DEC2CE;D;68;0;0;0;0
DEC3CE;D;36;0;0;0;0
DEM1VA;V;241;32;17;10;13
DEM1VB;V;240;25;20;9;17
DEM1VC;V;247;37;13;6;8
DEM1VD;V;249;36;11;8;16
DEM1VE;V;117;11;5;3;6
DEM2VA;V;241;41;7;21;14
DEM2VB;V;240;26;8;4;9
DEM2VC;V;228;32;18;2;5
DFM1DA;D;82;12;3;0;0
DFM1V2;V;137;16;16;3;3
DFM1V2A;V;46;2;9;0;0
DFM1V2B;V;46;1;10;1;1
DFM1VA;V;198;14;34;2;4
DFM1VB;V;197;14;37;1;3
DFM1VC;V;199;14;37;6;8
DFM1VD;V;197;13;40;6;7
DFM1VE;V;206;22;25;5;6
DFM1VF;V;208;22;26;4;6
DFM1VG;V;205;19;29;2;2
DFM1VH;V;206;19;28;2;4
DFM1VI;V;205;16;28;2;3
DFM1VJ;V;204;18;30;4;5
DFM1VK;V;62;12;1;1;2
DFM2DA;D;83;20;4;2;0
DFM2VA;V;103;16;10;3;3
DFM2VB;V;107;23;7;6;5
DFM2VC;V;52;8;5;1;1
DFM2VE;V;101;13;9;1;0
DFM2VF;V;103;11;5;6;6
DFM2VG;V;101;16;11;1;1
DFM2VH;V;50;6;7;1;1
DFM2VI;V;52;8;4;1;1
DFM3UO;NULL;16;0;0;0;0
DFM3VA;V;181;45;23;5;5
DFM3VB;V;181;44;23;3;3
DFM3VC;V;122;41;12;4;5
DFM3VD;V;31;8;1;1;1
DFM3VH;V;105;21;7;7;9
DFM3VI;V;29;8;1;1;2
DFM3VJ;V;28;7;4;1;3
DFM3VK;V;25;8;4;1;3
DFM3VL;V;27;1;8;1;3
DFM3VM;V;39;22;1;6;7
DFM3VN;V;24;5;2;3;2
DFM3VO;V;22;7;2;3;3
DFM3VP;V;22;7;1;0;0
DFM3VR;V;22;5;4;0;0
DFM3VS;V;13;1;0;0;0
DFM4DA;D;7;5;0;0;0
DFM4DB;D;50;5;0;0;0
DFM4EA;NULL;4;2;0;0;0
DFM4VA;V;4;2;0;0;0
DFM4VA1;V;4;2;0;0;0
DFM4VA2;V;4;2;0;0;0
DFM4VA3;V;4;2;0;0;0
DFM4VA4;V;4;2;0;0;0
DFM4VA5;V;4;2;0;0;0
DFM4VA6;V;4;2;0;0;0
DFM4VH;V;29;6;0;1;1
DFS3VA;V;256;15;116;3;4
DFS5VX;V;123;2;60;1;1
DFT1VA;V;121;15;25;3;6
DFT2VA;V;5;0;4;0;0
DGZ01;NULL;11;11;0;0;0
DGZ1HCSW;NULL;24;3;0;0;0
DGZ2HCSW;NULL;10;0;0;0;0
DHB0doc1;D;6;5;0;0;0
DHR0P1;V;45;13;7;0;0
DHR0P2;V;12;12;0;0;0
DHR0P3;V;2;2;0;0;0
DHR1DA;D;61;0;0;0;0
DHR1HE;V;133;12;8;5;6
DHR1HF;NULL;71;7;0;3;4
DHR1HZ;D;29;0;7;0;0
DHR1VA;V;234;28;4;3;2
DHR1VB;V;233;31;5;7;8
DHR1VC;V;230;28;9;12;10
DHR1VD;V;231;33;9;5;5
DHR1VE;V;122;17;3;5;6
DHR1VF;V;43;19;0;3;2
DHR1VS;V;121;21;2;3;4
DHR1VT;V;67;17;1;4;3
DHR2DA;D;66;1;0;0;0
DHR2DB;D;38;0;0;0;0
DHR2VA;V;151;18;8;2;2
DHR2VB;V;156;19;7;1;2
DHR2VC;V;76;8;8;0;0
DHR2VD;V;152;16;12;3;3
DHR2VE;V;76;7;9;0;1
DHR2VF;V;75;17;5;0;2
DHR3DA;D;32;1;0;0;1
DHR3DB;D;32;0;2;0;0
DHR3VA;V;89;13;2;1;2
DHR3VB;V;89;8;3;1;1
DHR3VC;V;91;10;0;0;0
DHR3VD;V;93;14;0;0;0
DHR3VE;V;47;9;0;0;1
DHT1DA;D;82;12;3;0;0
DHT1EA;V;203;28;23;3;3
DHT1EB;V;158;21;17;3;3
DHT1EC;V;103;19;10;0;2
DHT1ED;V;58;13;3;1;2
DHT1EE;V;99;16;7;1;1
DHT1EF;V;209;21;33;3;3
DHT1V2;V;124;10;17;0;0
DHT1VA;V;207;34;28;2;5
DHT1VB;V;208;35;27;2;2
DHT1VC;V;200;24;23;3;3
DHT1VD;V;200;26;22;4;3
DHT1VE;V;208;23;30;4;5
DHT1VF;V;207;34;34;7;13
DHT1VG;V;204;34;32;4;5
DHT1VH;V;205;35;30;2;4
DHT1VI;V;105;21;10;6;8
DHT1VJ;V;101;18;5;6;9
DHT1VK;V;103;17;12;4;5
DHT2DA;D;85;11;2;0;0
DHT2EA;V;103;16;8;5;3
DHT2EB;V;101;13;11;0;0
DHT2EE;V;114;21;17;3;5
DHT2EF;V;111;22;6;3;2
DHT2VA;V;103;17;9;3;4
DHT2VB;V;101;20;9;2;4
DHT2VC;V;95;9;10;3;3
DHT2VD;V;51;4;1;1;1
DHT2VE;V;103;17;4;3;2
DHT2VF;V;96;10;12;2;3
DHT2VG;V;104;16;5;4;3
DHT2VH;V;47;6;3;1;0
DHT3EA;V;117;16;13;3;5
DHT3EB;V;124;17;19;8;8
DHT3EC;V;62;4;7;2;3
DHT3ED;V;58;4;8;2;2
DHT3EE;V;64;7;10;3;3
DHT3EH;NULL;1;0;0;0;0
DHT3EI;NULL;27;3;0;0;0
DHT3EK;NULL;23;3;0;1;1
DHT3EM;NULL;47;19;0;1;1
DHT3EN;NULL;25;3;0;1;1
DHT3EO;NULL;21;5;0;1;1
DHT3ES;NULL;24;5;0;3;3
DHT3UO;NULL;16;0;0;0;0
DHT3VA;V;181;30;18;6;12
DHT3VB;V;141;25;13;7;13
DHT3VC;V;93;21;8;2;8
DHT3VD;V;93;20;8;2;8
DHT3VE;V;46;16;3;2;2
DHT3VF;V;46;16;2;2;2
DHT3VH;V;103;17;6;3;2
DHT3VI;V;26;1;3;0;0
DHT3VJ;V;27;5;1;1;0
DHT3VK;V;25;7;6;2;0
DHT3VL;V;29;3;3;0;0
DHT3VM;V;52;18;2;5;1
DHT3VN;V;25;7;4;2;2
DHT3VO;V;21;5;2;1;1
DHT3VP;V;23;9;0;4;4
DHT3VR;V;22;6;4;2;2
DHT3VS;V;26;7;1;4;4
DHT4DA;D;7;5;0;0;0
DHT4DB;D;50;5;0;0;0
DHT4EA;V;4;2;0;0;0
DHT4EA1;V;4;2;0;0;0
DHT4EA2;V;4;2;0;0;0
DHT4EC;V;61;3;7;2;3
DHT4ED;V;58;4;8;2;2
DHT4EH;NULL;52;6;0;2;2
DHT4VA;V;4;2;0;0;0
DHT4VA1;V;4;2;0;0;0
DHT4VA2;V;4;2;0;0;0
DHT4VA3;V;4;2;0;0;0
DHT4VA4;V;4;2;0;0;0
DHT4VA5;V;4;2;0;0;0
DHT4VA6;V;4;2;0;0;0
DHT4VH;V;29;6;0;1;1
DID1VA;V;130;23;15;18;17
DID1VB;V;128;24;14;4;5
DID1VC;V;5;0;1;0;0
DID2VA;V;237;70;17;3;4
DID2VB;V;237;65;17;7;9
DID3VA;V;11;6;0;0;0
DID4VA;V;3;0;0;0;0
DID4VAid;V;58;36;0;0;0
DID4VAis;V;50;21;0;3;3
DIM1VA;V;232;30;33;23;26
DIM1VB;V;250;46;45;19;20
DIM1VC;V;234;32;33;19;22
DIM1VF;V;151;28;35;15;14
DIM2VA;V;273;22;82;16;19
DIM2VB;V;113;14;21;3;3
DIM3VA;V;238;93;18;8;8
DIM3VB;V;8;5;2;0;0
DIM3VC;V;1;0;0;0;0
DIM4VA;V;1;0;0;0;0
DIM4VAm;V;4;1;3;0;0
DIM4VB;V;2;0;2;0;0
DIM4VX;V;1;0;0;0;0
DIMx01;NULL;36;17;0;0;0
DIMx02;NULL;15;2;0;0;0
DIMx03;NULL;8;7;0;0;0
DIMx04;NULL;14;2;0;0;0
DIMx05;NULL;17;6;0;0;0
DIMx06;NULL;19;12;0;0;0
DIMx07;NULL;3;0;0;0;0
DIMx08;NULL;9;1;0;0;0
DIMx09;NULL;9;0;0;1;1
DIMx10;NULL;24;7;0;1;1
DIV1D;D;34;1;0;0;0
DIV1VA;V;241;17;33;8;7
DIV1VB;V;236;15;27;2;2
DIV1VF;V;1;1;0;0;0
DIV2D;D;34;2;0;0;0
DIV2VA;V;226;12;32;1;2
DIV2VB;V;4;3;0;0;0
DIV3D;D;12;0;0;0;0
DIV3VA;V;99;6;13;0;0
DIV4VA;V;1;1;0;0;0
DLB01;NULL;67;38;0;0;0
DLB01K;V;149;25;55;7;9
DLB01L;V;146;25;54;10;14
DLB01M;V;84;19;26;5;7
DLB01N;V;83;22;31;6;8
DLB12K;V;298;40;131;17;9
DLB12L;V;298;43;128;20;11
DLB1DA;D;85;22;6;1;1
DLB1Sa;NULL;68;4;0;0;0
DLB1VA;V;290;35;104;14;14
DLB1VB;V;292;40;103;17;16
DLB1VC;V;294;39;107;14;13
DLB1VD;V;231;26;97;9;9
DLB1VE;V;257;43;95;14;14
DLB1VF;V;241;34;88;6;7
DLB1VG;V;296;51;110;12;12
DLB1VH;V;296;46;105;15;16
DLB1VI;V;308;35;128;6;10
DLB1VO;V;238;47;81;19;19
DLB1VP;V;179;33;75;16;16
DLB1VX;V;150;23;49;7;7
DLB1VY;V;151;24;49;8;8
DLB23K;V;294;21;193;1;3
DLB23L;V;302;31;189;7;9
DLB2DA;D;80;10;3;3;4
DLB2DB;D;95;19;20;2;3
DLB2DC;D;63;19;9;2;3
DLB2DD;D;61;19;8;1;3
DLB2GH1A;V;18;0;0;0;0
DLB2GH1B;V;18;0;0;0;0
DLB2GH2A;V;14;0;0;0;0
DLB2GH2B;V;14;0;0;0;0
DLB2GNEA;NULL;19;0;0;0;0
DLB2GNEB;NULL;19;0;0;0;0
DLB2GNH1;V;18;0;0;0;0
DLB2GNH2;V;18;0;0;0;0
DLB2VA;V;285;26;153;7;6
DLB2VB;V;288;27;158;6;7
DLB2VC;V;294;42;154;12;12
DLB2VD;V;301;46;152;12;11
DLB2VE;V;297;42;153;8;9
DLB2VF;V;299;41;151;14;14
DLB2VI;V;285;37;166;5;7
DLB34K;V;188;35;105;3;3
DLB34L;V;120;20;74;1;1
DLB3DA;D;150;21;33;2;2
DLB3DB;D;153;61;10;6;6
DLB3VA;V;317;24;219;19;20
DLB3VB;V;310;19;215;27;31
DLB3VC;V;308;30;206;27;30
DLB3VD;V;310;29;209;23;25
DLB3VE;V;317;25;220;17;17
DLB3VF;V;163;20;115;18;19
DLB3VI;V;256;47;159;5;5
DLB45K;V;24;14;0;1;1
DLB45L;V;24;14;0;1;1
DLB4DA;D;78;25;0;9;9
DLB4VA;V;44;22;0;8;7
DLB4VB;V;37;21;0;6;5
DLB4VC;V;44;25;0;7;6
DLB4VD;V;44;30;0;4;3
DLB4VE;V;7;6;0;1;0
DLB4VF;V;7;6;0;1;0
DLO32;NULL;211;53;0;55;52
DLO41A;V;312;10;15;1;9
DLO41B;V;312;24;19;5;11
DLO42c;V;189;22;14;30;30
DLO42m;V;187;22;44;17;11
DLO43c;V;290;54;49;12;20
DLO43m;V;250;32;58;14;8
DMA2Da;D;17;0;0;0;0
DMH1;V;67;8;3;1;1
DMK1VA;V;119;16;27;5;6
DMK2IB;V;98;29;18;5;4
DMK2VA;V;221;21;32;6;5
DMK3VA;V;3;0;0;0;0
DMK4VA;V;60;22;1;3;3
DMK4VIB;V;128;27;13;7;6
DMZ2DC;D;10;0;0;0;0
DPA1SA;V;106;5;5;3;2
DPA1SB;V;107;7;4;1;1
DPA1SC;V;51;4;2;0;0
DPREP-A;NULL;140;1;0;0;0
DPREP-B;NULL;140;1;0;0;0
DPREP-C;NULL;140;1;0;0;0
DPREP-D;NULL;140;1;0;0;0
DPREP-E;NULL;1;1;0;0;0
DRO1VA;V;131;23;19;1;1
DRO1VB;V;131;25;18;3;4
DRO1VC;V;36;13;4;0;0
DRO2IB;V;99;30;18;5;4
DRO2VA;V;238;56;54;14;12
DRO2VB;V;165;50;35;7;7
DRO2VC;V;158;45;34;6;5
DRO3VA;V;1;0;0;0;0
DRO3VB;V;1;0;0;0;0
DRO3VC;V;1;0;0;0;0
DRO4VA;V;60;21;1;3;3
DRO4VB;V;47;20;2;0;0
DRO4VC;V;15;6;0;0;0
DRO4VIB;V;105;28;9;5;4
DSB1VA;V;234;41;111;7;6
DSB1VB;V;235;49;111;7;9
DSB1VC;V;235;45;110;4;4
DSB1VD;V;64;28;0;8;10
DSB2D;D;30;0;0;0;0
DSB2VA;V;183;24;43;13;6
DSB2VB;V;196;49;44;16;11
DSB2VC;V;1;0;0;0;0
DSB3D;D;53;7;0;8;7
DSB3VA;V;168;43;26;14;15
DSB3VB;V;34;10;2;1;1
DSB4D;D;61;0;8;8;8
DSB4V;V;170;62;0;4;4
DSB5D;D;31;23;0;0;0
DSB5V;V;91;14;6;15;15
DSJ1DA;D;66;2;0;0;0
DSJ1VA;V;224;15;49;3;2
DSJ1VB;V;224;22;41;4;4
DSJ1VC;V;235;21;46;8;8
DSJ1VD;V;248;20;52;5;5
DSJ1VE;V;247;16;35;9;8
DSJ1VF;V;115;15;14;1;1
DSJ2DA;D;65;2;0;1;0
DSJ2VA;V;238;27;41;0;0
DSJ2VB;V;240;23;36;0;0
DSJ2VC;V;233;35;43;14;14
DSJ2VD;V;117;9;24;2;2
DSJ3DA;D;29;1;0;0;0
DSJ4VA;V;113;11;14;1;1
DSJ4VB;V;113;8;8;1;1
DSJ4VC;V;101;5;6;0;0
DSN1LVA;NULL;67;0;0;0;0
DSN1LVB;NULL;65;0;0;0;0
DSN1LVC;NULL;53;0;0;0;0
DSN1LVD;NULL;10;0;0;0;0
DSN2LVA;NULL;48;0;0;0;0
DSN2LVB;NULL;48;0;0;0;0
DSN2LVC;NULL;3;0;0;0;0
DSN3LVA;NULL;56;0;0;0;0
DSN3LVB;NULL;57;0;0;0;0
DSN3LVC;NULL;77;0;0;0;0
DSN3LVD;NULL;1;0;0;0;0
DSN3PDAA;NULL;1;1;0;0;0
DSN3PVAA;NULL;35;16;0;0;0
DSN3PVAB;NULL;7;7;0;0;0
DSN3PVAC;NULL;4;4;0;0;0
DSN3PVBA;NULL;4;4;0;0;0
DSN4LVA;NULL;38;3;0;0;0
DSN4LVB;NULL;32;0;0;0;0
DSN4LVC;NULL;17;0;0;0;0
DSNLV4;NULL;16;0;0;0;0
DSNTENT1;NULL;8;8;0;0;0
DSNTENT2;NULL;14;14;0;0;0
DSNTENT3;NULL;15;0;0;0;0
DSNTENT4;NULL;10;10;0;0;0
DSNTENT5;NULL;4;3;0;0;0
DSO1VA;V;117;23;27;11;11
DSO1VB;V;115;25;25;9;8
DSO2IB;V;97;30;18;6;5
DSO2VA;V;221;65;49;75;75
DSO2VB;V;3;0;0;0;0
DSO3VA;V;196;62;46;67;67
DSO4VIB;V;130;21;29;8;8
DTB1VA;V;254;63;6;17;17
DTB1VB;V;253;70;2;12;24
DTB2D;D;30;0;0;0;0
DTB2V;V;115;42;10;4;4
DTB3D;D;38;5;0;0;0
DTB3V;V;71;18;2;0;0
DTB4V;V;9;0;0;0;0
DTP0D2;V;22;21;0;0;0
DTP0V0;V;17;13;0;0;0
DTP0V1;V;37;2;5;0;0
DTP0V2;V;53;10;0;0;0
DTP0V3;V;4;3;0;0;0
DTP0V4;V;14;9;0;0;0
DTP0V5;V;19;13;0;0;0
DTP0V8;V;9;1;0;0;0
DTP0V9;V;8;6;0;0;0
DTP1DA;D;64;0;18;0;0
DTP1DB;D;64;0;19;1;0
DTP1VA;V;236;33;12;5;3
DTP1VB;V;236;33;9;5;5
DTP1VC;V;239;33;11;7;7
DTP1VD;V;237;33;9;10;11
DTP1VE;V;245;49;11;6;3
DTP1VF;V;243;42;10;4;4
DTP1VG;V;238;40;11;7;9
DTP1VH;V;240;47;14;7;9
DTP1VJ;V;238;28;7;11;9
DTP1VK;V;239;38;8;13;11
DTP1VL;V;234;33;17;8;6
DTP1VM;V;237;37;13;11;11
DTP1VN;V;245;53;10;11;11
DTP1VO;V;249;50;10;5;6
DTP1VP;V;242;47;11;7;6
DTP1VR;V;245;45;12;9;8
DTP1VS;V;253;65;14;11;13
DTP1VT;V;257;61;10;12;14
DTP1VU;V;247;49;13;5;7
DTP1VV;V;188;41;16;3;4
DTP1VW;V;127;34;11;5;5
DTP1VX;V;127;26;8;6;6
DTP1VY;V;123;27;9;3;3
DTP1VZ;V;65;16;4;2;3
DTP2DA;D;70;2;17;2;2
DTP2DB;D;34;1;10;1;1
DTP2VA;V;215;23;22;8;10
DTP2VB;V;220;29;17;7;11
DTP2VC;V;225;36;12;8;9
DTP2VD;V;228;35;14;6;8
DTP2VE;V;240;47;14;9;10
DTP2VF;V;231;46;11;13;14
DTP2VG;V;232;44;10;12;10
DTP2VH;V;233;42;9;10;12
DTP2VI;V;240;43;11;14;15
DTP2VJ;V;220;29;19;12;15
DTP2VK;V;225;40;16;8;10
DTP2VL;V;227;51;12;8;8
DTP2VZ;V;172;105;0;7;6
DTP3DA;D;44;12;5;1;1
DTP3DG;D;52;19;15;1;3
DTP3DP;D;47;10;20;3;3
DTP3DT;D;83;20;27;1;4
DTP3VA;V;116;37;9;2;3
DTP3VB;V;44;15;0;3;3
DTP3VG;V;93;32;0;3;3
DTP3VH;V;92;28;1;3;2
DTP3VI;V;43;15;0;1;1
DTP3VM;V;90;24;8;4;6
DTP3VN;V;43;18;4;2;4
DTP3VO;V;40;19;7;1;1
DTP3VT;V;155;55;4;3;4
DTP3VU;V;124;46;0;3;4
DTP3VV;V;87;26;0;2;2
DTP3VW;V;13;13;0;0;0
DTP3VZ;V;8;8;0;0;0
DUMMY1;NULL;12;12;0;0;0
DUS1VA;V;126;9;32;4;4
DUS1VB;V;122;2;31;2;2
DUS1VC;V;131;5;25;2;2
DUS1VD;V;129;6;24;2;3
DVJ1VA;V;104;2;19;15;22
DVJ1VB;V;15;1;0;0;0
DVJ1VC;V;153;1;0;0;0
DVJ1VD;V;52;0;0;0;0
DVJ1VE;V;58;10;0;0;0
DVJ1VF;V;18;18;0;0;0
DVJ1VG;V;26;26;0;0;0
DVJ1VH;V;7;1;0;0;0
DVP1DA;D;17;0;0;0;0
DVP1VA;V;220;35;9;15;13
DVP1VB;V;216;41;16;18;14
DVP1VC;V;216;33;12;14;9
DVP1VD;V;220;46;16;24;20
DVP1VE;V;195;38;5;21;22
DVP1VF;V;110;17;5;11;10
DVP1VG;V;109;24;6;11;12
DVP1VH;V;109;16;4;12;12
DVP1VP;V;18;0;0;0;0
DVP1VS;V;18;0;0;0;0
DVP2BSA;NULL;14;0;0;1;1
DVP2BSB;NULL;7;0;0;2;0
DVP2DA;D;22;0;0;0;0
DVP2DB;D;12;3;0;0;0
DVP2VA;V;64;11;9;5;5
DVP2VB;V;80;12;14;3;3
DVP2VBSA;V;44;2;6;7;5
DVP2VBSB;V;44;3;8;7;5
DVP2VC;V;85;18;13;3;3
DVP2VD;V;121;16;15;13;9
DVP2VE;V;30;7;4;3;4
DVP2VZBC;V;35;2;3;6;3
DVP2VZBD;V;34;2;5;4;4
DVP2VZBE;V;34;2;6;4;3
DVP2VZBF;V;34;0;4;4;3
DVP2VZBG;V;34;2;5;3;3
DVP2VZOA;V;67;4;7;5;4
DVP2VZOB;V;35;3;1;5;6
DVP2VZOC;V;35;1;1;4;5
DVP2VZOD;V;37;4;2;3;4
DVP2VZOE;V;35;1;2;4;3
DVP2VZOF;V;35;2;2;5;6
DVP2VZRA;V;74;2;15;3;5
DVP2VZRB;V;64;2;11;0;2
DVP2VZRC;V;36;0;4;3;3
DVP2VZRD;V;46;2;3;1;3
DVP3DA;D;156;51;2;26;26
DVP3UA;V;160;53;9;24;25
DVP3UB;V;123;36;9;20;21
DVP3UC;V;122;34;8;24;25
DVP3UD;V;86;30;5;12;13
DVP3UMA;D;65;3;32;4;5
DVP3UMB;D;66;4;32;6;6
DVP3UMC;D;65;3;33;3;3
DVP3UMD;D;65;3;33;1;1
DVP3VA;V;156;48;8;23;23
DVP3VB;V;157;49;9;24;22
DVP3VC;V;159;54;9;22;23
DVP3VD;V;157;50;10;22;23
DVP3VE;V;121;31;8;22;25
DVP3VF;V;122;33;8;21;24
DVP3VMA;V;159;51;6;20;24
DVP3VMB;V;159;55;5;16;19
DVP3VMC;V;143;50;5;18;20
DVP4DA;D;158;53;1;22;23
DVP4DB;D;155;53;0;23;24
DVP4UA;V;157;50;9;28;29
DVP4UB;V;84;28;5;13;14
DVP4UC;NULL;57;25;0;9;9
DVP4VA;V;160;56;9;23;25
DVP4VB;V;157;51;9;24;24
DVP4VC;V;157;51;9;24;25
DVP4VD;V;127;42;8;22;21
DVP5VA;V;91;29;7;20;21
DXD0E;V;12;12;0;0;0
DXN0T6;NULL;8;8;0;0;0
DXN1LVA;NULL;65;0;0;0;0
DXN1LVB;NULL;65;0;0;0;0
DXN1LVC;NULL;66;0;0;0;0
DXN2LVA;NULL;46;0;0;0;0
DXN2LVB;NULL;45;0;0;0;0
DXN2LVC;NULL;47;0;0;0;0
DXN3LVA;NULL;61;0;0;0;0
DXN3LVB;NULL;78;0;0;0;0
DXN3LVD;NULL;1;0;0;0;0
DXN3PV4;NULL;3;3;0;0;0
DXN3PVBC;NULL;8;8;0;0;0
DXN4AVA;NULL;8;0;0;0;0
DXN4LV4;NULL;7;0;0;0;0
DXN4LVA;NULL;25;0;0;0;0
DXN4LVB;NULL;22;0;0;0;0
DXN4LVC;NULL;22;0;0;0;0
DXP0A;V;141;1;0;0;0
DXP0B;V;141;1;0;0;0
DXP0C;V;141;2;0;0;0
DXV0BC0A;V;4;4;0;0;0
DXV1VA;V;64;0;0;0;0
DXV1VB;V;30;0;0;0;0
DXV1VC;V;138;1;0;0;0
DXV1VF;V;28;27;0;0;0
DXV1VG;V;21;21;0;0;0
DXV1VH;V;13;13;0;0;0
DXV1VJ;V;25;25;0;0;0
DXV1VL;V;9;9;0;0;0
DXV1VM;V;8;8;0;0;0
DXV1VP;V;8;8;0;0;0
DXV1VQ;V;8;8;0;0;0
EAC3VA;V;135;47;5;6;6
EAC4VA;V;103;44;5;8;8
EBCA-E;NULL;95;56;0;16;16
EBE3VA;V;190;29;27;14;12
EBE3VB;V;137;20;19;4;7
EBE3VC;V;28;8;0;0;0
EBI1Va;V;228;42;38;19;21
EBI1Vb;V;292;56;41;23;28
EBI1Vc;V;295;64;45;34;34
EBI1Vd;V;154;33;22;13;9
EBI2Va;V;261;80;18;9;9
EBI2Vb;V;159;36;16;7;6
EBI3Va;V;105;57;0;0;0
EBI3VST;V;1;0;0;0;0
EBI4Va;V;1;1;0;0;0
EBK1A;V;264;42;23;17;21
EBK1B;V;265;35;23;21;23
EBK1C;V;258;39;17;22;30
EBK1D;D;61;23;0;5;8
EBK2A;V;265;31;29;27;33
EBK2B;V;265;31;29;28;33
EBK2C;V;265;31;30;27;34
EBK2D;D;265;31;8;25;33
EBK2E;V;265;32;30;26;30
EBK2F;V;266;34;30;27;31
EBK2G;V;266;33;30;25;31
EBK2H;V;266;32;29;25;32
EBK2I;V;139;26;6;13;16
EBK2J;V;139;28;5;12;15
EBK3;V;16;14;0;1;2
EBK4;V;115;55;11;8;9
EBK5;V;10;8;0;1;2
EBM0int1;NULL;6;6;0;0;0
EBM1A;V;269;55;43;11;10
EBM1B;V;270;66;48;25;27
EBM1C;V;290;75;23;48;49
EBM1D;D;277;62;2;41;46
EBM1E;V;286;72;29;42;42
EBM1F;V;141;34;19;33;29
EBM1V;V;287;26;106;44;30
EBM2;V;101;3;32;6;6
EBM2A;V;170;15;65;17;5
EBM2B;V;172;17;63;20;7
EBM2C;V;34;2;8;0;0
EBM2D;D;34;8;0;9;9
EBM3-4;NULL;270;37;0;28;19
EBMint1;NULL;5;4;0;0;0
EBR0MHBa;NULL;32;4;0;0;0
EBRD01;NULL;59;9;0;18;18
EBRD02;NULL;54;33;0;3;3
EBRD03;NULL;50;35;0;0;0
EBRD04;NULL;91;54;0;9;9
EBRD05;NULL;9;2;0;0;0
EBRFY1;NULL;63;1;0;0;0
EBRMHBOa;NULL;30;3;0;0;0
EBS1VA;V;103;9;29;4;4
EBS1VB;V;55;6;9;0;0
EBS2VA;V;212;10;35;1;2
EBS3D;D;13;1;0;0;0
EBS3VA;V;106;4;14;2;2
EBT1D;D;60;2;0;0;0
EBT1VA;V;238;34;26;21;27
EBT1VB;V;246;37;29;21;22
EBT2D;D;59;2;1;0;5
EBT2V;V;64;16;1;12;13
EBT2VA;V;70;27;5;7;8
EBT2VB;V;71;25;1;7;7
EBT3D;D;62;22;0;12;11
EBT3V;V;86;34;2;5;5
EBT4V;V;13;8;0;0;0
ECE1a;V;146;27;13;17;18
ECE1b;V;143;31;13;25;29
ECE1BAM;NULL;288;15;0;19;22
ECE1c;V;132;23;14;14;15
ECE1d;D;145;33;1;16;17
ECE1DT;D;64;0;0;0;0
ECE1DTV;D;33;0;0;0;0
ECE1e;V;141;22;12;18;23
ECE1f;V;140;30;18;18;18
ECE1g;V;146;34;16;15;16
ECE1h;V;148;17;21;12;16
ECE1i;V;139;16;26;16;22
ECE1inte;NULL;123;57;0;9;11
ECE2a;V;143;24;30;24;29
ECE2b;V;147;24;32;20;26
ECE2c;V;146;22;36;17;29
ECE2d;D;145;18;13;19;30
ECE2DT;D;64;1;0;0;0
ECE2DTV;D;28;0;0;0;0
ECE2e;V;145;17;41;19;25
ECE2f;V;142;14;34;15;23
ECE2g;V;147;20;35;18;23
ECE2h;V;148;20;46;25;30
ECE2i;V;75;3;26;10;6
ECE3Aa;NULL;133;24;0;0;1
ECE3Ab;NULL;130;24;0;3;5
ECE3Ac;NULL;133;20;0;3;7
ECE3Ad;NULL;133;25;0;2;5
ECE3Ax;NULL;66;14;0;4;5
ECE3Dc;D;43;12;1;1;2
ECE3De;D;72;13;7;9;9
ECE3DT;D;64;0;0;0;0
ECE3Fe;NULL;39;20;0;0;0
ECE3rep;NULL;53;28;0;5;5
ECE3Se;NULL;150;40;0;9;9
ECE3Sf;NULL;70;15;0;1;2
ECE4Aa;NULL;136;26;0;14;18
ECE4Ab;NULL;140;24;0;23;25
ECE4Ac;NULL;137;28;0;15;21
ECE4Ad;NULL;131;15;0;22;22
ECE4Ax;NULL;69;21;0;13;16
ECE4Dc;D;71;16;3;10;14
ECE4De;D;72;5;13;16;17
ECE4DT;D;47;0;0;0;0
ECE4Se;NULL;73;19;0;11;14
ECE4Sf;NULL;74;11;0;16;15
ECE6Aa;NULL;242;49;0;8;8
ECE6Ab;NULL;187;53;0;4;4
ECE6Ax;NULL;247;77;0;13;10
ECE6Db;D;90;40;2;5;5
ECE6Dc;D;98;50;1;2;2
ECE6Fb;NULL;32;23;0;2;2
ECE6Sb;NULL;90;40;0;5;5
ECE6Sc;NULL;138;60;0;5;3
ECE7;V;126;53;4;9;9
ECH1A;V;268;39;49;26;37
ECH1ACS;NULL;260;47;0;31;30
ECH1B;V;278;42;38;22;27
ECH1BCS;NULL;255;48;0;31;22
ECH1C;V;152;25;18;14;14
ECH1CCS;NULL;125;27;0;8;11
ECH1V;V;41;9;10;4;4
ECH2;V;227;43;35;15;15
ECH2ACS;NULL;227;49;0;11;9
ECH2BCS;NULL;228;47;0;13;11
ECH2WT;NULL;7;3;0;0;0
ECH3-4;NULL;121;59;0;1;8
ECH3-4CS;NULL;40;21;0;15;15
ECHint1;NULL;4;1;0;0;0
ECI1;V;267;22;50;9;9
ECI2;V;242;28;16;5;7
ECI3;V;7;0;0;0;0
ECI4;V;72;9;8;6;8
ECP3/4;NULL;24;0;0;0;0
ECS3-4;NULL;175;79;0;21;20
ECT1;V;155;16;26;21;17
ECT1A;V;159;15;53;17;20
ECT1B;V;151;12;49;11;11
ECT1IWT;NULL;7;6;0;0;0
ECT1V;V;2;1;1;0;0
ECT1WTV;NULL;31;15;0;1;7
ECT2;V;208;35;39;14;18
ECT2IWT;NULL;96;23;0;5;7
ECT2WT;NULL;103;38;0;5;12
ECT3-4;NULL;162;46;0;11;11
ECTint1;NULL;5;5;0;0;0
EDSTE;NULL;23;23;0;0;0
EDSTWNT;NULL;23;0;0;0;0
EDSTWT;NULL;23;0;0;0;0
EEL1A;D;303;56;14;36;48
EEL1B;D;294;51;9;44;55
EEL1I;D;136;18;5;4;5
EEL1IA;D;144;35;14;27;44
EEL1IB;D;93;10;1;30;31
EEL1MBO;D;40;6;1;1;1
EEL1SA;D;107;60;7;20;20
EEL1SB;D;109;54;2;17;17
EEL2A;D;286;71;23;22;22
EEL2B;D;292;76;21;28;27
EEL2IA;D;286;80;34;17;17
EEL2IB;D;278;70;22;12;14
EEL3A;D;148;112;11;8;7
EEL3B;D;144;123;11;1;1
EEL3IA;D;140;104;11;8;7
EEL3IB;D;137;104;11;7;7
EEL5A;D;119;0;0;0;0
EEL5B;D;59;0;0;0;0
EEL5P;D;120;9;0;0;0
EELFY;NULL;80;15;0;0;0
EEM1DNOA;D;56;0;0;0;0
EEM1DSPD;D;45;0;0;0;0
EEM1VA;V;233;24;7;8;17
EEM1VB;V;233;19;11;12;13
EEM1VC;V;228;23;11;5;17
EEM1VD;V;232;17;17;12;17
EEM1VE;V;225;23;27;13;10
EEM1VF;V;239;40;4;15;6
EEM1VG;V;237;43;16;18;21
EEM1VH;V;240;44;16;9;20
EEM1VI;V;172;21;9;15;13
EEM1VJ;V;120;22;5;5;15
EEM1VK;V;59;3;1;6;11
EEM2DNOA;D;56;0;0;0;0
EEM2DSPD;D;60;1;0;0;0
EEM2VA;V;238;45;8;2;10
EEM2VB;V;239;33;6;7;13
EEM2VC;V;241;21;6;6;20
EEM2VD;V;242;45;9;6;12
EEM2VE;V;239;29;7;10;23
EEM3DNOA;D;54;0;0;0;0
EEM3DSPD;D;14;0;0;0;0
EEMBO;NULL;34;6;0;2;2
EFO1A;V;225;47;14;9;12
EFO1B;V;232;47;14;24;19
EFO1C;V;223;35;10;15;12
EFO1Cz;NULL;1;0;0;0;0
EFO1D;D;2;0;1;0;0
EFO2A;V;201;35;26;12;12
EFO2B;V;208;49;28;13;11
EFO3;V;153;72;1;14;12
EFR3VA;V;130;33;8;3;3
EFR3VB;V;12;0;0;3;3
EFR3VL;V;43;16;0;0;0
EFR4VA;V;28;13;0;0;0
EFY0XA;NULL;17;0;0;0;0
EFY1MSA;NULL;35;1;0;1;1
EFY1MSKA;NULL;8;3;0;0;0
EFY1VA;V;247;43;56;27;28
EFY1VB;V;257;49;54;34;45
EFY1VC;V;258;52;51;26;33
EFY1VD;V;256;46;41;34;39
EFY1VE;V;237;38;42;28;32
EFY1VF;V;244;45;39;20;28
EFY1VI;V;251;24;65;17;23
EFY2MSA;NULL;51;2;0;1;1
EFY2VA;V;273;31;107;10;16
EFY2VB;V;276;26;121;10;19
EFY2VC;V;278;28;102;21;26
EFY2VD;V;273;29;110;14;14
EFY2VE;V;273;31;135;17;24
EFY2VF;V;271;34;102;21;23
EFY2VIA;V;249;32;39;22;34
EFY2VIB;V;251;33;29;41;53
EFY3MSA;NULL;47;2;0;0;0
EFY3VA;V;204;47;20;24;35
EFY3VB;V;78;11;14;9;14
EFY3VC;V;60;17;6;8;11
EFY3VD;V;62;16;10;6;8
EFY3VE;V;65;22;5;6;9
EFY3VF;V;47;10;5;4;4
EFY3VIA;V;142;47;8;19;28
EFY3VIB;V;150;40;11;20;24
EFY4VA;V;74;10;17;8;10
EFY4VB;V;72;13;18;2;8
EFY4VC;V;66;7;13;7;11
EFY4VD;V;62;11;5;8;10
EFY4VE;V;29;8;4;2;3
EFY4VF;V;22;4;0;2;2
EFY4VIA;V;6;0;5;0;0
EFY4VP;V;63;29;0;6;9
EGZ1ANP;NULL;44;3;0;2;2
EGZ1ANPa;NULL;24;0;0;0;0
EGZ1ANPb;NULL;24;2;0;0;0
EGZ2ANP;NULL;44;2;0;0;0
EHO1;V;28;0;0;0;0
EHO2;V;28;0;0;0;0
EHO3;V;28;0;0;0;0
EHP1;V;38;0;0;0;0
EHP1HS1;NULL;40;0;0;0;0
EHP1HS2;NULL;40;0;0;0;0
EHP1HS3;NULL;38;0;0;0;0
EHP2;V;38;0;0;0;0
EHP3;V;38;0;0;0;0
EHPHCSW1;NULL;39;0;0;0;0
EHPHCSW2;NULL;39;0;0;0;0
EHR1DA;D;64;2;1;0;0
EHR1DB;D;40;2;1;1;1
EHR1VA1;V;262;26;18;21;26
EHR1VA2;V;264;28;12;19;31
EHR1VB1;V;266;31;19;26;30
EHR1VB2;V;275;30;16;19;29
EHR1VC1;V;259;27;17;14;18
EHR1VC2;V;261;25;18;24;29
EHR1VD1;V;256;19;20;23;29
EHR1VD2;V;262;24;14;34;40
EHR1VE1;V;262;34;17;30;33
EHR1VE2;V;5;5;0;0;0
EHR1VIA;V;259;25;34;8;11
EHR1VIB;V;260;29;23;13;15
EHR2D;D;60;1;0;0;0
EHR2VA1;V;178;40;2;13;17
EHR2VA2;V;174;41;6;13;16
EHR2VB1;V;167;31;6;9;11
EHR2VB2;V;86;21;3;4;4
EHR2VC1;V;171;30;5;13;14
EHR2VC2;V;174;42;5;22;24
EHR2VIA;V;114;13;27;3;3
EHR2VSD;V;130;45;6;6;7
EHR3D;D;32;0;0;0;0
EHR3VA1;V;54;12;0;3;3
EHR3VA2;V;56;18;0;3;3
EHR3VB1;V;96;23;0;2;4
EHR3VB2;V;93;22;0;6;8
EHR3VIA;V;161;63;9;7;5
EHR4V;V;9;7;0;0;0
EHR4VA;V;6;6;0;0;0
EHR4VB;V;1;1;0;0;0
EHS1M1;NULL;25;3;0;1;1
EHS1M2;NULL;13;1;0;0;0
EIB1a;V;119;27;8;6;7
EIB1b;V;124;25;6;17;21
EIB1c;V;67;21;6;5;6
EIB1d;D;123;23;1;16;24
EIB1e;V;137;47;2;7;9
EIB1f;V;129;27;5;26;28
EIB1g;V;119;26;10;14;14
EIB1h;V;128;36;5;15;15
EIB2a;V;125;40;3;12;12
EIB2b;V;135;58;5;13;10
EIB2c;V;64;16;8;9;11
EIB2d;D;65;11;0;2;1
EIB2e;V;127;40;2;12;15
EIB2f;V;131;37;3;9;10
EIB2g;V;130;37;5;16;17
EIB2h;V;124;28;2;13;13
EIB3As;NULL;137;17;0;15;18
EIB3Bs;NULL;125;22;0;9;11
EIB3Cs;NULL;17;15;0;1;1
EIB3Dgf;D;146;25;23;8;14
EIB3Ed;NULL;70;11;0;4;6
EIB3Fd;NULL;18;15;0;1;1
EIB3rep;NULL;55;29;0;8;8
EIB4As;NULL;127;36;0;23;26
EIB4Bs;NULL;128;30;0;15;18
EIB4Dgf;D;142;28;18;22;21
EIB4Ed;NULL;67;20;0;12;13
EIB6a;V;209;107;9;17;16
EIB6b;V;102;45;4;2;2
EIB6c;V;107;33;15;3;3
EIB7;V;150;66;4;8;9
EIC1Va;V;135;44;1;7;13
EIC1Vb;V;134;44;1;9;15
EIC1Vc;V;134;45;1;10;15
EIC1Vd;V;130;46;1;8;12
EIC1Ve;V;142;28;3;6;8
EIC1Vf;V;143;28;4;12;12
EIC1Vg;V;76;13;0;5;5
EIC1Vh;V;76;10;0;7;4
EIC1Vi;V;75;11;0;8;6
EIC1Vj;V;5;2;0;0;0
EIC1Vk;V;5;2;0;1;0
EIC1Vl;V;5;2;0;0;0
EIC2Va;V;119;48;0;2;3
EIC2Vb;V;119;51;1;2;4
EIC2Vc;V;120;53;0;2;4
EIC2Vd;V;61;26;2;1;2
EIC2Ve;V;61;22;0;1;5
EIC2Vf;V;38;13;0;1;2
EIC2Vg;V;95;43;0;1;1
EIC2Vh;V;95;44;1;1;1
EIC2Vi;V;81;34;2;0;0
EIC2Vj;V;33;12;2;1;1
EIC3VSBa;V;77;65;0;35;35
EIC3VSBb;V;77;62;0;30;33
EIC3VSBc;V;77;64;0;34;35
EIC3VSBd;V;76;60;0;31;30
EIC3VSBe;V;77;67;0;39;39
EIC3VSBf;V;77;62;0;33;34
EIC4Vbha;V;83;70;0;33;33
EIC4Vbhb;V;86;75;0;27;27
EIC4Vbhc;V;85;69;0;38;38
EIC4Vbhd;V;86;74;0;38;39
EIC4Vbhe;V;85;71;0;39;40
EIC4Vbhf;V;88;75;0;30;31
EIF1VA;V;207;30;21;1;2
EIF1VB;V;66;4;0;0;0
EIF2VA;V;207;37;8;1;0
EIF3VA;V;100;9;0;0;0
EII4AMIa;NULL;81;73;0;25;25
EII4Vaaa;V;81;32;0;30;37
EII4Vsca;V;81;24;2;35;44
EII4Vscb;V;81;28;2;39;49
EII4Vscc;V;81;26;2;41;42
EII4Vscd;V;76;27;1;42;47
EIL1a;V;145;15;22;11;14
EIL1b;V;150;17;22;8;12
EIL1c;V;151;21;23;15;21
EIL2a;V;148;22;23;21;20
EIL2b;V;145;18;23;20;19
EIL3a;V;73;8;27;8;10
EIL3Aa;NULL;79;19;0;3;3
EIL3Cb;NULL;81;16;0;4;4
EIL4a;V;73;8;21;15;14
EIL4Aa;NULL;75;12;0;12;13
EIL4Cb;NULL;72;18;0;14;14
EIL6a;V;63;18;6;6;2
EIL6Aa;NULL;198;43;0;22;25
EIL7;V;140;64;4;9;8
EIM01;NULL;96;34;0;2;2
EIM02;NULL;69;6;0;5;5
EIM03;NULL;50;12;0;0;0
EIM04;NULL;51;25;0;2;2
EIM05;NULL;22;7;0;0;0
EIM06;NULL;68;18;0;23;23
EIM07;NULL;37;8;0;0;0
EIM08;NULL;23;4;0;0;0
EIM09;NULL;29;3;0;0;0
EIN1Va;V;103;34;5;9;9
EIN1Vb;V;121;45;2;6;6
EIN1Vc;V;117;42;4;8;9
EIN1Vd;V;117;40;3;14;14
EIN1Ve;V;109;38;6;6;6
EIN1Vf;V;114;34;1;6;6
EIN1Vg;V;112;45;8;7;7
EIN1Vgta;V;297;51;11;26;33
EIN1Vgtb;V;293;55;17;28;34
EIN1Vgtc;V;236;60;12;24;26
EIN1Vgtd;V;234;44;7;16;21
EIN1Vgte;V;71;16;2;3;5
EIN1Vh;V;108;36;6;15;15
EIN1Vp;V;181;41;11;18;16
EIN1Vq;V;182;34;8;21;14
EIN1Vr;V;188;39;11;7;4
EIN1Vs;V;187;46;13;11;9
EIN1Vt;V;186;42;15;12;11
EIN1Vu;V;186;40;11;10;11
EIN2Va;V;301;40;70;31;36
EIN2Vb;V;303;50;77;40;43
EIN2Vc;V;307;66;90;32;37
EIN2Vd;V;305;52;81;37;42
EIN2Vgta;V;264;61;8;7;8
EIN2Vgtb;V;259;61;11;11;7
EIN2Vgtx;V;26;22;0;0;0
EIN3GT;NULL;1;0;0;0;0
EIN3VBDa;V;151;62;11;65;75
EIN3VBDb;V;75;37;9;22;21
EIN3VBDc;V;40;24;0;22;23
EIN3VESa;V;76;30;2;34;41
EIN3Vgta;V;94;54;10;0;0
EIN3VITa;V;145;57;11;68;73
EIN3VITb;V;145;54;11;71;78
EIN3VITc;V;69;27;9;27;27
EIN3VMHa;V;82;5;30;6;6
EIN3VMHb;V;82;5;32;4;5
EIN3VMHc;V;82;5;30;6;7
EIN3VMHd;V;82;5;32;3;4
EIN3VST;V;2;1;0;0;0
EIN3VUEa;V;149;69;10;64;70
EIN3VUEb;V;149;66;11;65;67
EIN4VGTa;V;25;22;1;0;0
EIP1A;V;299;7;167;18;18
EIP1B;V;293;15;182;19;25
EIP2A;V;274;54;26;12;12
EIP2B;V;14;0;5;0;0
EIP3A;V;55;19;12;0;0
EIP3B;V;14;0;5;0;0
EIT1Va;V;138;31;10;6;9
EIT1Vb;V;136;31;10;6;10
EIT1Vc;V;137;37;7;11;14
EIT1Vd;V;135;34;9;15;16
EIT1Ve;V;133;26;7;7;10
EIT1Vf;V;134;29;6;8;15
EIT1Vg;V;141;16;13;6;15
EIT1Vh;V;140;16;13;8;24
EIT1Vi;V;74;7;9;4;10
EIT1Vj;V;75;7;13;9;17
EIT2Va;V;105;42;1;3;4
EIT2Vb;V;104;41;2;8;9
EIT2Vc;V;104;41;2;7;8
EIT2Ve;V;102;34;2;5;4
EIT2Vf;V;103;34;2;4;3
EIT2Vg;V;109;57;0;3;2
EIT2Vh;V;110;55;1;6;6
EIT3ST;NULL;1;1;0;0;0
EIT3Va;V;65;42;3;21;23
EIT3Vb;V;6;4;1;3;4
EIT3Vc;V;66;38;2;21;22
EIT3Vd;V;64;40;3;24;26
EIT3Ve;V;65;40;1;21;25
EIT3Vf;V;6;3;0;1;2
EIT3Vg;V;67;41;1;17;22
EIV1VA;V;217;13;62;6;6
EIV1VB;V;232;16;44;4;4
EIV1VC;V;113;5;24;8;8
EIV2VA;V;220;12;52;10;9
EIV2VB;V;131;11;21;2;2
EIV3VA;V;96;3;21;1;1
EIV3VB;V;4;0;1;0;0
EIV4VA;V;5;5;0;0;0
EIWT3-4;NULL;9;0;0;0;0
EKT01;NULL;21;19;0;0;0
EKT02;NULL;47;20;0;0;0
EKT03;NULL;38;6;0;1;1
EKT04;NULL;108;47;0;13;8
EKT05;NULL;58;35;0;2;2
EKT06;NULL;92;27;0;7;5
EKT07;NULL;59;41;0;0;0
EKT08;NULL;75;55;0;2;2
EKT09;NULL;50;34;0;8;7
EKT10;NULL;38;21;0;0;0
EKT11;NULL;39;34;0;2;2
EKT12;NULL;43;8;0;0;0
EKT13;NULL;41;35;0;0;0
EKT14;NULL;63;20;0;1;1
EKT15;NULL;20;13;0;0;0
EKT16;NULL;42;19;0;0;0
EKT17;NULL;59;17;0;0;0
EKT18;NULL;80;29;0;4;4
EKT19;NULL;40;9;0;1;1
EKT1Va;V;287;58;16;5;6
EKT1Vb;V;285;64;19;9;10
EKT1Vc;V;291;65;17;3;5
EKT1Vd;V;282;53;14;4;4
EKT1Ve;V;283;63;20;3;2
EKT1Vf;V;282;59;18;9;9
EKT1Vg;V;38;9;0;1;3
EKT1Vgca;V;306;64;15;33;37
EKT1Vgcb;V;301;60;18;37;38
EKT1Vgcc;V;238;46;6;25;29
EKT1Vgcd;V;238;46;7;23;20
EKT1Vgce;V;76;15;2;4;4
EKT1Vi1;V;289;67;22;8;14
EKT1Vi2;V;288;57;19;7;11
EKT1Vi3;V;188;43;10;12;15
EKT1Vi4;V;153;45;9;10;12
EKT2Va;V;223;95;11;6;9
EKT2Vb;V;226;98;11;8;10
EKT2Vc;V;223;96;11;7;9
EKT2Vd;V;224;90;12;8;6
EKT2Vd1;V;24;17;0;0;0
EKT2Vd2;V;24;17;0;0;0
EKT2Vd3;V;23;16;0;0;0
EKT2Vd4;V;23;16;0;0;0
EKT2Vd5;V;23;15;0;0;0
EKT2Vd6;V;24;16;0;0;0
EKT2Vd7;V;23;15;0;0;0
EKT2Vd8;V;23;15;0;0;0
EKT2Ve;V;216;92;11;10;14
EKT2Vf;V;3;3;0;0;0
EKT2Vg;V;3;3;0;0;0
EKT2VG1;V;58;15;19;3;3
EKT2VG2;V;62;19;14;2;1
EKT2Vgca;V;258;55;10;17;16
EKT2Vgcb;V;259;58;12;17;20
EKT2Vgcx;V;23;23;0;0;0
EKT2Vi1;V;207;81;12;13;13
EKT2Vi2;V;210;81;11;10;9
EKT2Vi3;V;36;9;2;0;1
EKT3GC;NULL;1;0;0;0;0
EKT3Vadv;V;121;52;1;9;8
EKT3Vbrc;V;108;14;6;6;5
EKT3Vcpa;V;117;23;2;4;4
EKT3Vedu;V;110;34;3;8;8
EKT3Vgca;V;95;55;10;0;0
EKT3Vst;V;4;0;1;0;0
EKT3Vweb;V;83;53;1;4;4
EKT4SD;NULL;93;55;0;5;5
EKT4Vadv;V;196;83;1;13;12
EKT4Vbrc;V;198;41;9;6;5
EKT4Vcpa;V;74;1;2;1;1
EKT4Vedu;V;177;44;3;10;10
EKT4Vgca;V;25;22;1;0;0
EKT4VSD;V;94;24;4;13;10
EKT4Vweb;V;128;84;2;7;7
ELE01ITD;NULL;37;26;0;0;0
ELE02ITD;NULL;11;7;0;0;0
ELE03ITD;NULL;9;5;0;0;0
ELE04ITD;NULL;34;30;0;1;1
ELEDEL;NULL;65;49;0;0;0
ELEDLS;NULL;98;60;0;0;0
ELEDLS1;NULL;19;18;0;0;0
ELEDMECH;NULL;35;35;0;0;0
ELEDNAN;NULL;34;34;0;0;0
ELEDTN;NULL;34;34;0;0;0
ELEDVER;NULL;72;45;0;0;0
ELEDVERG;NULL;140;90;0;44;44
ELK10;NULL;9;9;0;0;0
ELK1A;V;29;29;0;0;0
ELK1B;V;17;17;0;0;0
ELK1C;V;10;10;0;0;0
ELK2;V;21;21;0;0;0
ELK3;V;16;1;0;0;0
ELK4;V;12;12;0;0;0
ELK5;V;23;23;0;0;0
ELK6;V;13;13;0;0;0
ELK7;V;15;15;0;0;0
ELK8;V;1;0;0;0;0
ELK9;V;14;10;0;0;0
EMAD01;NULL;21;21;0;0;0
EME1D;D;66;2;0;0;0
EME1VA;V;244;37;44;4;5
EME1VB;V;243;29;33;15;15
EME1VC;V;240;17;53;8;8
EME1VD;V;255;38;39;10;10
EME1VE;V;109;12;31;15;15
EME1VF;V;71;12;14;5;5
EME1VV;V;117;9;8;0;0
EME2D;D;65;2;0;0;1
EME2VA;V;247;17;49;19;19
EME2VB;V;231;15;53;14;14
EME2VC;V;111;17;27;1;1
EME3D;D;31;3;0;0;0
EME3VA;V;104;7;34;6;6
EME3VB;V;112;7;27;11;11
EME3VC;V;112;5;30;0;0
EME4VA;V;9;4;0;0;0
EME4VB;V;9;4;0;0;0
EME4VC;V;9;4;0;0;0
EME4VI;V;102;16;7;0;0
EMI1Va;V;269;61;11;12;12
EMI1Vb;V;269;63;18;9;11
EMI1Vc;V;266;45;7;12;12
EMI1Vd;V;264;49;14;13;13
EMI1Ve;V;269;59;18;16;18
EMI1Vf;V;271;59;15;18;17
EMI1Vg;V;263;57;15;11;12
EMI1Vh;V;269;61;17;8;10
EMI1Vi;V;267;49;10;12;14
EMI1Vj;V;270;64;14;15;15
EMI1Vl;V;1;1;0;0;0
EMI2Va;V;164;32;11;8;9
EMI2Vb;V;163;33;12;14;14
EMI2Vc;V;167;25;12;18;19
EMI2Vd;V;167;27;15;18;18
EMI2Ve;V;168;37;14;13;17
EMI2Vf;V;162;28;11;14;20
EMI2Vg;V;167;33;26;17;20
EMI2Vh;V;1;0;0;0;0
EMI2Vi;V;1;0;0;0;0
EMI2Vj;V;1;0;0;0;0
EMI2VMEa;V;100;16;18;9;13
EMI2VMEb;V;21;5;1;0;0
EMI2VMFa;V;104;19;16;12;16
EMI2VMFb;V;106;19;15;14;17
EMI2VMMa;V;99;16;10;19;23
EMI2VMMb;V;95;17;9;21;29
EMI2VMMc;V;98;19;13;19;24
EMI2VNIa;V;98;20;11;13;18
EMI3;V;1;1;0;0;0
EMI3/4;NULL;1;1;0;0;0
EMI3VMCa;V;98;54;2;2;3
EMI3Vmfa;V;225;91;18;8;9
EMI3Vmfb;V;228;97;17;12;12
EMI3Vmma;V;199;74;19;10;14
EMI3Vmmb;V;148;62;17;13;11
EMI3Vnia;V;199;77;18;19;19
EMI4V;V;70;24;2;2;2
EMM-Enge;V;10;10;0;0;0
EMM-GGZ;V;8;8;0;0;0
EMM-OmgS;V;15;15;0;0;0
EMM-SeIn;V;15;15;0;0;0
EMM-SocV;V;15;15;0;0;0
EMM-Soll;V;15;15;0;0;0
EMM-STVR;V;15;15;0;0;0
EMM0Enge;NULL;9;9;0;0;0
EMM0GGZ;NULL;11;10;0;0;0
EMM0Mfn1;NULL;15;15;0;0;0
EMM0Mfn2;NULL;15;15;0;0;0
EMM0OmgS;NULL;14;14;0;0;0
EMM0SeIn;NULL;15;15;0;0;0
EMM0SocV;NULL;10;10;0;0;0
EMM0Soll;NULL;15;15;0;0;0
EMM0STVR;NULL;13;13;0;0;0
EMM1D92A;V;40;0;18;0;0
EMM1D92B;V;40;0;19;1;1
EMM1D92C;V;20;0;9;4;5
EMM1V92A;V;107;36;0;0;0
EMM1V92B;V;101;25;1;0;0
EMM1V92C;V;94;20;0;3;3
EMM1V92D;V;96;18;2;1;1
EMM1V92E;V;103;26;0;3;3
EMM1V92F;V;103;32;1;0;0
EMM1V92G;V;110;30;0;1;1
EMM1V92H;V;13;13;0;0;0
EMM2V92A;V;100;37;0;0;0
EMM2V92B;V;55;21;0;1;0
EMM2V92C;V;1;1;0;0;0
EMM3D92A;V;40;1;17;0;1
EMM3JZa1;NULL;33;2;0;5;5
EMM3JZa2;NULL;33;1;0;3;4
EMM3JZb;NULL;34;5;0;0;0
EMM3V92A;V;96;23;0;3;3
EMM3V92B;V;96;14;2;2;2
EMM3V92C;V;84;16;2;0;0
EMM3V92D;V;86;19;2;3;3
EMM3V92E;V;99;40;0;2;2
EMM3V92F;V;93;28;0;5;5
EMM3V92G;V;1;1;0;0;0
EMM4EPa;V;76;13;8;1;2
EMM4SDP;V;14;5;1;0;0
EMT1A;V;282;34;29;15;17
EMT1B;V;271;49;36;13;8
EMT1C;V;136;11;14;3;5
EMT1D;D;133;15;9;2;4
EMT2A;V;269;46;42;10;13
EMT2B;V;267;42;33;10;11
EMT3;V;89;11;41;15;15
EMT4;V;63;1;11;0;0
EMW1DA1;V;65;1;49;2;2
EMW1DA2;V;41;2;27;1;1
EMW1VA1;V;208;22;21;23;17
EMW1VA2;V;214;35;17;17;21
EMW1VB1;V;216;30;15;13;18
EMW1VB2;V;220;32;9;17;21
EMW1VC1;V;217;36;13;14;18
EMW1VC2;V;209;30;15;17;27
EMW1VD1;V;209;37;24;12;21
EMW1VD2;V;209;46;29;17;26
EMW1VE1;V;208;35;24;27;27
EMW1VE2;V;198;25;28;12;19
EMW1VF1;V;200;21;28;21;24
EMW1VF2;V;202;24;21;15;22
EMW1VG1;V;206;29;29;16;17
EMW1VG2;V;72;14;2;5;8
EMW1VH1;V;23;5;0;0;0
EMW1VH2;V;21;8;0;0;0
EMW2DA1;V;73;7;45;1;2
EMW2DA2;V;73;7;44;2;3
EMW2VA1;V;150;30;17;4;5
EMW2VA2;V;152;30;23;4;8
EMW2VB1;V;150;24;16;5;9
EMW2VB2;V;147;28;18;13;13
EMW2VC1;V;86;18;1;5;8
EMW2VC2;V;86;25;8;7;8
EMW2VD1;V;162;35;9;12;13
EMW2VD2;V;151;27;17;6;7
EMW2VE1;V;162;37;10;8;11
EMW2VE2;V;156;34;13;10;13
EMW2VF1;V;144;18;14;2;4
EMW2VF2;V;145;25;16;12;18
EMW2VG1;V;67;7;10;2;4
EMW3DA1;V;75;11;10;0;1
EMW3DA2;V;36;5;1;1;1
EMW3VA1;V;40;9;4;6;5
EMW3VA2;V;34;4;1;4;4
EMW3VB1;V;67;7;4;16;17
EMW3VB2;V;68;10;10;3;8
EMW3VC1;V;41;9;2;0;0
EMW3VC2;V;35;4;1;3;3
EMW3VD1;V;69;9;2;7;7
EMW3VD2;V;69;10;3;13;11
EMW3VE1;V;69;12;4;8;9
EMW3VE2;V;54;8;5;6;4
EMW3VF1;V;71;12;4;5;5
EMW3VF2;V;35;4;2;2;2
EMW4DA1;V;8;7;0;0;0
EMW4DA2;V;9;8;0;0;0
EMW4VA1;V;9;9;0;0;0
EMW4VA2;V;9;9;0;0;0
EMW4VB1;V;9;9;0;0;0
EMW4VB2;V;1;1;0;0;0
EMW4VC1;V;9;9;0;0;0
EMW4VC2;V;9;9;0;0;0
EMW4VD1;V;9;9;0;0;0
EMW4VD2;V;9;9;0;0;0
ENA3;V;139;29;21;13;13
ENA4;V;58;25;3;0;0
EPO1VA;V;239;79;18;31;32
EPO1VB;V;237;78;19;33;33
EPO1VC;V;240;92;23;40;42
EPO1VD;V;211;79;22;35;32
EPO1VE;V;246;88;14;32;33
EPO1VF;V;245;82;12;31;32
EPO1VG;V;124;39;5;21;21
EPO1VH;V;123;43;3;17;16
EPO2VA;V;204;27;85;20;26
EPO2VB;V;193;20;84;16;20
EPO2VC;V;208;29;67;31;30
EPO2VD;V;208;24;75;35;34
EPO2VE;V;204;25;76;30;30
EPO2VF;V;124;24;30;15;17
EPO3VA;V;97;24;33;11;12
EPO3VB;V;93;22;34;8;12
EPO3VC;V;36;10;5;3;3
EPO3VD;V;39;13;4;6;6
EPO4VA;V;58;3;46;3;3
EPO4VB;V;67;2;46;3;3
EPO4VC;V;4;1;2;1;1
EPO4VS;V;61;10;35;6;6
EPS1VA1;V;118;46;10;6;6
EPS1VA2;V;115;45;7;10;11
EPS1VB1;V;115;37;7;5;5
EPS1VB2;V;128;43;4;14;15
EPS1VC1;V;123;58;16;8;10
EPS1VC2;V;123;43;6;13;16
EPS1VD1;V;56;19;4;5;8
EPS1VMA1;V;95;17;7;3;5
EPS1VMA2;V;98;20;13;4;7
EPS1VSA1;V;90;12;15;0;3
EPS1VSA2;V;98;18;14;5;3
EPS1VSB1;V;43;5;5;3;2
ER1A123;NULL;163;8;0;3;4
ER1B123;NULL;162;10;0;0;9
ER1C123;NULL;163;14;0;1;1
ER1D123;D;163;13;1;1;2
ER1MECPO;NULL;33;0;0;0;0
ER2A123;NULL;140;11;0;1;0
ER2A456;NULL;141;22;0;0;0
ER2B123;NULL;141;18;0;2;3
ER2MECPO;NULL;33;0;0;0;0
ER2P123;NULL;133;12;0;0;0
ER3B123;NULL;20;1;0;0;0
ER3C123;NULL;114;5;0;1;1
ER3K123;NULL;111;4;0;1;2
ER3M123;NULL;110;3;0;0;0
ER3P123;NULL;7;2;0;1;1
ER3P456;NULL;105;4;0;0;0
ER4C123;NULL;32;6;0;0;0
ER4K123;NULL;32;1;0;0;0
ER4M123;NULL;32;1;0;2;2
ERCVERG1;NULL;38;38;0;0;0
ERE1D;D;66;2;0;1;0
ERE1VA;V;227;20;27;11;11
ERE1VB;V;235;40;36;8;8
ERE1VC;V;221;30;35;15;16
ERE1VD;V;205;23;55;14;17
ERE1VE;V;189;34;24;0;0
ERE1VF;V;179;17;24;6;6
ERE1VG;V;124;15;4;1;1
ERE1VH;V;34;14;0;0;0
ERE2D;D;65;2;0;0;0
ERE2VA;V;222;15;43;6;6
ERE2VB;V;224;18;36;7;7
ERE2VC;V;113;10;6;0;0
ERE2VD;V;1;0;0;0;0
ERE3D;D;30;3;0;0;0
ERE3VA;V;112;8;14;4;4
ERE3VB;V;107;10;18;8;8
ERE3VC;V;44;1;13;4;4
ERE4VA;V;123;10;7;2;2
ERE4VB;V;119;9;8;0;0
ERE4VC;V;120;12;1;1;1
EROB01;NULL;4;4;0;0;0
ESB1D;D;61;0;0;0;0
ESB1VA;V;212;20;115;3;5
ESB1VB;V;216;27;114;7;7
ESB1VC;V;218;35;112;4;4
ESB1VD;V;216;26;114;7;9
ESB1VE;V;218;30;114;7;8
ESB1VF;V;70;15;22;8;8
ESB2D;D;61;0;0;3;3
ESB2DDU;D;23;23;0;0;0
ESB2VA;V;138;63;26;3;2
ESB2VB;V;142;58;26;1;0
ESB2VC;V;110;34;26;3;2
ESB2VD;V;123;45;26;2;2
ESB2VE;V;71;36;0;6;7
ESB3D;D;61;1;0;23;15
ESB3DDU;D;31;31;0;0;0
ESB3VA;V;110;62;15;22;22
ESB3VB;V;110;70;9;1;1
ESB3VD;V;21;17;0;0;0
ESB4D;D;42;33;0;5;1
ESB4V;V;62;39;0;0;0
ESB4VA;V;73;43;0;3;3
ESB5V;V;93;44;0;1;1
ESB6VA;V;8;8;0;0;0
ESB6VB;V;8;8;0;0;0
ESE1VA1;V;179;1;67;16;31
ESE1VA2;V;179;1;47;21;33
ESE1VB1;V;181;2;51;42;51
ESE1VB2;V;180;2;57;30;32
ESE1VC1;V;183;4;58;10;24
ESE1VC2;V;93;3;29;10;13
ESE1VD1;V;180;1;63;14;23
ESE1VD2;V;96;0;28;4;14
ESE1VE1;V;181;2;72;17;22
ESE2VA2;V;58;3;19;4;4
ESE2VB1;V;58;1;17;2;3
ESE2VB2;V;58;1;16;1;2
ESE2VD1;V;58;1;17;5;7
ESE2VD2;V;58;1;14;5;3
ESP1DA1;V;56;1;45;1;2
ESP1DDA1;D;60;0;0;1;1
ESP1DDA2;D;60;0;0;0;0
ESP1DDB1;D;60;0;0;1;6
ESP1DDB2;D;29;0;0;0;0
ESP1VA1;V;196;35;42;12;17
ESP1VA2;V;199;23;30;17;25
ESP1VB1;V;208;39;33;7;10
ESP1VB2;V;203;35;39;20;28
ESP1VC1;V;197;27;25;8;15
ESP1VC2;V;199;24;30;13;16
ESP1VD1;V;200;22;35;6;9
ESP1VD2;V;205;31;27;23;20
ESP1VE1;V;198;22;30;7;10
ESP1VE2;V;202;22;27;15;17
ESP1VF1;V;195;24;32;14;24
ESP1VF2;V;197;21;27;26;33
ESP1VG1;V;200;29;30;18;26
ESP1VG2;V;202;20;29;17;26
ESP2DA1;V;73;10;43;2;2
ESP2DDA1;D;63;0;2;3;4
ESP2DDA2;D;63;0;2;3;11
ESP2DDB1;D;63;0;2;3;6
ESP2DDB2;D;33;0;0;3;4
ESP2DDC1;D;33;0;0;3;4
ESP2DDC2;D;33;0;0;3;4
ESP2DDD1;D;39;6;0;10;4
ESP2DDD2;D;33;0;0;8;6
ESP2DDE1;D;33;0;0;4;8
ESP2DDE2;D;33;0;0;5;7
ESP2DDF1;D;33;0;0;4;3
ESP2DDF2;D;33;0;0;4;4
ESP2DDG1;D;33;0;0;7;6
ESP2DDG2;D;33;0;0;7;6
ESP2DDH1;D;33;0;0;4;3
ESP2DDH2;D;33;0;0;4;3
ESP2VA1;V;157;23;24;13;14
ESP2VA2;V;157;28;27;11;15
ESP2VB1;V;154;16;24;13;17
ESP2VB2;V;154;14;20;8;12
ESP2VC1;V;160;28;21;9;14
ESP2VC2;V;161;24;26;11;12
ESP2VD1;V;156;24;27;8;10
ESP2VD2;V;163;33;25;10;11
ESP2VE1;V;84;15;11;7;8
ESP2VE2;V;160;26;24;10;12
ESP2VF1;V;157;29;26;13;11
ESP2VF2;V;163;31;20;17;16
ESP2VG1;V;31;6;2;2;1
ESP2VG2;V;75;11;9;6;8
ESP3DA1;V;72;7;10;0;2
ESP3DDA1;D;58;0;0;1;1
ESP3DDA2;D;58;0;0;2;2
ESP3DDB1;D;58;0;0;0;0
ESP3DDB2;D;58;0;0;5;3
ESP3DDC1;D;58;0;0;0;0
ESP3DDC2;D;58;0;0;0;0
ESP3DDD1;D;58;0;0;3;3
ESP3DDD2;D;58;0;0;2;8
ESP3DDE1;D;58;0;0;4;8
ESP3DDE2;D;58;0;0;3;3
ESP3DDF1;D;58;0;0;1;1
ESP3DDF2;D;58;0;0;0;1
ESP3DDG1;D;58;0;0;3;3
ESP3DDG2;D;58;0;0;3;3
ESP3DDH1;D;58;0;0;2;3
ESP3DDH2;D;58;0;0;1;2
ESP3VA1;V;67;9;15;7;9
ESP3VA2;V;68;8;9;6;6
ESP3VB1;V;34;6;2;5;5
ESP3VB2;V;41;10;7;3;2
ESP3VC1;V;69;10;7;5;8
ESP3VD1;V;68;7;4;9;9
ESP3VD2;V;68;7;5;10;9
ESP3VE1;V;35;9;3;3;4
ESP3VE2;V;68;9;8;11;10
ESP3VF1;V;69;9;3;9;11
ESP3VF2;V;34;5;4;5;5
ESP4DA1;V;8;7;0;0;0
ESP4DDA1;D;63;1;0;3;11
ESP4DDA2;D;62;1;0;1;1
ESP4DDB1;D;63;1;0;3;4
ESP4DDB2;D;63;1;0;3;3
ESP4DDC1;D;63;0;0;2;2
ESP4DDC2;D;63;1;0;5;6
ESP4DDD1;D;63;0;0;7;7
ESP4DDD2;D;62;0;0;6;9
ESP4DDE1;D;48;0;0;4;13
ESP4DDE2;D;32;0;0;4;7
ESP4VA1;V;9;9;0;0;0
ESP4VA2;V;8;8;0;0;0
ESP4VB1;V;9;9;0;0;0
ESP4VB2;V;1;1;0;0;0
ESP4VC1;V;9;9;0;0;0
ESP4VC2;V;9;9;0;0;0
ESP4VD1;V;8;7;0;0;0
ESP4VD2;V;9;9;0;0;0
ESP4VE1;V;8;7;0;0;0
ESP4VE2;V;9;9;0;0;0
ESP4VF1;V;8;7;0;0;0
ESP4VF2;V;9;9;0;0;0
ETB1D;D;57;0;0;1;3
ETB1VA;V;255;34;30;31;25
ETB1VB;V;265;66;30;22;32
ETB1VC;V;266;61;26;28;39
ETB1VD;V;249;43;35;34;41
ETB2D;D;57;0;0;4;2
ETB2VA;V;136;40;3;8;13
ETB2VB;V;148;40;3;10;10
ETB2VC;V;70;19;1;5;6
ETB3D;D;60;3;0;11;11
ETB3VA;V;87;29;0;1;1
ETB3VB;V;78;28;6;1;3
ETB4FY;D;98;25;3;2;2
ETB4V;V;5;5;0;0;0
ETB4VA;V;6;2;0;0;0
ETB4VB;V;2;2;0;0;0
ETB5VA;V;178;10;34;4;8
ETB5VB;V;179;10;29;8;12
ETC1Va;V;279;49;25;16;19
ETC1Vb;V;279;57;25;17;21
ETC1Vc;V;286;64;21;14;18
ETC1Vd;V;288;62;24;20;23
ETC1Ve;V;286;60;25;19;26
ETC1Vf;V;287;60;26;25;29
ETC1Vg;V;282;64;20;9;10
ETC1Vh;V;281;58;20;15;15
ETC1Vi;V;277;52;19;17;21
ETC1Vj;V;275;56;29;20;21
ETC1Vk;V;13;5;0;1;1
ETC1Vl;V;13;5;1;1;1
ETC2VA;V;148;31;19;15;20
ETC2VB;V;149;33;17;16;20
ETC2VC;V;153;35;16;19;19
ETC2VD;V;156;36;17;13;14
ETC2VE;V;158;41;18;10;13
ETC2VF;V;159;36;14;13;16
ETC2VG;V;154;37;18;18;21
ETC2Vh;V;14;8;0;0;1
ETC2VMF1;V;70;14;8;6;6
ETC2VMF2;V;73;16;5;9;8
ETC2VMF3;V;72;15;6;8;7
ETC2VMF4;V;77;16;4;14;11
ETC2VMF5;V;79;15;9;14;12
ETC2VMF6;V;80;7;20;8;10
ETC2VMS1;V;60;11;4;4;8
ETC2VMT1;V;76;17;7;13;13
ETC2VMT2;V;73;16;7;12;13
ETC2VPF1;V;68;13;4;5;9
ETC2VPF2;V;67;16;7;4;4
ETC2VPF3;V;70;10;11;6;5
ETC2VPF4;V;66;13;8;5;5
ETC2VPF5;V;67;13;5;5;5
ETC2VPFa;V;2;2;0;0;0
ETC2VPFb;V;2;2;0;0;0
ETC2VPFc;V;2;2;0;0;0
ETC2VPFd;V;2;2;0;0;0
ETC2VPFe;V;2;2;0;0;0
ETC2VPT1;V;66;18;7;6;6
ETC2VPT2;V;65;17;8;7;7
ETC2VPTa;V;2;2;0;0;0
ETC2VPTb;V;2;2;0;0;0
ETC3st;NULL;1;0;0;0;0
ETC4Va;V;5;0;0;0;0
ETC4VMFa;V;57;27;3;2;3
ETC4VMFb;V;55;26;4;2;4
ETC4VMFc;V;58;25;3;4;4
ETC4VMFd;V;56;25;3;1;2
ETC4VMSa;V;45;22;3;0;1
ETC4VMTa;V;52;25;3;1;1
ETE1Va;V;275;54;25;17;24
ETE1Vb;V;279;57;24;14;24
ETE1Vc;V;272;46;23;17;19
ETE1Vd;V;142;30;7;6;6
ETE1Ve;V;46;11;1;3;7
ETE1Vf;V;13;4;1;1;2
ETE2Va;V;145;34;10;13;21
ETE2Vb;V;143;35;11;10;18
ETE2Vc;V;139;30;14;14;14
ETE2Vd;V;72;18;8;9;9
ETE2VMF1;V;68;16;3;12;12
ETE2VMF2;V;73;3;11;13;13
ETE2VMS1;V;61;21;3;3;6
ETE2VMT1;V;69;15;3;5;6
ETE2VPF1;V;63;18;5;6;8
ETE2VPF2;V;65;19;4;8;8
ETE2VPFa;V;3;3;0;0;0
ETE2VPFb;V;3;3;0;0;0
ETE2VPT1;V;64;25;3;6;7
ETE2VPTa;V;3;3;0;0;0
ETE4SD;NULL;93;28;0;14;16
ETE4VSD;V;56;25;6;3;4
ETI1A;V;160;31;31;33;36
ETI1B;V;157;19;28;28;31
ETI1Va;V;146;33;3;14;18
ETI1Vb;V;151;39;5;9;13
ETI2A;V;135;37;10;28;27
ETI2B;V;129;34;9;39;42
ETI2Va;V;131;24;12;5;6
ETI3;V;87;61;6;0;0
ETI3VST;V;36;23;0;1;1
ETN1A;V;294;8;44;24;27
ETN1B;V;231;25;43;16;18
ETN1C;V;295;32;36;37;41
ETN1D;D;232;27;19;30;32
ETN2;V;135;0;27;2;2
ETN2A;V;136;31;9;14;27
ETN2B;V;139;53;15;15;16
ETN4;V;76;23;5;0;0
ETN4A;V;94;33;7;0;1
ETN4B;V;94;33;7;0;1
EVJ1VA;V;103;1;1;0;0
EVJ1VB;V;42;0;0;0;0
EVJ1VC;V;85;0;0;0;0
EVJ1VD;V;113;9;0;0;0
EVJ1VE;V;27;27;0;0;0
EVJ1VF;V;28;28;0;0;0
EVJ1VG;V;28;28;0;0;0
EVJ1VH;V;14;14;0;0;0
EVJ1VJ;V;64;0;0;0;0
EVJ1VK;V;35;0;0;0;0
EVM1A;V;141;1;34;0;1
EVM1B;V;139;4;48;3;4
EVM1VA;V;136;3;51;3;3
EVM1VB;V;120;4;67;8;7
EVM2A;V;127;4;25;0;0
EVM2B;V;121;4;25;0;0
EVM2VA;V;133;9;35;3;2
EVM2VB;V;123;6;40;11;9
EVM3VA;V;1;0;0;0;0
EVM4A;V;40;0;8;0;0
EVM4VM;V;42;2;15;0;0
EVP0XLOM;NULL;40;0;0;0;0
EVP1VA;V;285;44;85;28;32
EVP1VB;V;284;39;72;26;41
EVP1VC;V;286;43;80;30;47
EVP1VD;V;286;49;77;31;39
EVP1VE;V;292;56;79;24;34
EVP1VF;V;290;48;77;28;33
EVP1VG;V;144;20;38;9;16
EVP1VGTA;V;271;41;45;28;30
EVP1VGTB;V;276;45;43;33;35
EVP1VGTC;V;274;48;48;29;38
EVP1VGTD;V;274;44;40;35;44
EVP1VGTE;V;146;31;28;11;14
EVP1VGTF;V;1;1;0;0;0
EVP1VH;V;290;44;79;26;33
EVP1VI;V;291;44;74;25;31
EVP1VJ;V;283;45;82;28;35
EVP1VK;V;141;21;40;11;14
EVP1VL;V;142;18;40;15;16
EVP1VM;V;143;19;41;11;13
EVP1VN;V;141;18;38;8;13
EVP1VO;V;143;23;39;8;9
EVP1VP;V;141;20;37;8;8
EVP1VQ;V;149;28;38;11;16
EVP1VR;V;11;1;0;0;0
EVP1VS;V;19;1;8;0;0
EVP2BSA;NULL;24;0;0;0;0
EVP2BSB;NULL;15;1;0;0;0
EVP2BSC;NULL;15;1;0;0;0
EVP2BSD;NULL;7;0;0;0;0
EVP2VA;V;40;6;11;0;2
EVP2VB;V;40;6;11;0;1
EVP2VBSA;V;9;4;3;1;1
EVP2VBSB;V;9;4;3;1;1
EVP2VBSC;V;9;4;3;1;1
EVP2VBSD;V;9;4;3;1;1
EVP2VBSE;V;8;1;3;1;1
EVP2VBSF;V;8;1;3;1;1
EVP2VC;V;83;22;13;9;10
EVP2VD;V;57;12;14;6;8
EVP2VE;V;59;10;13;9;11
EVP2VF;V;125;27;13;20;23
EVP2VG;V;99;23;14;11;14
EVP2VGTA;V;236;21;62;19;27
EVP2VGTB;V;236;35;54;20;28
EVP2VGTC;V;219;37;50;23;30
EVP2VGTD;V;115;11;32;9;11
EVP2VH;V;45;5;11;2;3
EVP2VI;V;97;27;13;9;10
EVP2VJ;V;34;6;6;6;6
EVP2VZBE;V;35;6;3;4;6
EVP2VZBF;V;35;6;2;8;8
EVP2VZBG;V;71;10;3;9;10
EVP2VZBH;V;70;9;5;10;11
EVP2VZBI;V;71;14;2;8;10
EVP2VZBJ;V;69;10;4;6;8
EVP2VZBK;V;34;4;1;4;8
EVP2VZBL;V;34;5;1;5;7
EVP2VZBM;V;35;7;0;7;7
EVP2VZOA;V;37;4;2;11;15
EVP2VZOB;V;36;5;3;8;10
EVP2VZOC;V;37;2;1;11;14
EVP2VZOD;V;37;5;2;8;13
EVP2VZOE;V;73;9;4;11;16
EVP2VZOF;V;73;5;4;12;14
EVP2VZOG;V;37;3;2;6;9
EVP2VZOH;V;37;2;1;5;10
EVP2VZOI;V;37;2;0;8;13
EVP2VZOJ;V;38;3;0;11;18
EVP2VZOK;V;38;4;1;9;10
EVP2VZOL;V;38;5;1;9;10
EVP2VZOM;V;38;4;0;10;10
EVP2VZRA;V;35;2;3;7;10
EVP2VZRB;V;36;4;4;8;9
EVP2VZRC;V;36;2;5;8;9
EVP2VZRD;V;37;4;4;9;9
EVP2ZRE;NULL;38;4;0;7;8
EVP2ZRF;NULL;38;2;0;12;12
EVP2ZRG;NULL;40;5;0;10;10
EVP2ZRH;NULL;39;5;0;8;11
EVP2ZRI;NULL;39;6;0;8;10
EVP2ZRJ;NULL;36;3;0;8;12
EVP2ZRK;NULL;39;4;0;7;8
EVP2ZRL;NULL;39;3;0;9;10
EVP2ZRM;NULL;38;4;0;12;13
EVP2ZRN;NULL;38;3;0;10;11
EVP3UA;V;143;43;18;8;10
EVP3VA;V;142;40;18;10;12
EVP3VB;V;143;43;19;11;13
EVP3VC;V;141;38;18;9;11
EVP3VD;V;143;42;18;9;11
EVP3VE;V;146;47;18;10;12
EVP3VF;V;145;47;18;9;11
EVP3VFA;V;74;18;15;5;6
EVP3VFB;V;77;24;15;3;4
EVP3VG;V;144;44;18;9;11
EVP3VGTA;V;289;22;180;12;18
EVP3VGTB;V;297;15;227;8;12
EVP3VGTC;V;258;22;159;14;15
EVP3VGTD;V;150;7;99;7;10
EVP3VH;V;142;41;18;17;18
EVP3VI;V;66;18;3;7;8
EVP4DA;D;32;15;1;3;3
EVP4UA;V;142;42;18;10;13
EVP4UB;V;77;24;15;3;4
EVP4UC;V;76;22;15;3;4
EVP4VA;V;141;40;18;9;11
EVP4VB;V;143;42;18;11;14
EVP4VC;V;141;38;18;9;11
EVP4VD;V;66;20;3;5;6
EVP4VE;V;142;43;18;9;11
EVP4VF;V;142;43;18;10;12
EVP4VFA;V;141;48;19;9;11
EVP4VFB;V;75;21;15;3;4
EVP4VG;V;146;50;18;12;14
EVP4VGTA;V;42;29;0;2;2
EVP4VGTB;V;20;14;0;0;0
EVP4VGTC;V;15;7;0;0;0
EVP4VGTD;V;15;7;0;0;0
EVP4VGTE;V;15;7;0;0;0
EVP4VH;V;76;22;15;4;5
EVP5UA;NULL;20;8;0;1;1
EVP5UC;NULL;18;6;0;1;1
EVP5VA;V;125;40;18;8;9
EVP5VB;V;147;54;18;12;14
EVP5VC;V;74;19;15;2;3
EVP5VFa;V;66;29;3;5;6
EWB1A;V;280;27;51;4;4
EWB1AD;NULL;280;27;0;4;3
EWB1AV;NULL;122;0;0;0;0
EWB1B;V;277;19;41;10;12
EWB1C;V;274;35;46;7;7
EWB1D;D;272;34;16;7;16
EWB1F;V;260;54;24;16;17
EWB1FS;NULL;180;57;0;6;12
EWB1IPD;NULL;280;28;0;6;10
EWB2A;V;257;37;17;22;22
EWB2AD;NULL;61;15;0;3;3
EWB2AV;NULL;55;0;0;0;0
EWB2B;V;256;48;18;10;10
EWB2C;V;251;47;27;15;11
EWB2D;D;133;38;7;5;9
EWB2F;V;252;48;27;21;21
EWB2IPD;NULL;268;81;0;34;39
EWB3AV;NULL;33;0;0;0;0
EWB4IPD;NULL;158;70;0;9;9
EXD0E;V;24;24;0;0;0
EXD0WNT;NULL;24;0;0;0;0
EXD0WT;NULL;24;1;0;0;0
EXR0EROC;NULL;111;32;0;99;99
EXR0LCA;NULL;32;0;0;7;0
EXR1A123;NULL;170;4;0;2;3
EXR1B123;NULL;171;6;0;3;3
EXR1BBL;NULL;158;0;0;0;0
EXR1C123;NULL;171;7;0;5;6
EXR1D123;D;169;8;2;3;3
EXR1E123;NULL;92;5;0;1;5
EXR1MECP;NULL;36;0;0;0;0
EXR2A123;NULL;141;5;0;1;1
EXR2A456;NULL;142;15;0;0;0
EXR2B123;NULL;136;6;0;0;1
EXR2MECP;NULL;31;0;0;18;18
EXR2P123;NULL;133;11;0;1;2
EXR3B123;NULL;20;0;0;0;0
EXR3C123;NULL;129;4;0;4;2
EXR3K123;NULL;115;1;0;1;1
EXR3M123;NULL;116;3;0;10;1
EXR3P123;NULL;18;3;0;0;1
EXR3P456;NULL;112;4;0;0;0
EXR4C123;NULL;33;1;0;0;0
EXR4K123;NULL;33;33;0;0;0
EXR4M123;NULL;33;1;0;1;1
EXR4P123;NULL;65;34;0;1;20
EXV0BC0A;V;32;8;0;24;24
EXV1VA;V;76;4;0;0;0
EXV1VB;V;124;12;0;0;0
EXV1VC;V;57;4;0;0;0
EXV1VD;V;114;1;0;0;0
EXV1VE;V;27;27;0;0;0
EXV1VF;V;28;28;0;0;0
EXV1VG;V;29;29;0;0;0
EXV1VH;V;27;27;0;0;0
EXV1VJ;V;13;13;0;0;0
EXV1VK;V;86;0;0;0;0
EXV1VL;V;8;8;0;0;0
EXV1VM;V;10;10;0;0;0
EXV1VN;V;20;20;0;0;0
EXV1VO;V;35;0;0;0;0
EXV1VP;V;16;16;0;0;0
EXV1VQ;V;16;16;0;0;0
EXV1VS;V;54;0;0;0;0
FSIP1;V;75;18;1;2;0
FSIP2;V;75;18;2;3;1
FSNL1;V;73;21;2;2;2
FSNL2;V;74;21;2;0;0
FSNL3;V;74;27;4;1;1
FSNL4;V;73;25;3;1;2
HBIE1;V;81;12;6;1;0
HBIE2;V;84;14;6;1;0
LEDWBIPO;NULL;34;17;0;16;16
MACZO;NULL;85;14;0;3;3
MAEOP;NULL;47;12;0;1;1
MAKL;NULL;92;7;0;0;0
MALON1;NULL;249;0;0;0;0
MAOR;NULL;50;13;0;3;3
MAPE1;V;156;81;7;6;6
MAPE2;V;155;82;7;2;2
MARGEE;NULL;153;70;0;6;5
MAVAM1;NULL;28;0;0;0;0
MBHESa;NULL;92;83;0;36;37
MBHESb;NULL;91;81;0;28;31
MBHESc;NULL;91;77;0;27;30
MBHESd;NULL;92;78;0;28;29
MBHESe;NULL;93;83;0;29;32
MBHESf;NULL;92;83;0;32;32
MBHESg;NULL;51;41;0;16;17
MBIDA;NULL;36;19;0;1;1
MBIME;NULL;58;0;0;0;0
MBRTE1;NULL;64;9;0;2;2
MCOSC1EA;NULL;193;82;0;1;1
MCOSC1EB;NULL;94;41;0;1;1
MCOWE1;NULL;122;15;0;3;2
MCOWE2;NULL;118;12;0;6;5
MCPO1E;V;180;28;60;1;1
MCRIP;NULL;29;1;0;0;0
MCSERa;NULL;83;69;0;23;23
MCSERb;NULL;83;69;0;29;29
MDUEE;NULL;5;0;0;0;0
MDULE;NULL;32;3;0;0;0
MEALG;NULL;153;41;0;2;2
MEES;NULL;115;29;0;2;2
MEXPD;NULL;134;1;0;0;0
MFAMB;V;79;0;1;0;0
MFAMBD;NULL;61;0;0;0;0
MFAMBE;NULL;20;0;0;0;0
MFMDT;NULL;21;21;0;0;0
MFMMA4D;D;66;18;0;2;0
MFMMA4E;V;121;21;13;0;0
MFYVE;NULL;59;3;0;1;1
MGESC;NULL;144;21;0;6;7
MGGZH1A1;NULL;65;4;0;1;2
MGGZH1A2;NULL;70;0;0;3;4
MHEDEN1Z;V;28;0;0;0;0
MHETEa;NULL;34;17;0;2;2
MHONP;NULL;51;0;0;0;0
MHRAC4;NULL;1;1;0;0;0
MIDM01;NULL;143;17;0;0;0
MINBP;NULL;117;42;0;1;1
MINDED;NULL;181;85;0;0;0
MINDER;NULL;97;28;0;0;0
MINDM;NULL;57;12;0;2;5
MINTWE;NULL;110;34;0;0;0
MIOR;NULL;98;14;0;1;2
MISHVa1;NULL;39;11;0;4;2
MISHVa2;NULL;24;5;0;2;1
MITMA1D;D;151;55;0;0;0
MITMA1E;V;177;85;9;1;1
MJZA1;V;80;14;31;3;4
MJZA2;V;58;8;20;2;4
MKEMADa;NULL;16;0;0;0;0
MKEMAVa;NULL;24;0;0;0;0
MKeuze2;NULL;7;7;0;0;0
MKeuze3;NULL;8;8;0;0;0
MKeuze4;NULL;4;4;0;0;0
MKeuze5;NULL;8;8;0;0;0
MKeuze6;NULL;1;1;0;0;0
MKUJHA1;NULL;60;1;0;1;1
MKUJHA2;NULL;58;6;0;4;4
MKUJHB1;NULL;61;2;0;7;1
MKUJHB2;NULL;61;2;0;2;6
MKUJHC1;NULL;29;2;0;4;4
MKUJHC2;NULL;7;0;0;0;0
MKuM1;V;56;21;16;0;2
MKuM2;V;32;15;5;2;3
MLAWS;NULL;31;9;0;6;6
MLEIN;NULL;83;2;0;0;0
MLGVT;NULL;52;15;0;0;0
MLOAE1;NULL;31;4;0;0;0
MLOAE2;NULL;15;0;0;0;0
MLOAR1;NULL;31;9;0;0;1
MLOAR2;NULL;17;0;0;0;0
MLSWb;NULL;43;6;0;0;0
MM3JZa;V;33;3;2;1;1
MM3JZb;V;34;6;5;0;1
MM4JZa;V;8;8;0;0;0
MM4JZb;V;8;8;0;0;0
MMEMHa1;NULL;62;0;0;1;3
MMEMHa2;NULL;40;6;0;4;7
MMEVE;NULL;60;36;0;0;0
MMEVEa;NULL;128;53;0;16;16
MMEVEk;NULL;203;94;0;15;12
MMKBA4;NULL;84;11;0;0;0
MMUSCIA;NULL;121;42;0;7;12
MMUSCIB;NULL;6;6;0;0;0
MMUSKEA;NULL;237;71;0;17;21
MMUSKEB;NULL;133;55;0;9;10
MNILE;NULL;15;0;0;0;0
MNILE1;NULL;48;8;0;0;0
MNILE2;NULL;8;0;0;0;0
MONDN;NULL;204;34;0;1;0
MONST1;NULL;120;33;0;1;1
MOPTR;NULL;40;3;0;7;8
MOPTR1;NULL;118;2;0;1;2
MOPTR8;NULL;65;2;0;1;2
MOWZW;NULL;113;5;0;3;4
MPDVL;NULL;63;0;0;0;0
MPEOR1;NULL;29;1;0;1;1
MPOBE;NULL;31;7;0;0;0
MPOSA;NULL;40;12;0;0;0
MPOVL1;NULL;205;15;0;5;4
MPOVL2;NULL;210;23;0;5;3
MPOVL3;NULL;108;10;0;5;4
MPPR;V;15;0;3;0;0
MPREP1;NULL;131;33;0;3;3
MPREP2;NULL;68;17;0;3;3
MREXC;NULL;31;0;0;0;0
MRPCA;NULL;238;59;0;22;28
MRSVE;NULL;74;14;0;1;1
MSCMA;NULL;44;0;0;1;1
MSECUa;NULL;86;51;0;34;36
MSECUb;NULL;86;51;0;32;32
MSECUc;NULL;86;54;0;37;40
MSECUd;NULL;80;48;0;26;29
MSOPSa1;NULL;62;0;0;2;3
MSOPSa2;NULL;61;0;0;2;3
MSPIRa1;NULL;170;27;0;6;9
MSPIRa2;NULL;172;21;0;3;2
MSPMA;NULL;65;1;0;0;0
MSUIB;NULL;78;1;0;8;8
MSVO;NULL;29;0;0;1;1
MVPNP;NULL;15;0;0;0;0
MWBA;NULL;72;27;0;0;0
MWIGK1;NULL;31;4;0;0;0
MWIGKa1;NULL;2;0;0;0;0
MWIGKa2;NULL;24;2;0;0;0
MZBIA;NULL;20;0;0;0;0
MZMIA;NULL;19;0;0;0;0
