class;"scheduled days";"days with too many buildings"
AHH1DA;80;0
AHH1EE;100;0
AHH1EF;104;0
AHH1EG;98;0
AHH1EH;96;0
AHH1V2;178;0
AHH1VA;201;0
AHH1VB;199;0
AHH1VC;193;0
AHH1VD;194;0
AHH1VE;198;0
AHH1VF;195;0
AHH1VH;98;0
AHH2DA;83;0
AHH2EA;98;0
AHH2EB;53;0
AHH2VA;103;0
AHH2VB;95;0
AHH2VC;94;0
AHH2VE;97;0
AHH2VF;96;0
AHH2VG;51;0
AHH3EA;97;0
AHH3EB;44;0
AHH3EC;46;0
AHH3EI;24;0
AHH3EK;24;0
AHH3EM;45;0
AHH3EN;20;0
AHH3EO;23;0
AHH3ES;22;0
AHH3UO;16;0
AHH3VA;218;0
AHH3VB;171;0
AHH3VC;55;0
AHH3VD;63;0
AHH3VH;101;0
AHH3VI;20;0
AHH3VJ;26;0
AHH3VK;16;0
AHH3VL;24;0
AHH3VM;51;0
AHH3VN;25;0
AHH3VO;29;0
AHH3VP;25;0
AHH3VR;24;0
AHH3VS;29;0
AHH4DA;7;0
AHH4DB;49;0
AHH4EA;4;0
AHH4EA1;4;0
AHH4EA2;4;0
AHH4EB;44;0
AHH4EC;46;0
AHH4EH;52;0
AHH4VA;4;0
AHH4VA1;4;0
AHH4VA2;4;0
AHH4VA3;4;0
AHH4VA4;4;0
AHH4VA5;4;0
ASE1D;65;0
ASE1VA;237;0
ASE1VB;244;0
ASE1VC;149;0
ASE2D;65;0
ASE2VA;248;0
ASE2VB;127;0
ASE3D;17;0
ASE3VA;114;0
ASE4VA;53;0
ATH4IP01;8;0
ATH4IP02;4;0
ATH4IP03;3;0
ATH4IP04;3;0
ATH4NL01;15;0
ATH4NL02;14;0
ATH4NL03;6;0
ATH4NL04;7;0
ATH4NL05;5;0
ATH4NL06;4;0
ATH4NL07;3;0
ATH4NL08;3;0
ATH4NL09;3;0
ATH4NL10;4;0
ATH4NL99;57;0
ATHIP01;13;0
ATHIP02;4;0
ATHIP03;6;0
ATHIP04;5;0
ATHNL01;15;0
ATHNL02;14;0
ATHNL03;10;0
ATHNL04;9;0
ATHNL05;2;0
ATHNL06;2;0
ATHNL07;5;0
ATHNL08;5;0
ATHNL09;5;0
ATHNL10;6;0
ATHNL11;6;0
ATHNL12;5;0
DAC3VA;127;0
DAC4VA;81;0
DAG0;46;0
DAR1VA;196;0
DAR1VB;193;0
DAR1VC;191;0
DAR2VA;188;0
DAR2VB;186;0
DAR3V12;10;0
DAR3V34;10;0
DAR3V56;10;0
DAR3V78;10;0
DAR3VA;148;0
DAR3VB;165;0
DAR3VC;78;0
DAR4VA;35;0
DAR4VB;31;0
DAR5VA;29;0
DAR5VB;29;0
DAR6V;30;0
DAR7V;12;0
DAR8V;11;0
DBE1DA;61;0
DBE2DA;63;0
DBE3DA;30;0
DBE3VA;203;0
DBI1DA;54;0
DBI1VA;136;0
DBI1VB;137;0
DBI2DA;110;0
DBI2VA;246;0
DBI3DA;23;0
DBI3VA;95;0
DBI4DA;16;0
DBI4VA;25;0
DBM1A;290;0
DBM1B;289;0
DBM1C;278;0
DBM1D;141;0
DBM1I;143;0
DBM2A;228;0
DBM2B;251;0
DBM2C;134;0
DBM3a;54;0
DBM3b;54;0
DBM4a;54;0
DBM4b;54;0
DBMint1;8;0
DCE001;107;0
DCE002;107;0
DCE003;96;0
DCE004;114;0
DCE005;47;0
DCE0V01;108;0
DCE0V02;88;0
DCE0V03;50;0
DCE0V04;50;0
DCE0V05;46;0
DCE0V06;50;0
DCE0V07;57;0
DCE0V08;57;0
DCE0V09;50;0
DCE0V10;49;0
DCE1VA;216;0
DCE1VB;217;0
DCE1VC;215;0
DCE1VD;215;0
DCE1VE;217;0
DCE1VF;217;0
DCE1VG;105;0
DCE1VH;105;0
DCE2IA;172;0
DCE2VA;228;0
DCE2VB;231;0
DCE3IA;226;0
DCE3VA;106;0
DCE3VB;104;0
DCE4IA;53;0
DCE4VA;1;0
DCE4VB;1;0
DCEdoc2;35;0
DCEEHL;2;0
DCEMHAVO;9;0
DCH1;160;0
DCH1A;129;0
DCH1B;137;0
DCH1I;275;0
DCH2;242;0
DCH3;83;0
DCH4;83;0
DCHint1;4;0
DCS1VA;215;0
DCS1VB;211;0
DCS1VC;211;0
DCS1VD;213;0
DCS1VE;216;0
DCS1VF;213;0
DCS1VG;111;0
DCS1VH;111;0
DCS1VR;114;0
DCS2VA;213;0
DCS2VB;211;0
DCS2VR;110;0
DCS3VA;109;0
DCS3VB;59;0
DCS3VR;61;0
DCS4VA;51;0
DCS4VB;1;0
DCS4VR;30;0
DCT4VIB;58;0
DDSTE;20;0
DEC1CE;40;0
DEC2CE;40;0
DEC3CE;20;0
DEM1VA;238;0
DEM1VB;237;0
DEM1VC;244;0
DEM1VD;246;0
DEM1VE;116;0
DEM2VA;241;0
DEM2VB;240;0
DEM2VC;228;0
DFM1DA;80;0
DFM1V2;135;0
DFM1V2A;45;0
DFM1V2B;45;0
DFM1VA;189;0
DFM1VB;188;0
DFM1VC;190;0
DFM1VD;188;0
DFM1VE;197;0
DFM1VF;199;0
DFM1VG;196;0
DFM1VH;197;0
DFM1VI;196;0
DFM1VJ;194;0
DFM1VK;54;0
DFM2DA;80;0
DFM2VA;99;0
DFM2VB;103;0
DFM2VC;50;0
DFM2VE;98;0
DFM2VF;99;0
DFM2VG;98;0
DFM2VH;49;0
DFM2VI;49;0
DFM3UO;16;0
DFM3VA;158;0
DFM3VB;158;0
DFM3VC;102;0
DFM3VD;30;0
DFM3VH;104;0
DFM3VI;28;0
DFM3VJ;28;0
DFM3VK;23;0
DFM3VL;27;0
DFM3VM;39;0
DFM3VN;24;0
DFM3VO;22;0
DFM3VP;22;0
DFM3VR;20;0
DFM3VS;12;0
DFM4DA;7;0
DFM4DB;50;0
DFM4EA;4;0
DFM4VA;4;0
DFM4VA1;4;0
DFM4VA2;4;0
DFM4VA3;4;0
DFM4VA4;4;0
DFM4VA5;4;0
DFM4VA6;4;0
DFM4VH;28;0
DFS3VA;256;0
DFS5VX;123;0
DFT1VA;117;0
DGZ01;11;0
DGZ1HCSW;24;0
DGZ2HCSW;10;0
DHB0doc1;6;0
DHR0P1;20;0
DHR0P2;12;0
DHR0P3;2;0
DHR1DA;61;0
DHR1HE;133;0
DHR1HF;71;0
DHR1HZ;29;0
DHR1VA;230;0
DHR1VB;231;0
DHR1VC;228;0
DHR1VD;229;0
DHR1VE;122;0
DHR1VF;43;0
DHR1VS;120;0
DHR1VT;65;0
DHR2DA;66;0
DHR2DB;38;0
DHR2VA;150;0
DHR2VB;155;0
DHR2VC;76;0
DHR2VD;152;0
DHR2VE;76;0
DHR2VF;75;0
DHR3DA;32;0
DHR3DB;32;0
DHR3VA;89;0
DHR3VB;89;0
DHR3VC;91;0
DHR3VD;93;0
DHR3VE;47;0
DHT1DA;80;0
DHT1EA;194;0
DHT1EB;149;0
DHT1EC;102;0
DHT1ED;57;0
DHT1EE;99;0
DHT1EF;202;0
DHT1V2;124;0
DHT1VA;200;0
DHT1VB;200;0
DHT1VC;193;0
DHT1VD;193;0
DHT1VE;201;0
DHT1VF;199;0
DHT1VG;197;0
DHT1VH;198;0
DHT1VI;105;0
DHT1VJ;101;0
DHT1VK;103;0
DHT2DA;83;0
DHT2EA;103;0
DHT2EB;101;0
DHT2EE;114;0
DHT2EF;111;0
DHT2VA;103;0
DHT2VB;101;0
DHT2VC;95;0
DHT2VD;51;0
DHT2VE;103;0
DHT2VF;96;0
DHT2VG;103;0
DHT2VH;47;0
DHT3EA;99;0
DHT3EB;107;0
DHT3EC;52;0
DHT3ED;50;0
DHT3EE;56;0
DHT3EI;26;0
DHT3EK;21;0
DHT3EM;47;0
DHT3EN;25;0
DHT3EO;21;0
DHT3ES;23;0
DHT3UO;16;0
DHT3VA;159;0
DHT3VB;125;0
DHT3VC;84;0
DHT3VD;84;0
DHT3VE;44;0
DHT3VF;44;0
DHT3VH;102;0
DHT3VI;24;0
DHT3VJ;27;0
DHT3VK;23;0
DHT3VL;29;0
DHT3VM;52;0
DHT3VN;25;0
DHT3VO;21;0
DHT3VP;23;0
DHT3VR;20;0
DHT3VS;25;0
DHT4DA;7;0
DHT4DB;48;0
DHT4EA;4;0
DHT4EA1;4;0
DHT4EA2;4;0
DHT4EC;52;0
DHT4ED;50;0
DHT4EH;52;0
DHT4VA;4;0
DHT4VA1;4;0
DHT4VA2;4;0
DHT4VA3;4;0
DHT4VA4;4;0
DHT4VA5;4;0
DHT4VA6;4;0
DHT4VH;28;0
DID1VA;124;0
DID1VB;119;0
DID1VC;4;0
DID2VA;230;0
DID2VB;231;0
DID4VA;3;0
DID4VAid;56;0
DID4VAis;49;0
DIM1VA;225;0
DIM1VB;235;0
DIM1VC;227;0
DIM1VF;147;0
DIM2VA;245;0
DIM2VB;84;0
DIM3VA;222;0
DIM3VB;3;0
DIM3VC;1;0
DIM4VA;1;0
DIM4VAm;4;0
DIM4VX;1;0
DIMx01;27;0
DIMx02;9;0
DIMx03;5;0
DIMx04;10;0
DIMx05;6;0
DIMx06;15;0
DIMx08;6;0
DIMx09;5;0
DIMx10;15;0
DIV1D;34;0
DIV1VA;237;0
DIV1VB;232;0
DIV1VF;1;0
DIV2D;34;0
DIV2VA;226;0
DIV2VB;3;0
DIV3D;12;0
DIV3VA;95;0
DIV4VA;1;0
DLB01;67;0
DLB01K;93;0
DLB01L;90;0
DLB01M;51;0
DLB01N;48;0
DLB12K;135;0
DLB12L;136;0
DLB1DA;64;0
DLB1Sa;67;0
DLB1VA;164;0
DLB1VB;166;0
DLB1VC;167;0
DLB1VD;132;0
DLB1VE;144;0
DLB1VF;142;0
DLB1VG;172;0
DLB1VH;169;0
DLB1VI;157;0
DLB1VO;139;1
DLB1VP;85;1
DLB1VX;97;0
DLB1VY;98;0
DLB23K;136;0
DLB23L;128;0
DLB2DA;64;0
DLB2DB;66;0
DLB2DC;34;0
DLB2DD;34;1
DLB2GH1A;18;0
DLB2GH1B;18;0
DLB2GH2A;14;0
DLB2GH2B;14;0
DLB2GNEA;19;0
DLB2GNEB;19;0
DLB2GNH1;18;0
DLB2GNH2;18;0
DLB2VA;130;0
DLB2VB;130;0
DLB2VC;130;0
DLB2VD;138;0
DLB2VE;139;0
DLB2VF;140;0
DLB2VI;120;0
DLB34K;81;0
DLB34L;38;0
DLB3DA;129;0
DLB3DB;131;0
DLB3VA;153;1
DLB3VB;145;2
DLB3VC;141;1
DLB3VD;145;1
DLB3VE;155;1
DLB3VF;80;2
DLB3VI;99;0
DLB45K;15;0
DLB45L;15;0
DLB4DA;73;0
DLB4VA;38;0
DLB4VB;30;0
DLB4VC;39;0
DLB4VD;40;0
DLB4VE;6;0
DLB4VF;6;0
DLO32;211;0
DLO41A;312;0
DLO41B;312;0
DLO42c;189;0
DLO42m;187;0
DLO43c;249;0
DLO43m;200;0
DMA2Da;16;0
DMH1;23;0
DMK1VA;108;0
DMK2IB;77;0
DMK2VA;192;0
DMK3VA;2;0
DMK4VA;59;0
DMK4VIB;115;0
DPA1SA;106;0
DPA1SB;106;0
DPA1SC;50;0
DPREP-A;138;0
DPREP-B;138;0
DPREP-C;138;0
DPREP-D;138;0
DPREP-E;1;0
DRO1VA;121;0
DRO1VB;122;0
DRO1VC;33;0
DRO2IB;78;0
DRO2VA;215;0
DRO2VB;151;0
DRO2VC;143;0
DRO3VA;1;0
DRO3VB;1;0
DRO3VC;1;0
DRO4VA;59;0
DRO4VB;46;0
DRO4VC;14;0
DRO4VIB;91;0
DSB1VA;213;0
DSB1VB;214;0
DSB1VC;214;0
DSB1VD;64;0
DSB2D;30;0
DSB2VA;154;0
DSB2VB;167;0
DSB3D;53;0
DSB3VA;153;0
DSB3VB;34;0
DSB4D;61;0
DSB4V;164;0
DSB5D;31;0
DSB5V;91;0
DSJ1DA;66;0
DSJ1VA;224;0
DSJ1VB;224;0
DSJ1VC;235;0
DSJ1VD;248;0
DSJ1VE;247;0
DSJ1VF;115;0
DSJ2DA;65;0
DSJ2VA;234;0
DSJ2VB;236;0
DSJ2VC;230;0
DSJ2VD;116;0
DSJ3DA;29;0
DSJ4VA;113;0
DSJ4VB;112;0
DSJ4VC;101;0
DSN1LVA;67;0
DSN1LVB;65;0
DSN1LVC;53;0
DSN1LVD;10;0
DSN2LVA;48;0
DSN2LVB;48;0
DSN2LVC;3;0
DSN3LVA;56;0
DSN3LVB;57;0
DSN3LVC;77;0
DSN3LVD;1;0
DSN3PDAA;1;0
DSN3PVAA;34;0
DSN3PVAB;7;0
DSN3PVAC;4;0
DSN3PVBA;4;0
DSN4LVA;35;0
DSN4LVB;29;0
DSN4LVC;11;0
DSNLV4;5;0
DSNTENT1;7;0
DSNTENT2;13;0
DSNTENT3;12;0
DSNTENT4;10;0
DSNTENT5;3;0
DSO1VA;106;0
DSO1VB;104;0
DSO2IB;76;0
DSO2VA;191;0
DSO3VA;164;0
DSO4VIB;90;0
DTB1VA;244;0
DTB1VB;242;0
DTB2D;30;0
DTB2V;115;0
DTB3D;38;0
DTB3V;71;0
DTB4V;8;0
DTP0V0;1;0
DTP0V1;9;0
DTP0V2;7;0
DTP0V3;4;0
DTP0V4;13;0
DTP0V5;8;0
DTP0V8;9;0
DTP0V9;6;0
DTP1DA;63;0
DTP1DB;63;0
DTP1VA;233;0
DTP1VB;233;0
DTP1VC;236;0
DTP1VD;234;0
DTP1VE;241;0
DTP1VF;237;0
DTP1VG;238;0
DTP1VH;237;0
DTP1VJ;236;0
DTP1VK;234;0
DTP1VL;233;0
DTP1VM;236;0
DTP1VN;243;0
DTP1VO;248;0
DTP1VP;239;0
DTP1VR;242;0
DTP1VS;251;0
DTP1VT;254;0
DTP1VU;242;0
DTP1VV;184;0
DTP1VW;126;0
DTP1VX;126;0
DTP1VY;121;0
DTP1VZ;64;0
DTP2DA;66;0
DTP2DB;31;0
DTP2VA;207;0
DTP2VB;211;0
DTP2VC;218;0
DTP2VD;220;0
DTP2VE;234;0
DTP2VF;224;0
DTP2VG;224;0
DTP2VH;225;0
DTP2VI;234;0
DTP2VJ;212;0
DTP2VK;218;0
DTP2VL;220;0
DTP2VZ;168;0
DTP3DA;43;0
DTP3DG;52;0
DTP3DP;45;0
DTP3DT;82;0
DTP3VA;115;0
DTP3VB;44;0
DTP3VG;93;0
DTP3VH;91;0
DTP3VI;43;0
DTP3VM;88;0
DTP3VN;42;0
DTP3VO;37;0
DTP3VT;154;0
DTP3VU;124;0
DTP3VV;87;0
DTP3VW;13;0
DTP3VZ;8;0
DUMMY1;12;0
DUS1VA;117;0
DUS1VB;109;0
DUS1VC;120;0
DUS1VD;118;0
DVJ1VA;104;1
DVJ1VB;15;0
DVJ1VC;153;0
DVJ1VD;52;0
DVJ1VE;58;0
DVJ1VF;18;0
DVJ1VG;26;0
DVJ1VH;6;0
DVP1DA;17;0
DVP1VA;220;0
DVP1VB;216;0
DVP1VC;216;0
DVP1VD;219;0
DVP1VE;194;0
DVP1VF;110;0
DVP1VG;109;0
DVP1VH;109;0
DVP1VP;8;0
DVP1VS;8;0
DVP2BSA;14;0
DVP2BSB;7;0
DVP2DA;22;0
DVP2DB;12;0
DVP2VA;63;0
DVP2VB;80;0
DVP2VBSA;44;0
DVP2VBSB;44;0
DVP2VC;84;0
DVP2VD;121;0
DVP2VE;30;0
DVP2VZBC;35;0
DVP2VZBD;34;0
DVP2VZBE;34;0
DVP2VZBF;34;0
DVP2VZBG;34;0
DVP2VZOA;67;0
DVP2VZOB;35;0
DVP2VZOC;35;0
DVP2VZOD;37;0
DVP2VZOE;35;0
DVP2VZOF;35;0
DVP2VZRA;64;0
DVP2VZRB;64;0
DVP2VZRC;36;0
DVP2VZRD;36;0
DVP3DA;156;0
DVP3UA;158;0
DVP3UB;121;0
DVP3UC;120;0
DVP3UD;84;0
DVP3UMA;37;0
DVP3UMB;38;0
DVP3UMC;37;0
DVP3UMD;37;0
DVP3VA;156;0
DVP3VB;157;0
DVP3VC;159;0
DVP3VD;157;0
DVP3VE;120;0
DVP3VF;121;0
DVP3VMA;158;0
DVP3VMB;158;0
DVP3VMC;143;0
DVP4DA;158;0
DVP4DB;155;0
DVP4UA;157;0
DVP4UB;84;0
DVP4UC;57;0
DVP4VA;160;0
DVP4VB;157;0
DVP4VC;157;0
DVP4VD;127;0
DVP5VA;91;0
DXD0E;12;0
DXN0T6;8;0
DXN1LVA;65;0
DXN1LVB;65;0
DXN1LVC;66;0
DXN2LVA;46;0
DXN2LVB;44;0
DXN2LVC;47;0
DXN3LVA;61;0
DXN3LVB;78;0
DXN4LV4;2;0
DXN4LVA;19;0
DXN4LVB;19;0
DXN4LVC;19;0
DXP0A;139;0
DXP0B;139;0
DXP0C;139;0
DXV0BC0A;4;0
DXV1VA;64;0
DXV1VB;30;0
DXV1VC;138;0
DXV1VF;28;0
DXV1VG;21;0
DXV1VH;13;0
DXV1VJ;25;0
DXV1VL;9;0
DXV1VM;8;0
DXV1VP;8;0
DXV1VQ;8;0
EAC3VA;134;0
EAC4VA;95;0
EBCA-E;95;0
EBE3VA;189;0
EBE3VB;136;0
EBE3VC;28;0
EBI1Va;220;13
EBI1Vb;283;20
EBI1Vc;287;22
EBI1Vd;150;8
EBI2Va;258;4
EBI2Vb;156;4
EBI3Va;89;0
EBI3VST;1;0
EBI4Va;1;0
EBK1A;257;1
EBK1B;258;1
EBK1C;251;0
EBK1D;61;0
EBK2A;263;0
EBK2B;262;0
EBK2C;263;0
EBK2D;262;0
EBK2E;263;0
EBK2F;265;1
EBK2G;264;1
EBK2H;264;1
EBK2I;138;1
EBK2J;138;1
EBK3;14;0
EBK4;111;0
EBK5;10;0
EBM0int1;6;0
EBM1A;264;0
EBM1B;264;0
EBM1C;282;0
EBM1D;269;0
EBM1E;279;0
EBM1F;137;0
EBM1V;281;0
EBM2;100;0
EBM2A;164;0
EBM2B;166;0
EBM2C;32;0
EBM2D;32;0
EBM3-4;260;0
EBMint1;5;0
EBR0MHBa;32;0
EBRD01;43;0
EBRD02;21;0
EBRD03;15;0
EBRD04;9;0
EBRD05;5;0
EBRFY1;62;0
EBRMHBOa;30;0
EBS1VA;103;0
EBS1VB;55;0
EBS2VA;210;5
EBS3D;13;0
EBS3VA;102;0
EBT1D;60;0
EBT1VA;235;5
EBT1VB;241;2
EBT2D;59;0
EBT2V;64;0
EBT2VA;69;0
EBT2VB;71;1
EBT3D;59;0
EBT3V;85;1
EBT4V;13;0
ECE1a;131;0
ECE1b;132;0
ECE1BAM;284;0
ECE1c;117;0
ECE1d;135;0
ECE1DT;56;0
ECE1DTV;28;0
ECE1e;129;0
ECE1f;121;0
ECE1g;125;0
ECE1h;130;0
ECE1i;128;0
ECE1inte;121;0
ECE2a;133;0
ECE2b;137;0
ECE2c;136;0
ECE2d;136;0
ECE2DT;56;0
ECE2DTV;28;0
ECE2e;136;0
ECE2f;133;0
ECE2g;138;0
ECE2h;139;0
ECE2i;71;0
ECE3Aa;110;0
ECE3Ab;104;0
ECE3Ac;114;0
ECE3Ad;103;0
ECE3Ax;58;0
ECE3Dc;32;0
ECE3De;59;0
ECE3DT;56;0
ECE3Fe;35;0
ECE3rep;39;0
ECE3Se;123;0
ECE3Sf;55;0
ECE4Aa;126;0
ECE4Ab;132;0
ECE4Ac;127;0
ECE4Ad;123;0
ECE4Ax;62;0
ECE4Dc;65;0
ECE4De;64;0
ECE4DT;28;0
ECE4Se;65;0
ECE4Sf;71;0
ECE6Aa;221;0
ECE6Ab;174;0
ECE6Ax;187;0
ECE6Db;68;0
ECE6Dc;75;0
ECE6Fb;24;0
ECE6Sb;68;0
ECE6Sc;106;0
ECE7;114;0
ECH1A;259;1
ECH1ACS;254;0
ECH1B;269;1
ECH1BCS;249;0
ECH1C;147;0
ECH1CCS;124;0
ECH1V;36;0
ECH2;217;0
ECH2ACS;220;0
ECH2BCS;221;0
ECH3-4;105;0
ECH3-4CS;39;0
ECHint1;4;0
ECI1;253;0
ECI2;239;0
ECI3;6;0
ECI4;70;0
ECP3/4;24;0
ECS3-4;164;0
ECT1;151;0
ECT1A;158;0
ECT1B;149;0
ECT1IWT;5;0
ECT1WTV;30;0
ECT2;180;0
ECT2IWT;94;0
ECT2WT;99;0
ECT3-4;158;0
ECTint1;5;0
EDSTE;23;0
EDSTWNT;23;0
EDSTWT;23;0
EEL1A;288;0
EEL1B;284;0
EEL1I;131;0
EEL1IA;135;0
EEL1IB;92;0
EEL1MBO;38;0
EEL1SA;100;0
EEL1SB;108;0
EEL2A;262;0
EEL2B;271;0
EEL2IA;252;0
EEL2IB;257;0
EEL3A;86;0
EEL3B;90;0
EEL3IA;78;0
EEL3IB;88;0
EEL5A;119;0
EEL5B;59;0
EEL5P;120;0
EELFY;68;0
EEM1DNOA;56;0
EEM1DSPD;45;0
EEM1VA;231;0
EEM1VB;231;0
EEM1VC;226;0
EEM1VD;230;0
EEM1VE;223;0
EEM1VF;237;0
EEM1VG;235;0
EEM1VH;238;0
EEM1VI;171;1
EEM1VJ;120;0
EEM1VK;59;0
EEM2DNOA;56;0
EEM2DSPD;60;0
EEM2VA;238;0
EEM2VB;238;0
EEM2VC;241;0
EEM2VD;242;1
EEM2VE;239;1
EEM3DNOA;53;0
EEM3DSPD;14;0
EEMBO;34;0
EFO1A;220;0
EFO1B;227;0
EFO1C;219;0
EFO1D;1;0
EFO2A;182;0
EFO2B;189;0
EFO3;144;0
EFR3VA;128;0
EFR3VB;12;1
EFR3VL;43;0
EFR4VA;28;0
EFY0XA;17;0
EFY1MSA;35;0
EFY1MSKA;8;0
EFY1VA;220;2
EFY1VB;234;1
EFY1VC;227;1
EFY1VD;244;0
EFY1VE;224;0
EFY1VF;231;0
EFY1VI;250;1
EFY2MSA;51;0
EFY2VA;229;0
EFY2VB;229;0
EFY2VC;226;0
EFY2VD;218;0
EFY2VE;207;0
EFY2VF;216;1
EFY2VIA;247;0
EFY2VIB;249;0
EFY3MSA;47;0
EFY3VA;196;0
EFY3VB;73;0
EFY3VC;55;0
EFY3VD;57;0
EFY3VE;60;0
EFY3VF;44;0
EFY3VIA;142;0
EFY3VIB;149;0
EFY4VA;73;0
EFY4VB;70;0
EFY4VC;65;1
EFY4VD;62;0
EFY4VE;29;0
EFY4VF;22;0
EFY4VIA;6;0
EFY4VP;30;0
EGZ1ANP;44;0
EGZ1ANPa;23;0
EGZ1ANPb;23;0
EGZ2ANP;44;0
EHO1;28;0
EHO2;28;0
EHO3;28;0
EHP1;38;0
EHP1HS1;40;0
EHP1HS2;40;0
EHP1HS3;37;0
EHP2;38;0
EHP3;38;0
EHPHCSW1;38;0
EHPHCSW2;39;0
EHR1DA;64;0
EHR1DB;40;0
EHR1VA1;255;0
EHR1VA2;259;0
EHR1VB1;262;0
EHR1VB2;271;1
EHR1VC1;254;0
EHR1VC2;256;0
EHR1VD1;249;0
EHR1VD2;255;0
EHR1VE1;249;0
EHR1VE2;5;0
EHR1VIA;254;0
EHR1VIB;254;0
EHR2D;59;0
EHR2VA1;167;0
EHR2VA2;164;0
EHR2VB1;160;0
EHR2VB2;80;0
EHR2VC1;164;0
EHR2VC2;167;0
EHR2VIA;87;0
EHR2VSD;126;0
EHR3D;32;0
EHR3VA1;54;0
EHR3VA2;56;0
EHR3VB1;96;0
EHR3VB2;93;1
EHR3VIA;154;0
EHR4V;9;0
EHR4VA;6;0
EHR4VB;1;0
EHS1M1;25;0
EHS1M2;13;0
EIB1a;117;0
EIB1b;119;0
EIB1c;65;0
EIB1d;118;0
EIB1e;132;0
EIB1f;125;0
EIB1g;116;0
EIB1h;126;0
EIB2a;119;0
EIB2b;127;0
EIB2c;59;0
EIB2d;62;0
EIB2e;119;0
EIB2f;125;0
EIB2g;124;0
EIB2h;118;0
EIB3As;110;0
EIB3Bs;102;0
EIB3Cs;3;0
EIB3Dgf;122;0
EIB3Ed;60;0
EIB3Fd;3;0
EIB3rep;40;0
EIB4As;103;0
EIB4Bs;102;0
EIB4Dgf;112;0
EIB4Ed;55;0
EIB6a;165;0
EIB6b;85;0
EIB6c;82;0
EIB7;140;0
EIC1Va;130;3
EIC1Vb;129;3
EIC1Vc;129;3
EIC1Vd;125;4
EIC1Ve;142;7
EIC1Vf;143;6
EIC1Vg;76;0
EIC1Vh;76;0
EIC1Vi;75;0
EIC1Vj;5;0
EIC1Vk;5;0
EIC1Vl;5;0
EIC2Va;119;0
EIC2Vb;118;0
EIC2Vc;119;1
EIC2Vd;60;0
EIC2Ve;60;0
EIC2Vf;37;0
EIC2Vg;94;0
EIC2Vh;94;0
EIC2Vi;80;0
EIC2Vj;33;0
EIC3VSBa;51;0
EIC3VSBb;48;0
EIC3VSBc;51;0
EIC3VSBd;46;0
EIC3VSBe;53;0
EIC3VSBf;49;0
EIC4Vbha;46;0
EIC4Vbhb;48;0
EIC4Vbhc;49;0
EIC4Vbhd;53;0
EIC4Vbhe;53;0
EIC4Vbhf;56;0
EIF1VA;207;0
EIF1VB;66;0
EIF2VA;207;0
EIF3VA;98;0
EII4AMIa;34;0
EII4Vaaa;59;0
EII4Vsca;61;0
EII4Vscb;64;0
EII4Vscc;66;0
EII4Vscd;61;0
EIL1a;140;0
EIL1b;146;0
EIL1c;146;0
EIL2a;138;0
EIL2b;135;0
EIL3a;62;0
EIL3Aa;64;0
EIL3Cb;66;0
EIL4a;67;0
EIL4Aa;66;0
EIL4Cb;64;0
EIL6a;49;0
EIL6Aa;171;0
EIL7;128;0
EIM01;64;0
EIM02;11;0
EIM03;19;0
EIM04;28;0
EIM05;11;0
EIM06;51;0
EIM07;29;0
EIM08;11;0
EIM09;3;0
EIN1Va;103;0
EIN1Vb;121;0
EIN1Vc;117;1
EIN1Vd;117;0
EIN1Ve;109;0
EIN1Vf;114;0
EIN1Vg;112;1
EIN1Vgta;287;10
EIN1Vgtb;283;5
EIN1Vgtc;227;7
EIN1Vgtd;227;5
EIN1Vgte;71;2
EIN1Vh;107;1
EIN1Vp;178;0
EIN1Vq;179;0
EIN1Vr;186;0
EIN1Vs;185;0
EIN1Vt;184;0
EIN1Vu;184;0
EIN2Va;294;5
EIN2Vb;296;5
EIN2Vc;298;3
EIN2Vd;295;3
EIN2Vgta;252;2
EIN2Vgtb;249;2
EIN2Vgtx;26;0
EIN3GT;1;0
EIN3VBDa;116;0
EIN3VBDb;57;0
EIN3VBDc;29;0
EIN3VESa;64;0
EIN3Vgta;82;0
EIN3VITa;115;1
EIN3VITb;115;1
EIN3VITc;50;1
EIN3VMHa;62;0
EIN3VMHb;60;0
EIN3VMHc;60;0
EIN3VMHd;60;0
EIN3VST;2;0
EIN3VUEa;118;1
EIN3VUEb;117;1
EIN4VGTa;24;0
EIP1A;279;0
EIP1B;281;0
EIP2A;259;0
EIP2B;8;0
EIP3A;44;0
EIP3B;8;0
EIT1Va;132;3
EIT1Vb;130;4
EIT1Vc;131;7
EIT1Vd;131;6
EIT1Ve;129;5
EIT1Vf;130;4
EIT1Vg;141;9
EIT1Vh;140;8
EIT1Vi;74;7
EIT1Vj;75;8
EIT2Va;105;0
EIT2Vb;103;0
EIT2Vc;103;1
EIT2Ve;101;0
EIT2Vf;102;0
EIT2Vg;108;0
EIT2Vh;109;0
EIT3ST;1;0
EIT3Va;59;1
EIT3Vb;6;0
EIT3Vc;61;1
EIT3Vd;59;1
EIT3Ve;60;1
EIT3Vf;6;0
EIT3Vg;61;1
EIV1VA;212;5
EIV1VB;228;0
EIV1VC;109;0
EIV2VA;220;1
EIV2VB;129;0
EIV3VA;94;1
EIV3VB;2;0
EIV4VA;5;0
EIWT3-4;8;0
EKT01;21;0
EKT02;1;0
EKT04;29;0
EKT05;14;0
EKT06;47;0
EKT07;16;0
EKT08;38;0
EKT09;36;0
EKT10;24;0
EKT11;29;0
EKT12;18;0
EKT13;4;0
EKT14;11;0
EKT15;6;0
EKT16;15;0
EKT17;21;0
EKT18;35;0
EKT19;36;0
EKT1Va;283;2
EKT1Vb;281;0
EKT1Vc;287;2
EKT1Vd;277;3
EKT1Ve;278;1
EKT1Vf;279;3
EKT1Vg;37;0
EKT1Vgca;295;9
EKT1Vgcb;291;7
EKT1Vgcc;227;5
EKT1Vgcd;232;5
EKT1Vgce;76;2
EKT1Vi1;285;2
EKT1Vi2;286;3
EKT1Vi3;183;2
EKT1Vi4;146;2
EKT2Va;208;1
EKT2Vb;213;1
EKT2Vc;209;0
EKT2Vd;209;1
EKT2Vd1;24;0
EKT2Vd2;24;0
EKT2Vd3;23;0
EKT2Vd4;23;0
EKT2Vd5;23;0
EKT2Vd6;24;0
EKT2Vd7;23;0
EKT2Vd8;23;0
EKT2Ve;201;2
EKT2Vf;3;0
EKT2Vg;3;0
EKT2VG1;52;0
EKT2VG2;58;0
EKT2Vgca;249;2
EKT2Vgcb;248;2
EKT2Vgcx;23;0
EKT2Vi1;196;1
EKT2Vi2;199;1
EKT2Vi3;35;1
EKT3GC;1;0
EKT3Vadv;120;0
EKT3Vbrc;98;2
EKT3Vcpa;117;0
EKT3Vedu;91;0
EKT3Vgca;83;0
EKT3Vst;3;0
EKT3Vweb;63;0
EKT4SD;73;0
EKT4Vadv;190;0
EKT4Vbrc;158;2
EKT4Vcpa;74;0
EKT4Vedu;141;0
EKT4Vgca;24;0
EKT4VSD;80;0
EKT4Vweb;93;0
ELE01ITD;28;0
ELE02ITD;11;0
ELE03ITD;9;0
ELE04ITD;14;0
ELEDEL;59;0
ELEDLS;59;0
ELEDLS1;18;0
ELEDMECH;27;0
ELEDNAN;26;0
ELEDTN;34;0
ELEDVERG;32;0
ELK10;9;0
ELK1A;29;0
ELK1B;17;0
ELK1C;10;0
ELK2;21;0
ELK3;16;0
ELK4;12;0
ELK5;23;0
ELK6;5;0
ELK7;15;0
ELK9;12;0
EMAD01;13;0
EME1D;66;0
EME1VA;242;0
EME1VB;239;0
EME1VC;238;0
EME1VD;251;0
EME1VE;108;1
EME1VF;70;0
EME1VV;116;0
EME2D;65;0
EME2VA;245;2
EME2VB;228;0
EME2VC;111;0
EME3D;31;0
EME3VA;99;0
EME3VB;105;1
EME3VC;106;0
EME4VA;6;0
EME4VB;6;0
EME4VC;6;0
EME4VI;102;0
EMI1Va;265;6
EMI1Vb;265;5
EMI1Vc;263;9
EMI1Vd;261;5
EMI1Ve;265;10
EMI1Vf;267;9
EMI1Vg;259;6
EMI1Vh;266;4
EMI1Vi;263;8
EMI1Vj;266;8
EMI1Vl;1;0
EMI2Va;154;3
EMI2Vb;154;3
EMI2Vc;157;2
EMI2Vd;159;4
EMI2Ve;160;3
EMI2Vf;157;3
EMI2Vg;147;3
EMI2Vh;1;0
EMI2Vi;1;0
EMI2Vj;1;0
EMI2VMEa;93;3
EMI2VMEb;21;0
EMI2VMFa;95;2
EMI2VMFb;98;2
EMI2VMMa;97;3
EMI2VMMb;93;3
EMI2VMMc;96;3
EMI2VNIa;93;2
EMI3;1;0
EMI3/4;1;0
EMI3VMCa;95;0
EMI3Vmfa;222;0
EMI3Vmfb;226;0
EMI3Vmma;196;0
EMI3Vmmb;145;0
EMI3Vnia;194;0
EMI4V;66;1
EMM-Enge;10;0
EMM-GGZ;8;0
EMM-OmgS;15;0
EMM-SeIn;15;0
EMM-SocV;15;0
EMM-Soll;15;0
EMM-STVR;15;0
EMM0Enge;9;0
EMM0GGZ;11;0
EMM0Mfn1;15;0
EMM0Mfn2;15;0
EMM0OmgS;14;0
EMM0SeIn;15;0
EMM0SocV;10;0
EMM0Soll;15;0
EMM0STVR;13;0
EMM1D92A;40;0
EMM1D92B;40;0
EMM1D92C;20;0
EMM1V92A;105;0
EMM1V92B;99;0
EMM1V92C;92;0
EMM1V92D;93;0
EMM1V92E;101;0
EMM1V92F;101;0
EMM1V92G;108;0
EMM1V92H;13;0
EMM2V92A;100;0
EMM2V92B;53;0
EMM2V92C;1;0
EMM3D92A;40;0
EMM3JZa1;33;0
EMM3JZa2;33;0
EMM3JZb;34;0
EMM3V92A;96;0
EMM3V92B;96;0
EMM3V92C;83;0
EMM3V92D;86;0
EMM3V92E;99;0
EMM3V92F;93;0
EMM3V92G;1;0
EMM4EPa;76;0
EMM4SDP;14;0
EMT1A;267;0
EMT1B;258;0
EMT1C;127;0
EMT1D;125;0
EMT2A;245;0
EMT2B;245;0
EMT3;71;0
EMT4;50;0
EMW1DA1;65;0
EMW1DA2;39;0
EMW1VA1;204;0
EMW1VA2;207;0
EMW1VB1;213;0
EMW1VB2;216;0
EMW1VC1;213;0
EMW1VC2;205;0
EMW1VD1;204;0
EMW1VD2;205;0
EMW1VE1;204;0
EMW1VE2;193;0
EMW1VF1;196;0
EMW1VF2;198;0
EMW1VG1;202;0
EMW1VG2;71;0
EMW1VH1;23;0
EMW1VH2;21;0
EMW2DA1;73;0
EMW2DA2;73;0
EMW2VA1;150;3
EMW2VA2;152;5
EMW2VB1;150;4
EMW2VB2;147;4
EMW2VC1;86;0
EMW2VC2;86;0
EMW2VD1;162;2
EMW2VD2;151;3
EMW2VE1;161;1
EMW2VE2;156;1
EMW2VF1;144;2
EMW2VF2;144;3
EMW2VG1;66;3
EMW3DA1;75;0
EMW3DA2;36;0
EMW3VA1;40;0
EMW3VA2;33;0
EMW3VB1;66;0
EMW3VB2;67;0
EMW3VC1;41;0
EMW3VC2;35;0
EMW3VD1;68;0
EMW3VD2;68;0
EMW3VE1;68;0
EMW3VE2;53;0
EMW3VF1;70;0
EMW3VF2;35;0
EMW4DA1;8;0
EMW4DA2;9;0
EMW4VA1;9;0
EMW4VA2;9;0
EMW4VB1;9;0
EMW4VB2;1;0
EMW4VC1;9;0
EMW4VC2;9;0
EMW4VD1;9;0
EMW4VD2;9;0
ENA3;127;0
ENA4;55;0
EPO1VA;238;0
EPO1VB;236;0
EPO1VC;240;1
EPO1VD;210;0
EPO1VE;245;0
EPO1VF;244;0
EPO1VG;123;0
EPO1VH;121;0
EPO2VA;149;0
EPO2VB;142;0
EPO2VC;158;0
EPO2VD;157;0
EPO2VE;156;0
EPO2VF;104;0
EPO3VA;79;0
EPO3VB;75;0
EPO3VC;36;0
EPO3VD;39;0
EPO4VA;23;0
EPO4VB;22;0
EPO4VC;3;0
EPO4VS;26;0
EPS1VA1;116;0
EPS1VA2;113;0
EPS1VB1;114;0
EPS1VB2;126;0
EPS1VC1;122;0
EPS1VC2;123;0
EPS1VD1;56;0
EPS1VMA1;93;0
EPS1VMA2;96;0
EPS1VSA1;88;0
EPS1VSA2;96;0
EPS1VSB1;42;0
ER1A123;161;0
ER1B123;160;0
ER1C123;162;0
ER1D123;162;0
ER1MECPO;33;0
ER2A123;138;0
ER2A456;139;0
ER2B123;136;0
ER2MECPO;33;0
ER2P123;131;0
ER3B123;19;0
ER3C123;110;0
ER3K123;106;0
ER3M123;107;0
ER3P123;6;0
ER3P456;101;0
ER4C123;32;0
ER4K123;32;0
ER4M123;32;0
ERE1D;66;0
ERE1VA;226;0
ERE1VB;233;0
ERE1VC;218;3
ERE1VD;202;2
ERE1VE;187;0
ERE1VF;178;2
ERE1VG;124;0
ERE1VH;33;0
ERE2D;65;0
ERE2VA;218;4
ERE2VB;221;0
ERE2VC;109;0
ERE3D;30;0
ERE3VA;109;3
ERE3VB;104;0
ERE3VC;43;0
ERE4VA;123;0
ERE4VB;119;0
ERE4VC;120;0
EROB01;4;0
ESB1D;59;0
ESB1VA;171;0
ESB1VB;175;1
ESB1VC;177;1
ESB1VD;174;2
ESB1VE;173;0
ESB1VF;49;0
ESB2D;61;0
ESB2DDU;23;0
ESB2VA;138;1
ESB2VB;141;1
ESB2VC;109;1
ESB2VD;123;2
ESB2VE;71;0
ESB3D;61;0
ESB3DDU;31;0
ESB3VA;110;0
ESB3VB;110;0
ESB3VD;21;0
ESB4D;42;0
ESB4V;62;0
ESB4VA;73;0
ESB5V;90;0
ESB6VA;8;0
ESB6VB;8;0
ESE1VA1;177;1
ESE1VA2;179;0
ESE1VB1;181;0
ESE1VB2;180;0
ESE1VC1;183;2
ESE1VC2;93;1
ESE1VD1;180;2
ESE1VD2;96;0
ESE1VE1;181;1
ESE2VA2;58;0
ESE2VB1;58;0
ESE2VB2;58;0
ESE2VD1;58;0
ESE2VD2;58;0
ESP1DA1;55;0
ESP1DDA1;55;0
ESP1DDA2;56;0
ESP1DDB1;56;0
ESP1DDB2;27;0
ESP1VA1;194;0
ESP1VA2;196;1
ESP1VB1;205;0
ESP1VB2;201;0
ESP1VC1;194;0
ESP1VC2;196;0
ESP1VD1;198;0
ESP1VD2;202;0
ESP1VE1;197;1
ESP1VE2;200;0
ESP1VF1;192;0
ESP1VF2;194;0
ESP1VG1;197;2
ESP1VG2;200;1
ESP2DA1;73;0
ESP2DDA1;62;0
ESP2DDA2;63;0
ESP2DDB1;63;0
ESP2DDB2;33;0
ESP2DDC1;33;0
ESP2DDC2;33;0
ESP2DDD1;38;0
ESP2DDD2;33;0
ESP2DDE1;33;0
ESP2DDE2;33;0
ESP2DDF1;33;0
ESP2DDF2;33;0
ESP2DDG1;33;0
ESP2DDG2;33;0
ESP2DDH1;33;0
ESP2DDH2;33;0
ESP2VA1;157;2
ESP2VA2;157;3
ESP2VB1;154;1
ESP2VB2;154;3
ESP2VC1;160;2
ESP2VC2;161;2
ESP2VD1;156;2
ESP2VD2;163;3
ESP2VE1;84;4
ESP2VE2;160;1
ESP2VF1;157;3
ESP2VF2;163;2
ESP2VG1;31;0
ESP2VG2;74;0
ESP3DA1;72;0
ESP3DDA1;56;0
ESP3DDA2;56;0
ESP3DDB1;56;0
ESP3DDB2;56;0
ESP3DDC1;56;0
ESP3DDC2;56;0
ESP3DDD1;56;0
ESP3DDD2;57;0
ESP3DDE1;56;0
ESP3DDE2;57;0
ESP3DDF1;56;0
ESP3DDF2;57;0
ESP3DDG1;56;0
ESP3DDG2;56;0
ESP3DDH1;56;0
ESP3DDH2;56;0
ESP3VA1;66;1
ESP3VA2;67;0
ESP3VB1;33;0
ESP3VB2;41;0
ESP3VC1;67;0
ESP3VD1;67;0
ESP3VD2;67;0
ESP3VE1;34;0
ESP3VE2;67;0
ESP3VF1;68;0
ESP3VF2;34;0
ESP4DA1;8;0
ESP4DDA1;63;0
ESP4DDA2;62;0
ESP4DDB1;63;0
ESP4DDB2;63;0
ESP4DDC1;63;0
ESP4DDC2;63;0
ESP4DDD1;63;0
ESP4DDD2;62;0
ESP4DDE1;48;0
ESP4DDE2;32;0
ESP4VA1;9;0
ESP4VA2;8;0
ESP4VB1;9;0
ESP4VB2;1;0
ESP4VC1;9;0
ESP4VC2;9;0
ESP4VD1;8;0
ESP4VD2;9;0
ESP4VE1;8;0
ESP4VE2;9;0
ESP4VF1;8;0
ESP4VF2;9;0
ETB1D;57;0
ETB1VA;253;5
ETB1VB;263;0
ETB1VC;265;2
ETB1VD;246;2
ETB2D;57;0
ETB2VA;135;1
ETB2VB;147;0
ETB2VC;70;0
ETB3D;57;0
ETB3VA;86;0
ETB3VB;78;0
ETB4FY;98;0
ETB4V;5;0
ETB4VA;6;0
ETB4VB;2;0
ETB5VA;178;1
ETB5VB;179;2
ETC1Va;274;8
ETC1Vb;273;9
ETC1Vc;281;10
ETC1Vd;283;12
ETC1Ve;279;7
ETC1Vf;280;15
ETC1Vg;276;7
ETC1Vh;276;10
ETC1Vi;273;10
ETC1Vj;270;9
ETC1Vk;11;0
ETC1Vl;11;0
ETC2VA;145;13
ETC2VB;145;9
ETC2VC;149;12
ETC2VD;151;12
ETC2VE;150;12
ETC2VF;153;9
ETC2VG;150;15
ETC2Vh;11;2
ETC2VMF1;68;0
ETC2VMF2;72;0
ETC2VMF3;70;0
ETC2VMF4;76;0
ETC2VMF5;76;3
ETC2VMF6;79;3
ETC2VMS1;60;0
ETC2VMT1;73;1
ETC2VMT2;71;2
ETC2VPF1;68;1
ETC2VPF2;67;1
ETC2VPF3;70;1
ETC2VPF4;66;0
ETC2VPF5;67;0
ETC2VPFa;1;0
ETC2VPFb;1;0
ETC2VPFc;1;0
ETC2VPFd;1;0
ETC2VPFe;1;0
ETC2VPT1;65;2
ETC2VPT2;64;2
ETC2VPTa;1;0
ETC2VPTb;1;0
ETC3st;1;0
ETC4Va;5;0
ETC4VMFa;56;0
ETC4VMFb;54;0
ETC4VMFc;56;0
ETC4VMFd;54;0
ETC4VMSa;43;0
ETC4VMTa;50;0
ETE1Va;271;10
ETE1Vb;276;12
ETE1Vc;268;11
ETE1Vd;136;7
ETE1Ve;39;2
ETE1Vf;8;1
ETE2Va;142;18
ETE2Vb;141;19
ETE2Vc;135;19
ETE2Vd;69;15
ETE2VMF1;66;0
ETE2VMF2;72;1
ETE2VMS1;61;0
ETE2VMT1;67;1
ETE2VPF1;63;0
ETE2VPF2;65;0
ETE2VPFa;1;0
ETE2VPFb;1;0
ETE2VPT1;63;0
ETE2VPTa;1;0
ETE4SD;92;8
ETE4VSD;55;4
ETI1A;144;0
ETI1B;145;0
ETI1Va;134;0
ETI1Vb;135;0
ETI2A;113;0
ETI2B;110;0
ETI2Va;113;0
ETI3;53;0
ETI3VST;36;0
ETN1A;280;1
ETN1B;217;1
ETN1C;281;0
ETN1D;212;0
ETN2;130;0
ETN2A;122;0
ETN2B;124;0
ETN4;65;0
ETN4A;80;0
ETN4B;80;0
EVJ1VA;103;0
EVJ1VB;42;0
EVJ1VC;85;0
EVJ1VD;113;0
EVJ1VE;27;0
EVJ1VF;28;0
EVJ1VG;28;0
EVJ1VH;14;0
EVJ1VJ;64;0
EVJ1VK;35;0
EVM1A;127;0
EVM1B;125;0
EVM1VA;120;0
EVM1VB;117;0
EVM2A;109;0
EVM2B;103;0
EVM2VA;124;0
EVM2VB;114;0
EVM3VA;1;0
EVM4A;40;0
EVM4VM;42;0
EVP0XLOM;40;0
EVP1VA;221;0
EVP1VB;220;0
EVP1VC;221;0
EVP1VD;222;0
EVP1VE;229;0
EVP1VF;226;0
EVP1VG;115;0
EVP1VGTA;247;3
EVP1VGTB;252;4
EVP1VGTC;250;3
EVP1VGTD;250;3
EVP1VGTE;124;2
EVP1VGTF;1;0
EVP1VH;226;0
EVP1VI;228;0
EVP1VJ;220;0
EVP1VK;106;0
EVP1VL;107;0
EVP1VM;108;0
EVP1VN;106;0
EVP1VO;108;0
EVP1VP;106;1
EVP1VQ;114;1
EVP1VR;10;0
EVP1VS;10;0
EVP2BSA;14;2
EVP2BSB;15;2
EVP2BSC;15;2
EVP2BSD;7;0
EVP2VA;38;0
EVP2VB;38;1
EVP2VBSA;8;0
EVP2VBSB;8;0
EVP2VBSC;8;0
EVP2VBSD;8;0
EVP2VBSE;8;1
EVP2VBSF;8;1
EVP2VC;82;0
EVP2VD;56;0
EVP2VE;57;0
EVP2VF;125;0
EVP2VG;99;0
EVP2VGTA;212;3
EVP2VGTB;205;3
EVP2VGTC;197;1
EVP2VGTD;103;0
EVP2VH;45;0
EVP2VI;97;0
EVP2VJ;34;1
EVP2VZBE;35;0
EVP2VZBF;35;0
EVP2VZBG;71;1
EVP2VZBH;70;1
EVP2VZBI;71;1
EVP2VZBJ;69;1
EVP2VZBK;34;0
EVP2VZBL;33;1
EVP2VZBM;34;1
EVP2VZOA;37;0
EVP2VZOB;36;0
EVP2VZOC;37;0
EVP2VZOD;37;0
EVP2VZOE;73;1
EVP2VZOF;73;1
EVP2VZOG;37;0
EVP2VZOH;37;0
EVP2VZOI;37;0
EVP2VZOJ;38;0
EVP2VZOK;38;0
EVP2VZOL;38;0
EVP2VZOM;38;0
EVP2VZRA;35;1
EVP2VZRB;36;1
EVP2VZRC;36;1
EVP2VZRD;37;1
EVP2ZRE;38;0
EVP2ZRF;38;0
EVP2ZRG;40;0
EVP2ZRH;39;0
EVP2ZRI;39;0
EVP2ZRJ;36;0
EVP2ZRK;39;0
EVP2ZRL;39;0
EVP2ZRM;38;0
EVP2ZRN;38;0
EVP3UA;140;15
EVP3VA;139;15
EVP3VB;140;15
EVP3VC;138;15
EVP3VD;140;15
EVP3VE;143;15
EVP3VF;142;15
EVP3VFA;73;13
EVP3VFB;76;13
EVP3VG;140;15
EVP3VGTA;115;0
EVP3VGTB;123;1
EVP3VGTC;105;1
EVP3VGTD;56;0
EVP3VH;139;15
EVP3VI;64;2
EVP4DA;31;0
EVP4UA;139;15
EVP4UB;76;13
EVP4UC;75;13
EVP4VA;138;15
EVP4VB;140;15
EVP4VC;138;15
EVP4VD;64;3
EVP4VE;139;15
EVP4VF;139;15
EVP4VFA;138;15
EVP4VFB;74;13
EVP4VG;142;15
EVP4VGTA;41;0
EVP4VGTB;20;0
EVP4VGTC;15;0
EVP4VGTD;15;0
EVP4VGTE;14;0
EVP4VH;75;13
EVP5UA;18;0
EVP5UC;16;0
EVP5VA;122;15
EVP5VB;145;16
EVP5VC;73;13
EVP5VFa;64;2
EWB1A;265;0
EWB1AD;265;0
EWB1AV;122;0
EWB1B;263;1
EWB1C;259;0
EWB1D;258;0
EWB1F;248;0
EWB1FS;172;0
EWB1IPD;266;0
EWB2A;244;0
EWB2AD;54;0
EWB2AV;55;0
EWB2B;241;0
EWB2C;238;0
EWB2D;124;0
EWB2F;239;0
EWB2IPD;255;0
EWB3AV;32;0
EWB4IPD;148;0
EXD0E;24;0
EXD0WNT;24;0
EXD0WT;24;0
EXR0EROC;32;0
EXR0LCA;31;0
EXR1A123;163;0
EXR1B123;165;0
EXR1C123;164;0
EXR1D123;167;1
EXR1E123;91;0
EXR1MECP;10;0
EXR2A123;141;0
EXR2A456;141;0
EXR2B123;134;0
EXR2MECP;10;0
EXR2P123;131;0
EXR3B123;20;0
EXR3C123;124;0
EXR3K123;108;0
EXR3M123;110;0
EXR3P123;18;0
EXR3P456;104;0
EXR4C123;33;0
EXR4K123;33;0
EXR4M123;33;0
EXR4P123;65;0
EXV0BC0A;32;0
EXV1VA;76;0
EXV1VB;124;0
EXV1VC;57;0
EXV1VD;114;0
EXV1VE;27;0
EXV1VF;28;0
EXV1VG;29;0
EXV1VH;27;0
EXV1VJ;13;0
EXV1VK;86;0
EXV1VL;8;0
EXV1VM;10;0
EXV1VN;20;0
EXV1VO;35;0
EXV1VP;16;0
EXV1VQ;16;0
EXV1VS;54;0
FSIP1;74;0
FSIP2;73;0
FSNL1;66;0
FSNL2;67;0
FSNL3;66;0
FSNL4;65;0
HBIE1;80;0
HBIE2;83;0
LEDWBIPO;33;0
MACZO;53;0
MAEOP;41;0
MAKL;92;0
MALON1;231;0
MAOR;42;0
MAPE1;153;0
MAPE2;153;0
MARGEE;153;2
MAVAM1;24;0
MBHESa;42;0
MBHESb;42;0
MBHESc;43;0
MBHESd;45;0
MBHESe;47;0
MBHESf;45;1
MBHESg;33;0
MBIDA;36;0
MBIME;58;0
MBRTE1;63;0
MCOSC1EA;177;0
MCOSC1EB;86;0
MCOWE1;121;0
MCOWE2;116;0
MCPO1E;142;0
MCRIP;16;0
MCSERa;67;0
MCSERb;62;0
MDULE;32;0
MEALG;140;0
MEES;69;0
MEXPD;78;0
MFAMB;75;0
MFAMBD;55;0
MFAMBE;17;0
MFMMA4D;66;0
MFMMA4E;120;0
MFYVE;59;0
MGESC;122;0
MGGZH1A1;65;0
MGGZH1A2;70;0
MHEDEN1Z;26;0
MHETEa;32;0
MHONP;27;0
MHRAC4;1;0
MIDM01;133;0
MINBP;117;0
MINDED;166;0
MINDER;94;0
MINDM;38;0
MINTWE;108;0
MIOR;93;0
MISHVa1;39;0
MISHVa2;24;0
MITMA1D;151;0
MITMA1E;165;0
MJZA1;79;0
MJZA2;57;0
MKEMADa;16;0
MKEMAVa;24;0
MKeuze2;7;0
MKeuze3;8;0
MKeuze4;4;0
MKeuze5;8;0
MKeuze6;1;0
MKUJHA1;60;0
MKUJHA2;58;0
MKUJHB1;61;0
MKUJHB2;61;0
MKUJHC1;29;0
MKUJHC2;7;0
MKuM1;56;0
MKuM2;32;0
MLAWS;31;0
MLEIN;22;0
MLGVT;44;0
MLOAE1;28;0
MLOAE2;15;0
MLOAR1;31;0
MLOAR2;17;0
MLSWb;42;0
MM3JZa;33;0
MM3JZb;34;0
MM4JZa;8;0
MM4JZb;8;0
MMEMHa1;60;0
MMEMHa2;39;0
MMEVE;60;0
MMEVEa;102;0
MMEVEk;142;0
MMKBA4;84;0
MMUSCIA;119;0
MMUSCIB;6;0
MMUSKEA;237;1
MMUSKEB;133;0
MNILE;15;0
MNILE1;48;0
MNILE2;8;0
MONDN;171;0
MONST1;104;0
MOPTR;40;0
MOPTR1;65;0
MOPTR8;63;0
MOWZW;113;0
MPDVL;63;0
MPEOR1;29;0
MPOBE;31;0
MPOSA;40;0
MPOVL1;203;0
MPOVL2;207;0
MPOVL3;107;0
MPPR;15;0
MPREP1;131;0
MPREP2;68;0
MREXC;31;0
MRPCA;228;2
MRSVE;68;0
MSCMA;44;0
MSECUa;80;0
MSECUb;80;0
MSECUc;84;0
MSECUd;79;0
MSOPSa1;60;0
MSOPSa2;60;0
MSPIRa1;167;0
MSPIRa2;169;0
MSPMA;65;0
MSUIB;78;0
MSVO;18;0
MVPNP;15;0
MWBA;66;0
MWIGK1;31;0
MWIGKa1;2;0
MWIGKa2;24;0
MZBIA;20;0
MZMIA;19;0
