class;scheduled college days;out of bounds days;timetype
ETN1C;279;0;V
ETN1A;269;0;V
EEL1B;266;0;D
EEL1A;265;0;D
EIN2Vc;260;0;V
EIN2Vb;259;0;V
EIN2Vd;259;0;V
ETC1Vd;259;0;V
EIN2Va;257;0;V
DFS3VA;255;1;V
ETC1Vc;255;0;V
ETC1Vf;254;0;V
ETC1Ve;253;0;V
ETE1Va;252;0;V
EMI1Ve;250;0;V
EMI1Vf;250;0;V
EMI1Vj;250;0;V
ETC1Vi;249;0;V
ETE1Vb;249;0;V
EMI1Vh;248;0;V
ETC1Vg;248;0;V
EMI1Vb;247;0;V
EMI1Vc;247;0;V
EMI1Vi;247;0;V
ETC1Va;247;0;V
ETC1Vh;247;0;V
EFY1VI;246;2;V
EMI1Va;246;0;V
ETC1Vj;246;0;V
DTP1VT;245;1;V
EFY2VIB;245;0;V
EMI1Vd;245;0;V
ETC1Vb;244;0;V
EMI1Vg;242;0;V
ETE1Vc;242;0;V
DTP1VS;241;2;V
EFY2VIA;241;0;V
DEM1VD;239;0;V
EEM2VC;238;0;V
EFY2VF;238;0;V
EVP1VGTB;238;0;V
DEM2VB;237;0;V
DEM1VC;236;0;V
DEM2VA;236;0;V
EEM2VD;236;0;V
EEM2VE;236;0;V
DTP1VP;235;0;V
DTP1VR;235;0;V
EEL2B;235;0;D
EFY2VC;235;0;V
EEM2VB;233;0;V
EPO1VF;233;1;V
DTP1VO;232;0;V
DTP1VU;232;2;V
EFY1VD;231;0;V
EVP1VGTC;231;0;V
DTP1VN;230;0;V
EVP1VGTA;230;0;V
EVP1VGTD;230;0;V
DTP1VE;229;1;V
EPO1VE;229;1;V
DEM1VB;228;0;V
DTP1VF;228;1;V
DTP1VK;228;1;V
EEM2VA;228;0;V
EFY1VC;228;0;V
DHR1VB;227;1;V
EEL2IB;227;0;D
EEM1VF;227;0;V
DEM1VA;226;0;V
DTP1VM;226;1;V
DTP2VI;226;1;V
EFY2VA;226;0;V
EFY2VB;226;0;V
EPO1VC;226;0;V
DTP1VL;225;1;V
EEM1VH;225;0;V
EFY1VB;225;0;V
DTP1VC;224;1;V
DTP1VJ;224;2;V
EPO1VB;224;0;V
AHH3VA;223;5;V
DTP1VD;223;1;V
EPO1VA;223;0;V
DTP1VA;222;1;V
DTP1VG;222;2;V
DTP2VE;222;1;V
EEM1VB;222;0;V
EEM1VC;222;0;V
EFY1VF;222;0;V
MRPCA;222;0;NULL
DHR1VD;221;1;V
DTP1VH;221;2;V
EEM1VA;221;1;V
DHR1VC;220;1;V
DTP1VB;220;1;V
DTP2VF;220;1;V
EBK2G;220;0;V
EBK2H;220;0;V
DEM2VC;219;0;V
EBK2A;219;0;V
EBK2B;219;0;V
EBK2F;219;0;V
EEM1VE;219;0;V
EEM1VG;219;0;V
EFY2VD;219;0;V
EBK2C;218;0;V
EBK2D;218;0;D
EBK2E;218;0;V
EKT1Vgcb;218;0;V
DTP2VH;217;2;V
DHR1VA;216;0;V
DTP2VD;215;4;V
DTP2VG;215;1;V
EEM1VD;215;0;V
EMW1VB2;215;0;V
ETB1VC;215;0;V
MMUSKEA;215;0;NULL
EFY1VE;214;0;V
ETB1VB;214;0;V
EMW1VC1;213;0;V
ETB1VA;213;0;V
EVP1VH;213;0;V
EVP2VGTA;213;0;V
DTP2VC;212;3;V
DTP2VK;212;2;V
DTP2VL;212;2;V
EMW1VB1;212;0;V
DTP2VJ;211;1;V
EIN1Vgta;211;0;V
EKT1Vgca;211;0;V
ETB1VD;211;0;V
EFY1VA;210;0;V
EMW1VA2;210;0;V
ETN1B;210;0;V
DAR1VA;209;3;V
ETN1D;209;0;D
EVP1VE;209;0;V
EVP1VI;209;0;V
EBI1Vc;208;0;V
EFY2VE;208;0;V
EVP1VF;208;0;V
DTP2VB;207;1;V
EMW1VC2;207;0;V
EIF2VA;206;0;V
EVP1VB;206;0;V
EVP1VA;205;0;V
EBI1Vb;204;0;V
EIN1Vgtb;204;0;V
EMW1VA1;204;0;V
EMW1VD1;204;0;V
EMW1VD2;204;0;V
EMW1VE1;204;0;V
DAR1VB;203;3;V
DHT1EF;203;0;V
DTP2VA;203;2;V
EEL2IA;203;0;D
EVP1VJ;203;0;V
EMW1VG1;202;0;V
ESP1VB1;202;0;V
AHH1VA;201;0;V
DHT1VA;201;1;V
DHT1VB;201;2;V
DHT1VE;201;0;V
EBT1VB;201;0;V
EVP1VD;201;0;V
EVP1VC;200;0;V
EVP2VGTB;200;0;V
AHH1VB;199;0;V
DFM1VF;199;0;V
DFM1VH;199;0;V
DHT1VH;199;0;V
DVP1VA;199;0;V
EBT1VA;199;7;V
EIF1VA;199;0;V
EKT1Vb;199;0;V
EPO1VD;199;0;V
ESP1VD2;199;0;V
DFM1VE;198;0;V
DFM1VG;198;0;V
DFM1VI;198;0;V
DHT1VG;198;0;V
DVP1VC;198;0;V
EKT1Vi2;198;0;V
AHH1VE;197;0;V
DFM1VJ;197;0;V
ESP1VB2;197;0;V
EEL2A;196;0;D
EMW1VF2;196;0;V
ESP1VE2;196;0;V
AHH1VF;195;0;V
DHT1EA;195;0;V
DHT1VF;195;0;V
DVP1VB;195;0;V
DVP1VD;195;0;V
EKT1Va;195;0;V
EKT1Vf;195;0;V
EKT1Vi1;195;0;V
EMW1VF1;195;0;V
ESP1VG2;195;0;V
EVP2VGTC;195;0;V
AHH1VD;194;0;V
DHT1VC;194;1;V
DHT1VD;194;2;V
EKT1Vd;194;0;V
EMI3Vmfb;194;0;V
EMW1VE2;194;0;V
ESP1VC2;194;0;V
ESP1VD1;194;0;V
ESP1VG1;194;0;V
AHH1VC;193;0;V
EKT1Ve;193;0;V
ESP1VE1;193;0;V
DBE3VA;192;14;V
DFM1VA;192;0;V
DFM1VC;192;0;V
EKT1Vc;192;0;V
ESP1VA2;192;0;V
DFM1VB;191;0;V
ESP1VC1;191;0;V
DFM1VD;190;0;V
EMI3Vmfa;190;0;V
ESP1VA1;190;0;V
ESP1VF1;189;0;V
ESP1VF2;189;0;V
EBE3VA;188;15;V
EWB1A;185;0;V
EWB1AD;185;0;NULL
ECH1A;183;0;V
DAR1VC;182;3;V
ECH1B;182;0;V
EMT1A;181;0;V
EMT1B;180;0;V
EBK1A;179;0;V
AHH1V2;177;0;V
EBM1E;177;0;V
EBK1B;176;1;V
DVP1VE;175;0;V
AHH3VB;174;3;V
DID2VA;174;0;V
DID2VB;174;0;V
DTP1VV;174;2;V
EIN1Vgtc;174;0;V
EKT1Vgcc;174;0;V
DBM1C;173;0;V
ECE6Ax;173;0;NULL
EKT4Vbrc;173;0;V
EMI3Vnia;173;0;V
EMT2A;173;0;V
DAR2VA;172;1;V
DAR2VB;172;1;V
DBM1B;172;0;V
EBM1C;172;0;V
EIN1Vr;172;0;V
EIN1Vt;172;0;V
EMI3Vmma;172;0;V
EWB1C;172;0;V
EBM1D;171;0;D
ESE1VB1;171;1;V
ESE1VE1;171;1;V
EIN1Vs;170;0;V
EIN1Vu;170;0;V
ESE1VB2;170;1;V
ESE1VC1;170;1;V
ESE1VD1;170;1;V
DBM1A;169;0;V
EKT1Vgcd;169;0;V
ESE1VA1;169;1;V
ESE1VA2;169;1;V
EBM1B;168;0;V
EEM1VI;166;0;V
EMT2B;166;0;V
MCOSC1EA;166;0;NULL
EWB1B;165;0;V
DCE2VA;164;0;V
EBK1C;164;0;V
MSPIRa2;164;0;NULL
EBM1A;163;0;V
MSPIRa1;162;0;NULL
DTB1VB;161;0;V
ECH1BCS;160;0;NULL
EIN1Vgtd;160;0;V
EKT4Vadv;160;0;V
DBI2VA;159;0;V
EBI1Va;159;0;V
EBI2Va;159;0;V
DCE2VB;158;0;V
ECI2;158;0;V
EMI2Vd;158;0;V
DCS2VA;157;0;V
DLB3VE;157;30;V
EKT2Vd;157;0;V
EMI2Vc;157;0;V
EMI2Ve;157;0;V
DLB3VA;156;30;V
EKT2Vc;156;0;V
DCS2VB;155;0;V
EBM1V;155;8;V
EIN1Vq;155;0;V
ECI1;154;0;V
EIN1Vp;154;0;V
EPO2VC;154;0;V
EPO2VD;154;0;V
ETB5VB;154;0;V
EWB1D;154;0;D
MITMA1E;154;0;V
DSO2VA;153;2;V
DTB1VA;153;0;V
EKT4Vedu;153;1;V
EPO2VE;153;0;V
EKT2Va;152;0;V
EKT2Vb;152;0;V
ESP2VC2;152;1;V
ESP2VF2;152;1;V
EWB2C;152;0;V
EMI2Vf;151;0;V
EMW2VD1;151;1;V
EMW2VE1;151;1;V
ESP2VC1;151;1;V
ECE6Aa;150;0;NULL
ECH1ACS;150;0;NULL
EMI2Va;150;0;V
ESP2VA1;150;1;V
ESP2VD2;150;1;V
ESP2VE2;150;2;V
EMI2Vb;149;0;V
ESP2VA2;149;1;V
ESP2VD1;149;1;V
ETB5VA;149;0;V
DHT1EB;148;0;V
EMI2Vg;148;0;V
ESP2VF1;148;1;V
EKT2Ve;147;0;V
ESP2VB1;147;1;V
DAR3VB;146;3;V
DHR2VB;146;1;V
DLB1VG;145;1;V
DLB1VH;145;1;V
ESP2VB2;145;1;V
DLB3VC;144;57;V
DHR2VD;143;1;V
DLB1VC;143;1;V
DLB3VD;143;45;V
EKT2Vgcb;143;0;V
EMW2VE2;143;1;V
EPO2VA;143;0;V
DLB3VB;141;58;V
EKT2Vgca;141;0;V
EMW2VD2;141;1;V
EPO2VB;141;0;V
EWB2A;141;0;V
EWB2B;141;0;V
DLB1VA;140;1;V
DLB1VB;140;1;V
EMW2VA2;140;1;V
DHR2VA;139;1;V
EWB2F;139;0;V
DTP3VT;138;1;V
EIN2Vgtb;138;0;V
EKT2Vi2;138;0;V
EMW2VA1;138;1;V
DFM1V2;137;1;V
EKT2Vi1;137;0;V
EMW2VB1;137;1;V
DCH1I;136;0;V
EIN2Vgta;136;0;V
ETC2VF;136;0;V
EBE3VB;135;6;V
EIC1Vf;135;0;V
EMW2VF2;135;1;V
EIC1Ve;134;0;V
EMW2VB2;134;1;V
ETC2VE;134;0;V
EIT1Vg;133;0;V
EIT1Vh;133;0;V
EKT1Vi3;133;0;V
ETI1A;133;2;V
DIM1VB;132;7;V
DAR3VA;131;2;V
DHR1HE;131;0;V
DTP2VZ;131;0;V
EIT1Va;131;0;V
EIT1Vc;131;0;V
EMW2VF1;131;1;V
ETC2VC;131;0;V
ETC2VD;131;0;V
MITMA1D;131;0;D
DSO3VA;130;1;V
EAC3VA;130;18;V
EIT1Vb;130;0;V
ETN2;130;0;V
DAC3VA;129;16;V
DLB23L;129;21;V
EIT1Vd;129;0;V
ETI1B;129;2;V
MARGEE;129;0;NULL
MPREP1;129;0;NULL
EMI3Vmmb;128;0;V
ETC2VG;128;0;V
EIT1Ve;127;0;V
EIT1Vf;127;0;V
EFR3VA;126;6;V
EIL6Aa;126;0;NULL
EPS1VB2;126;0;V
MPOVL2;126;0;NULL
DLB23K;125;21;V
ECT1;125;0;V
EEL1I;125;0;D
EIC1Va;125;0;V
DHT1V2;124;0;V
ECE6Ab;124;0;NULL
EIC1Vb;124;0;V
EIC1Vc;124;0;V
DFS5VX;123;0;V
DLB3DB;123;0;D
DVP3UA;123;1;V
ETC2VA;123;0;V
ETC2VB;123;0;V
MPOVL1;123;0;NULL
DLB12K;122;1;V
DLB12L;122;1;V
EHR1VIA;122;0;V
ETE1Vd;122;0;V
ETE2Vb;122;0;V
ETN2B;122;0;V
DVP3VB;121;1;V
DVP3VC;121;1;V
DVP3VD;121;1;V
DVP4DA;121;0;D
DVP4UA;121;1;V
DVP4VC;121;1;V
EBM3-4;121;0;NULL
EEL1IA;121;0;D
EIC1Vd;121;0;V
EIL1b;121;0;V
EPS1VC1;121;0;V
EPS1VC2;121;0;V
ETE2Va;121;0;V
ETI1Vb;121;0;V
DVP3DA;120;0;D
DVP3VA;120;1;V
DVP4DB;120;0;D
DVP4VA;120;1;V
DVP4VB;120;1;V
DXV1VC;120;0;V
EIL1c;120;0;V
DLB2VB;119;0;V
DLB2VD;119;0;V
DLB3DA;119;0;D
DTP1VW;119;1;V
DXP0A;119;0;V
DXP0B;119;0;V
DXP0C;119;0;V
ETI1Va;119;0;V
MFMMA4E;119;0;V
MMUSKEB;119;0;NULL
DHR1VS;118;0;V
DTP1VX;118;1;V
DTP1VY;118;1;V
ETE2Vc;118;0;V
DID1VA;117;0;V
DLB2VA;117;0;V
EHR1VIB;117;0;V
DID1VB;116;0;V
DLB2VC;116;0;V
DVP3VMB;116;0;V
EEM1VJ;116;0;V
EPS1VA1;116;0;V
ETB2VA;116;0;V
DVP3VMA;115;0;V
EIL1a;115;0;V
EIP1B;115;0;V
EPO1VH;115;0;V
MMEVEk;115;0;NULL
MMUSCIA;115;0;NULL
ENA3;114;1;V
EVP3VE;114;0;V
DEM1VE;113;0;V
DLB2VE;113;0;V
DLB2VF;113;0;V
DTP3VU;113;1;V
EPO1VG;113;0;V
EVP3VC;113;0;V
EVP3VD;113;0;V
EVP3VG;113;0;V
EVP3VH;113;0;V
EVP4VA;113;0;V
EVP4VB;113;0;V
EVP4VC;113;0;V
DIM1VA;112;0;V
DIM1VC;112;0;V
EKT1Vi4;112;0;V
EPS1VA2;112;0;V
EPS1VB1;112;0;V
EVP3UA;112;0;V
EVP3VA;112;0;V
EVP3VB;112;0;V
EVP3VF;112;0;V
EVP4UA;112;0;V
EVP4VE;112;0;V
EVP4VF;112;0;V
EVP4VG;112;0;V
DHR1VE;111;0;V
EVP1VGTE;111;0;V
ECE1b;110;0;V
EIP1A;110;0;V
MOWZW;110;0;NULL
DBM1D;109;0;D
DVP2VD;109;0;V
ECE1h;109;0;V
EPO2VF;109;0;V
EVP2VF;109;0;V
MEXPD;109;0;NULL
DTP3VA;108;8;V
EHR1VA1;108;0;V
EIN1Vb;108;0;V
ETB2VB;108;0;V
EVP2VGTD;108;0;V
EVP4VFA;108;0;V
DLB1VI;107;1;V
ECE1a;107;0;V
EHR1VA2;107;0;V
EHR1VE1;107;2;V
ETN2A;107;0;V
EVP5VB;107;0;V
DLB1VO;106;2;V
EBI1Vd;106;0;V
EKT4Vweb;106;0;V
EVP1VG;106;0;V
EVP3VGTB;106;5;V
AHH1EF;105;0;V
DLB1VD;105;0;V
EVP1VQ;105;0;V
DIM2VA;104;24;V
DLB1VE;104;1;V
ECT1A;104;0;V
EFO1B;104;0;V
MCOWE2;104;0;NULL
DBI1VB;103;0;V
DHT1EC;103;0;V
DLB1VF;103;0;V
EIC2Va;103;0;V
EIC2Vb;103;0;V
EIC2Vc;103;0;V
EKT3Vadv;103;0;V
EME2VA;103;7;V
ESB1VC;103;0;V
ESB1VD;103;0;V
EVP1VM;103;0;V
DCH1B;102;0;V
DPA1SA;102;0;V
DVP1VH;102;0;V
DVP4VD;102;1;V
EHR1VB2;102;0;V
ESB1VA;102;0;V
EVP1VP;102;0;V
DCS1VC;101;0;V
DCS1VD;101;0;V
DHT1VI;101;1;V
DHT1VJ;101;1;V
DMK2VA;101;0;V
DVP1VF;101;0;V
ECE1d;101;0;D
ECE1i;101;0;V
ECE2b;101;0;V
EIN1Vd;101;0;V
EIN1Vg;101;0;V
ESB1VE;101;0;V
EVP5VA;101;0;V
AHH1EE;100;1;V
DBI1VA;100;0;V
DCS1VA;100;0;V
DCS1VB;100;0;V
DPA1SB;100;0;V
EBK2I;100;0;V
EBK2J;100;0;V
ECE2h;100;0;V
ECT1B;100;0;V
EHR1VB1;100;0;V
ESB1VB;100;0;V
EVP1VL;100;0;V
EXV1VB;100;0;V
MCOWE1;100;0;NULL
DFM2VB;99;0;V
DHT1EE;99;0;V
DHT2EF;99;1;V
EHR1VC1;99;1;V
EIF3VA;99;0;V
EIN1Vc;99;0;V
EIN1Ve;99;0;V
EVP1VO;99;0;V
AHH1EG;98;0;V
AHH1VH;98;0;V
DHT2EA;98;1;V
DVP1VG;98;0;V
DVP3VMC;98;0;V
ECE1g;98;0;V
ECE2g;98;0;V
ECH1C;98;0;V
EIN1Vf;98;0;V
EIT2Vg;98;0;V
EKT3Vcpa;98;0;V
EVP1VN;98;0;V
DCS1VE;97;0;V
DCS1VF;97;0;V
DHT1VK;97;0;V
EBI2Vb;97;0;V
ECE1e;97;0;V
EIT2Vh;97;0;V
EKT3Vedu;97;1;V
EME1VA;97;0;V
AHH1EH;96;0;V
DFM3VA;96;1;V
DFM3VB;96;1;V
DHT2EB;96;1;V
DHT2EE;96;1;V
ECE6Sc;96;0;NULL
EIN3VBDa;96;0;V
EVP3VGTA;96;1;V
EWB2IPD;96;0;NULL
DCH1A;95;0;V
DVP3UB;95;1;V
DVP3UC;95;1;V
DVP3VE;95;1;V
DVP3VF;95;1;V
EHR1VC2;95;1;V
EIN1Va;95;0;V
EME1VD;95;0;V
ETB4FY;95;0;D
DCE1VD;94;0;V
DFM2VA;94;0;V
EBM1F;94;0;V
ECE1f;94;0;V
EFY3VIA;94;3;V
EIT2Va;94;0;V
EIT2Vb;94;0;V
EIT2Vc;94;0;V
EKT3Vbrc;94;0;V
EMT1C;94;0;V
EVP1VK;94;0;V
ECE2a;93;0;V
ECE2e;93;0;V
EFO1A;93;0;V
EFY3VIB;93;3;V
EMT1D;93;0;D
EPS1VMA2;93;0;V
EPS1VSA2;93;0;V
DFM2VF;92;1;V
DFM2VG;92;2;V
DHR3VD;92;5;V
ECE1c;92;0;V
EIN1Vh;92;0;V
EME2VB;92;7;V
ETE4SD;92;0;NULL
MOPTR1;92;0;NULL
DCE1VE;91;0;V
DCE1VF;91;0;V
DFM2VE;91;1;V
DHT3EB;91;2;V
DHT3VA;91;0;V
EHR1VD2;91;2;V
EIT2Ve;91;0;V
EIT2Vf;91;0;V
ELEDVERG;91;0;NULL
EME1VB;91;0;V
EPS1VMA1;91;0;V
EXR2B123;91;0;NULL
DCE1VC;90;0;V
DCE3IA;90;0;NULL
DHR3VC;90;5;V
DSO1VB;90;7;V
ECE2f;90;0;V
EFO1C;90;0;V
EHR1VD1;90;2;V
EMM1V92G;90;0;V
ERE2VA;90;0;V
EXR2A123;90;0;NULL
MEALG;90;0;NULL
MINTWE;90;0;NULL
DCE2IA;89;0;NULL
DHT3EA;89;2;V
ECE2d;89;0;D
EKT04;89;0;NULL
EXV1VD;89;0;V
AHH2VA;88;2;V
DCE1VB;88;0;V
DMK4VIB;88;0;V
EEL1IB;88;0;D
EEL1SA;88;0;D
EMI2VMFa;88;0;V
ER2B123;88;0;NULL
ESE1VC2;88;1;V
EXR1B123;88;0;NULL
DCE1VA;87;0;V
EMI2VMEa;87;0;V
EMI2VMFb;87;0;V
EVP2VG;87;0;V
AHH3EA;86;1;V
DSO1VA;86;7;V
ECE2c;86;0;V
EMI2VMMa;86;0;V
EMI2VNIa;86;0;V
EMI3VMCa;86;0;V
EMM1V92A;86;0;V
EMM1V92E;86;0;V
EMM2V92A;86;0;V
ER2A123;86;0;NULL
EVP3VGTC;86;1;V
EXR1A123;86;0;NULL
DHR3VB;85;0;V
DLO41A;85;0;V
ECT2;85;0;V
EPS1VSA1;85;0;V
ER1B123;85;0;NULL
ETI2Va;85;0;V
EXR1D123;85;0;D
DFM3VC;84;1;V
DHR3VA;84;0;V
DLB34K;84;0;V
DTP3VG;84;3;V
ECE3Ad;84;0;NULL
EEL1SB;84;0;D
EMI2VMMb;84;0;V
EMI2VMMc;84;0;V
EMM1V92F;84;0;V
AHH2EA;83;1;V
DCH1;83;0;V
DHT2VA;83;0;V
DTP3VH;83;3;V
ECE3Aa;83;0;NULL
ECE3Ac;83;0;NULL
ECH2;83;0;V
EIN3VITb;83;0;V
EXR2A456;83;0;NULL
HBIE2;83;0;V
MMKBA4;83;0;NULL
AHH2VC;82;1;V
AHH2VE;82;1;V
DHT2VE;82;0;V
DLO41B;82;0;V
EIN3VITa;82;0;V
EIP2A;82;0;V
EKT3Vgca;82;0;V
EMM1V92B;82;0;V
ER1D123;82;0;D
ERE2VB;82;0;V
ESE1VD2;82;0;V
EVP2VI;82;0;V
EXR1C123;82;0;NULL
AHH2VF;81;1;V
DHT2VF;81;0;V
DLO42m;81;0;V
ECE4Ac;81;0;NULL
EIN3Vgta;81;0;V
EIV1VB;81;0;V
MCOSC1EB;81;0;NULL
DHT2VG;80;1;V
DLO32;80;0;NULL
ECE4Aa;80;0;NULL
EMM1V92D;80;0;V
ER1C123;80;0;NULL
HBIE1;80;1;V
MBHESa;80;0;NULL
MBHESe;80;0;NULL
MBHESf;80;0;NULL
AHH2VB;79;1;V
DAC4VA;79;9;V
DHT2VB;79;0;V
DHT2VC;79;0;V
DSJ1VE;79;0;V
EAC4VA;79;9;V
ECE3Ab;79;0;NULL
EFO2B;79;0;V
EMM1V92C;79;0;V
EMM3V92A;79;0;V
EXR2P123;79;0;NULL
MBHESb;79;0;NULL
MBHESc;79;0;NULL
MBHESd;79;0;NULL
DTB2V;78;0;V
ECE4Ab;78;0;NULL
EMM3V92B;78;0;V
ER2A456;78;0;NULL
ESP2VE1;78;2;V
EWB1IPD;78;0;NULL
MIOR;78;0;NULL
DIV1VB;77;0;V
DSJ1VA;77;0;V
DTP3VV;77;1;V
EMM3V92E;77;0;V
EMM3V92F;77;0;V
MMEVEa;77;0;NULL
DAR3VC;76;0;V
DLB1VX;76;0;V
DSJ1VC;76;0;V
EIL2b;76;0;V
EIN3VUEb;76;0;V
EIV1VA;76;0;V
EMM4EPa;76;0;V
ERE1VA;76;0;V
ERE1VC;76;0;V
ETN4A;76;0;V
ETN4B;76;0;V
DLB3VF;75;30;V
EBS2VA;75;0;V
ECE4Ad;75;0;NULL
EIN3VUEa;75;0;V
EKT4SD;75;0;NULL
EMW2VC1;75;1;V
ERE1VB;75;0;V
FSIP1;75;0;V
FSIP2;75;0;V
DLB1VP;74;2;V
DLB1VY;74;0;V
EIC2Vg;74;0;V
EIC2Vh;74;0;V
EIC4Vbhc;74;32;V
EIV2VA;74;0;V
EMW2VC2;74;1;V
ESP2VG2;74;0;V
ETI2A;74;0;V
ETI2B;74;0;V
EXV1VK;74;0;V
DHR2VC;73;0;V
DSJ1VD;73;0;V
DVP2VC;73;0;V
DVP5VA;73;1;V
ECH1CCS;73;0;NULL
EIC4Vbhb;73;32;V
EKT18;73;0;NULL
ER1A123;73;0;NULL
FSNL2;73;0;V
FSNL3;73;1;V
MJZA1;73;1;V
DHR2VE;72;1;V
DHT3VB;72;0;V
DLO42c;72;0;V
EIC4Vbhe;72;32;V
EIC4Vbhf;72;32;V
FSNL1;72;0;V
FSNL4;72;1;V
MIDM01;72;0;NULL
DTP3VM;71;10;V
EKT3Vweb;71;0;V
EMT3;71;0;V
ERE1VD;71;0;V
MONST1;71;0;NULL
DHR1HF;70;0;NULL
DIV1VA;70;1;V
DTP3DT;70;0;D
EFO2A;70;0;V
EIB1e;70;0;V
EIB1f;70;0;V
EIB1h;70;0;V
EIC1Vg;70;0;V
EIC4Vbhd;70;32;V
EIT1Vi;70;0;V
EIT1Vj;70;0;V
EMM3V92C;70;0;V
EMM3V92D;70;0;V
ETC2VMF6;70;0;V
EIC1Vh;69;0;V
EIC1Vi;69;0;V
ETE2VMF2;69;0;V
DHR2VF;68;1;V
DVP2VB;68;0;V
EHR2VA2;68;0;V
EIC4Vbha;68;32;V
EME1VC;68;0;V
EVP2VZOF;68;0;V
ASE2VA;67;0;V
DIV2VA;67;0;V
DSJ1VB;67;1;V
EBM2;67;0;V
EIB1b;67;0;V
EIB1g;67;0;V
EIC2Vi;67;0;V
EIL2a;67;0;V
DFM3VH;66;1;V
DHT3VH;66;0;V
DXN3LVB;66;0;NULL
ECE6Dc;66;0;D
ECH2ACS;66;0;NULL
ECH2BCS;66;0;NULL
EHR2VB1;66;0;V
EIF1VB;66;0;V
EMW2VG1;66;0;V
ER2P123;66;0;NULL
ETC2VMF5;66;0;V
EVP2VZBH;66;0;V
AHH3VD;65;2;V
DHR1VT;65;0;V
DIM3VA;65;1;V
DRO4VIB;65;0;V
DSN3LVC;65;0;NULL
DVP2VZOA;65;0;V
EFY3VA;65;0;V
EFY3VB;65;0;V
EHR2VA1;65;0;V
EHR2VC1;65;0;V
EMW2DA1;65;12;V
EMW2DA2;65;14;V
ESP2DA1;65;12;V
ETN4;65;0;V
EVP2VC;65;0;V
EVP2VZBG;65;0;V
EVP2VZBI;65;0;V
MPREP2;65;0;NULL
EHR2VC2;64;0;V
EXV1VA;64;0;V
MFMMA4D;64;0;D
EMW3DA1;63;1;V
EPO3VA;63;0;V
ESP3DA1;63;3;V
ETC2VMT1;63;0;V
AHH3VH;62;0;V
DCE3VA;62;0;V
DCE3VB;62;0;V
DHR2DA;62;0;D
DLO43c;62;0;V
DTP1DA;62;0;D
DTP1DB;62;0;D
DTP2DA;62;0;D
EFY4VB;62;0;V
EMW1VG2;62;0;V
ETE2VMT1;62;0;V
EVP2VZBJ;62;0;V
EVP2VZOE;62;0;V
EWB1F;62;0;V
MGGZH1A2;62;0;NULL
DHR1DA;61;0;D
DSB4V;61;4;V
DVP3UD;61;0;V
ELEDVER;61;0;NULL
EMW3VF1;61;0;V
ESP3VA2;61;1;V
ESP3VD1;61;0;V
ESP3VE2;61;0;V
ESP3VF1;61;0;V
ESP4DDA1;61;0;D
ESP4DDB1;61;0;D
ESP4DDB2;61;0;D
ESP4DDC2;61;0;D
ESP4DDD1;61;0;D
ETC2VMT2;61;0;V
DVP2VZRA;60;0;V
DVP2VZRB;60;0;V
EELFY;60;0;NULL
EFY4VA;60;0;V
EMW1DA1;60;2;V
EMW3VD1;60;0;V
EMW3VD2;60;0;V
EMW3VE1;60;0;V
ESP3VA1;60;1;V
ESP4DDA2;60;0;D
ESP4DDC1;60;0;D
ESP4DDD2;60;0;D
ETB2VC;60;0;V
ETC2VMF4;60;0;V
ETE2Vd;60;0;V
EVP3VFA;60;0;V
EVP3VFB;60;0;V
EVP4UB;60;0;V
EVP4UC;60;0;V
EVP4VFB;60;0;V
EVP4VH;60;0;V
EVP5VC;60;0;V
EXR3K123;60;0;NULL
DIM1VF;59;0;V
DSJ2VB;59;0;V
DVP4UB;59;0;V
EBT3V;59;0;V
EFY4VC;59;0;V
EMW3VB1;59;1;V
EMW3VB2;59;1;V
ESP3VC1;59;1;V
ESP3VD2;59;0;V
ETC2VMF2;59;0;V
MKUJHB1;59;0;NULL
MKUJHB2;59;0;NULL
MMEMHa1;59;0;NULL
DBM2B;58;0;V
DCS3VA;58;0;V
DSJ2VC;58;0;V
DTP1VZ;58;0;V
EIB1d;58;0;D
EKT4VSD;58;0;V
ELEDEL;58;0;NULL
EPO3VB;58;0;V
ESE2VA2;58;0;V
ESE2VB1;58;0;V
ESE2VB2;58;0;V
ESE2VD1;58;0;V
ESE2VD2;58;0;V
ETE2VMF1;58;0;V
MKUJHA1;58;0;NULL
MSOPSa1;58;0;NULL
DHT1ED;57;0;V
ECE3Se;57;0;NULL
EEL5A;57;0;D
EEM1VK;57;0;V
EFY3VE;57;0;V
EIB3Dgf;57;0;D
ESP2DDA1;57;0;D
ESP2DDA2;57;0;D
ESP2DDB1;57;0;D
ETB1D;57;0;D
ETC2VMF3;57;0;V
MGGZH1A1;57;0;NULL
MSOPSa2;57;0;NULL
AHH3VC;56;2;V
DBE1DA;56;0;D
DBE2DA;56;0;D
DLB4DA;56;0;D
DSJ2VA;56;0;V
DXN1LVC;56;0;NULL
ECE6Db;56;0;D
ECE6Sb;56;0;NULL
EIB1a;56;0;V
EME2VC;56;7;V
EPS1VD1;56;0;V
ERE1VE;56;0;V
ESP3DDA1;56;0;D
ESP3DDA2;56;0;D
ESP3DDB1;56;0;D
ESP3DDB2;56;0;D
ESP3DDC1;56;0;D
ESP3DDC2;56;0;D
ESP3DDD1;56;0;D
ESP3DDD2;56;0;D
ESP3DDE1;56;0;D
ESP3DDE2;56;0;D
ESP3DDF1;56;0;D
ESP3DDF2;56;0;D
ESP3DDG1;56;0;D
ESP3DDG2;56;0;D
ESP3DDH1;56;0;D
ESP3DDH2;56;0;D
ETC2VPF3;56;0;V
ETE2VPF1;56;0;V
EXR3P456;56;0;NULL
MKUJHA2;56;0;NULL
DSN1LVA;55;0;NULL
DSN1LVB;55;0;NULL
DXN1LVA;55;0;NULL
DXN1LVB;55;0;NULL
EFY3VD;55;1;V
EFY4VD;55;0;V
EKT06;55;0;NULL
ETE2VPF2;55;0;V
EWB4IPD;55;0;NULL
MEES;55;0;NULL
DFM1VK;54;0;V
DID4VAid;54;0;V
DLB2DB;54;0;D
DLO43m;54;0;V
DVP2VA;54;0;V
EIN3VESa;54;0;V
ATH4NL99;53;0;NULL
DLB01K;53;0;V
DXN3LVA;53;0;NULL
EBT2D;53;0;D
EFY3VC;53;0;V
EIB3As;53;0;NULL
EKT1Vgce;53;0;V
ETC2VPF5;53;0;V
EVP3VI;53;0;V
EVP4VD;53;0;V
EXR1E123;53;0;NULL
DLB01L;52;0;V
EEL5P;52;0;D
EHR2VIA;52;0;V
EIC2Vd;52;0;V
EIC2Ve;52;0;V
EIL4a;52;0;V
ESP1DA1;52;0;V
ESP1DDA1;52;0;D
ESP1DDA2;52;0;D
ESP1DDB1;52;0;D
ETB3VA;52;0;V
ETC2VMF1;52;0;V
ETC2VPF1;52;0;V
ETC2VPT1;52;0;V
EXR3M123;52;0;NULL
MJZA2;52;1;V
DBM2C;51;0;V
DRO4VA;51;0;V
ERE1VF;51;0;V
ETE2VPT1;51;0;V
MMEVE;51;0;NULL
MSECUa;51;0;NULL
MSECUb;51;0;NULL
MSECUc;51;0;NULL
MSECUd;51;0;NULL
DMK4VA;50;0;V
DRO1VA;50;0;V
DRO1VB;50;0;V
EBT2V;50;0;V
ECE1DT;50;0;D
ECE2DT;50;0;D
ECE3DT;50;0;D
EEL5B;50;0;D
EIB4Dgf;50;0;D
ETC2VPT2;50;0;V
ETE4VSD;50;0;V
MKuM1;50;0;V
DCH2;49;0;V
DFM2VH;49;2;V
DSB1VB;49;0;V
DSN3LVA;49;0;NULL
ECE2i;49;0;V
EIL3a;49;7;V
EIM02;49;0;NULL
EKT14;49;0;NULL
EKT17;49;0;NULL
ER3C123;49;0;NULL
ER3K123;49;0;NULL
ER3M123;49;0;NULL
ETC2VPF2;49;0;V
ETC2VPF4;49;0;V
EXR3C123;49;0;NULL
MWBA;49;0;NULL
DBI2DA;48;0;D
DFM2VI;48;1;V
DLB1DA;48;0;D
DPA1SC;48;0;V
DSB1VA;48;0;V
DSB1VC;48;0;V
DXV1VA;48;0;V
EIC3VSBe;48;0;V
ETC4VMFc;48;0;V
EVP2VE;48;0;V
DFM2VC;47;2;V
DFT1VA;47;0;V
DSN3LVB;47;0;NULL
DVP3UMA;47;0;D
DVP3UMB;47;0;D
DVP3UMC;47;0;D
DVP3UMD;47;0;D
EBT2VA;47;0;V
EBT2VB;47;0;V
EIB4As;47;0;NULL
EIN1Vgte;47;0;V
EIT3Ve;47;0;V
ELEDLS;47;0;NULL
EMI4V;47;0;V
ESP4DDE1;47;0;D
EVP3VGTD;47;1;V
MOPTR8;47;0;NULL
DFM1V2A;46;0;V
DFM1V2B;46;0;V
DID4VAis;46;0;V
ECT2WT;46;0;NULL
EIC3VSBa;46;0;V
EIC3VSBc;46;0;V
EIM01;46;0;NULL
EIT3Vg;46;0;V
EMM2V92B;46;0;V
EMW3VE2;46;0;V
ETB2D;46;0;D
ETB3VB;46;0;V
ETC2VMS1;46;0;V
ETC4VMFa;46;0;V
ASE1VA;45;0;V
DHR3VE;45;3;V
DSB5V;45;15;V
EBT1D;45;0;D
EII4Vaaa;45;0;V
EIT3Va;45;0;V
EIT3Vc;45;0;V
EIT3Vd;45;0;V
ETC4VMFb;45;0;V
ETC4VMFd;45;0;V
EVP2VD;45;0;V
EVP5VFa;45;0;V
DRO2VA;44;0;V
DSN1LVC;44;0;NULL
DUS1VA;44;0;V
DUS1VB;44;0;V
DUS1VD;44;0;V
EBK1D;44;0;D
ECE4De;44;0;D
EIB3Bs;44;0;NULL
EIC3VSBf;44;0;V
EIM06;44;0;NULL
EKT02;44;0;NULL
EKT08;44;0;NULL
MCPO1E;44;0;V
DUS1VC;43;0;V
ECE4Sf;43;0;NULL
EIC3VSBb;43;0;V
EII4Vsca;43;0;V
EII4Vscb;43;0;V
EII4Vscc;43;0;V
EME1VE;43;0;V
ETE2VMS1;43;0;V
AHH2EB;42;0;NULL
DCS1VG;42;0;V
DCS1VH;42;0;V
DHR1VF;42;0;V
DVP2VBSA;42;0;V
DVP2VBSB;42;0;V
EIC3VSBd;42;0;V
EKT09;42;0;NULL
EPS1VSB1;42;0;V
EXV1VS;42;0;V
MRSVE;42;0;NULL
DHT3VC;41;0;V
DHT3VD;41;0;V
DRO4VB;41;0;V
DSN2LVA;41;0;NULL
DSN2LVB;41;0;NULL
DTP3VB;41;3;V
DXN2LVC;41;0;NULL
ECE1BAM;41;0;NULL
EFY3VF;41;0;V
ETC4VMTa;41;0;V
DCE0V02;40;1;V
DCT4VIB;40;0;V
DVP4UC;40;0;NULL
EFR3VL;40;0;V
EIB4Ed;40;0;NULL
EIV1VC;40;0;V
ER3P456;40;0;NULL
MBHESg;40;0;NULL
DBM2A;39;0;V
DTP3DG;39;0;D
DTP3VI;39;0;V
DXN2LVA;39;0;NULL
ECE4Ax;39;0;NULL
EIB3Ed;39;0;NULL
EII4Vscd;39;0;V
EIN3VBDb;39;0;V
EKT12;39;0;NULL
ERE2VC;39;0;V
EVP2VH;39;0;V
AHH3EC;38;0;V
AHH4EC;38;0;V
DCE1VG;38;0;V
DCE1VH;38;0;V
DHR2DB;38;0;D
DHT2VD;38;0;V
DLB2DA;38;0;D
DLB34L;38;0;V
DLB4VD;38;15;V
DRO2VB;38;0;V
DXN2LVB;38;0;NULL
ECE3De;38;0;D
ECE3Sf;38;0;NULL
ECE4Se;38;0;NULL
EIL6a;38;0;V
EVP2ZRG;38;0;NULL
AHH2VG;37;1;V
AHH3EB;37;0;V
AHH4EB;37;0;V
DCS3VR;37;0;V
DRO2VC;37;0;V
ECE4Dc;37;0;D
EHR3VIA;37;0;V
EIB4Bs;37;0;NULL
EIN3VMHa;37;0;V
EIN3VMHb;37;0;V
EIN3VMHc;37;0;V
EIN3VMHd;37;0;V
EKT03;37;0;NULL
EMW1DA2;37;1;V
EVP2ZRI;37;0;NULL
EVP2ZRL;37;0;NULL
EVP2ZRM;37;0;NULL
MISHVa1;37;0;NULL
MLSWb;37;0;NULL
DCS3VB;36;0;V
DCS4VA;36;0;V
DTB3V;36;0;V
DVP2VZOD;36;0;V
DVP2VZRD;36;0;V
EEL3IB;36;0;D
EIB2f;36;1;V
EIB2h;36;1;V
EIL4Aa;36;0;NULL
ESP3VB2;36;0;V
ETE1Ve;36;0;V
EVP2VZOJ;36;0;V
EVP2ZRF;36;0;NULL
EVP2ZRH;36;0;NULL
EVP2ZRJ;36;0;NULL
EVP2ZRK;36;0;NULL
EVP2ZRN;36;0;NULL
ASE1VB;35;0;V
DVP2VZOB;35;0;V
ECE3Ax;35;0;NULL
EIB2a;35;1;V
EKT13;35;0;NULL
ERE3VB;35;0;V
ERE4VC;35;0;V
EVP2VZOG;35;0;V
EVP2VZOH;35;0;V
EVP2VZOI;35;0;V
EVP2VZOK;35;0;V
EVP2VZOL;35;0;V
EVP2VZOM;35;0;V
EVP2ZRE;35;0;NULL
EWB1FS;35;0;NULL
DHT3EC;34;0;V
DHT3ED;34;0;V
DHT3EE;34;0;V
DHT4EC;34;0;V
DHT4ED;34;0;V
DLB2VI;34;0;V
DMK1VA;34;0;V
DSN3PVAA;34;0;NULL
DTP3DA;34;0;D
DVP2VZBC;34;0;V
DVP2VZBD;34;0;V
DVP2VZBE;34;0;V
DVP2VZBF;34;0;V
DVP2VZOC;34;0;V
DVP2VZOE;34;0;V
DVP2VZOF;34;0;V
DVP2VZRC;34;1;V
EBM2A;34;8;V
EBM2B;34;8;V
EIV2VB;34;0;V
EKT16;34;0;NULL
ERE1VG;34;0;V
ERE3VA;34;0;V
ERE4VA;34;0;V
ERE4VB;34;0;V
EVP2VZBE;34;0;V
EVP2VZBF;34;0;V
EVP2VZRB;34;0;V
EVP2VZRD;34;0;V
EWB2D;34;0;D
MINBP;34;0;NULL
DCS2VR;33;0;V
DLB4VC;33;0;V
DSB2VB;33;0;V
DVP2VZBG;33;0;V
EIB2b;33;1;V
EIB2e;33;1;V
EIB3rep;33;0;NULL
EIB6a;33;1;V
EIL3Cb;33;0;NULL
EKT07;33;0;NULL
EKT10;33;0;NULL
EKT11;33;0;NULL
ENA4;33;0;V
EVP2VZBM;33;0;V
EVP2VZRA;33;0;V
EVP2VZRC;33;0;V
DHR3DB;32;0;D
DLB4VA;32;20;V
DSN4LVA;32;0;NULL
DTP3DP;32;0;D
DTP3VN;32;5;V
DTP3VO;32;5;V
ECS3-4;32;0;NULL
ECT3-4;32;0;NULL
EFY3MSA;32;0;NULL
EIB1c;32;0;V
EIB2g;32;1;V
EIB6c;32;0;V
EIL4Cb;32;0;NULL
EMM1D92A;32;0;V
EMM1D92B;32;4;V
EMM3D92A;32;0;V
EPO3VD;32;0;V
ETC4VMSa;32;0;V
EVP2VZBL;32;0;V
EVP2VZOD;32;0;V
EXV0BC0A;32;24;V
EXV1VC;32;0;V
MMEMHa2;32;0;NULL
MSCMA;32;0;NULL
MSUIB;32;0;NULL
DBI1DA;31;0;D
DEC1CE;31;0;D
DFM3VD;31;1;V
DHR3DA;31;0;D
DSJ1VF;31;0;V
DSO4VIB;31;5;V
EBS1VA;31;0;V
ECH1V;31;0;V
EEL3B;31;0;D
EHPHCSW1;31;0;NULL
EHPHCSW2;31;0;NULL
EIC2Vj;31;0;V
EIV3VA;31;0;V
ELEDMECH;31;0;NULL
ELEDTN;31;0;NULL
EMW3DA2;31;0;V
EMW3VA1;31;0;V
EMW3VC1;31;0;V
ERCVERG1;31;0;NULL
ESP3VB1;31;1;V
ESP4DDE2;31;0;D
EVP2VZBK;31;0;V
EVP2VZOA;31;0;V
EVP2VZOC;31;0;V
MBIDA;31;0;NULL
MBRTE1;31;0;NULL
DCE0V01;30;0;V
DHT2VH;30;0;V
DHT3VM;30;0;V
DTP2DB;30;0;D
EBS3VA;30;0;V
ECE3rep;30;0;NULL
EFY2MSA;30;0;NULL
EIC2Vf;30;0;V
EII4AMIa;30;0;NULL
EIL3Aa;30;0;NULL
EKT2Vi3;30;0;V
ELEDNAN;30;0;NULL
EMM3JZb;30;0;NULL
EMT4;30;0;V
EMW3VA2;30;1;V
EMW3VC2;30;0;V
EMW3VF2;30;0;V
EPO3VC;30;0;V
ESP2DDB2;30;0;D
ESP2DDC1;30;0;D
ESP2DDC2;30;0;D
ESP2DDD1;30;0;D
ESP2DDD2;30;0;D
ESP2DDE1;30;0;D
ESP2DDE2;30;0;D
ESP2DDF1;30;0;D
ESP2DDF2;30;0;D
ESP2DDG1;30;0;D
ESP2DDG2;30;0;D
ESP2DDH1;30;0;D
ESP2DDH2;30;0;D
ESP3VF2;30;0;V
ETI3;30;0;V
EVP2VB;30;0;V
EVP2VZOB;30;0;V
MM3JZa;30;1;V
MM3JZb;30;0;V
MONDN;30;0;NULL
AHH3VM;29;0;V
ASE3VA;29;0;V
DCS1VR;29;0;V
DHR1HZ;29;0;D
DIM2VB;29;19;V
DSJ2VD;29;0;V
DVJ1VC;29;0;V
EEMBO;29;0;NULL
EKT05;29;0;NULL
EMM3JZa1;29;0;NULL
EMM3JZa2;29;0;NULL
EVP2VA;29;0;V
EVP2VJ;29;0;V
LEDWBIPO;29;0;NULL
MACZO;29;0;NULL
MKUJHC1;29;0;NULL
MKuM2;29;0;V
MLOAE1;29;0;NULL
MPEOR1;29;0;NULL
MWIGK1;29;0;NULL
DBE3DA;28;0;D
DFM3VI;28;0;V
EBE3VC;28;0;V
ECE4DT;28;0;D
EFR4VA;28;0;V
EFY4VE;28;0;V
EHR2VSD;28;0;V
EKT1Vg;28;0;V
ER2MECPO;28;0;NULL
ESP3VE1;28;0;V
ETB3D;28;0;D
EWB2AD;28;0;NULL
DHT3VE;27;0;V
DHT3VF;27;0;V
DLB2DC;27;0;D
DLB2DD;27;0;D
DTP0V1;27;0;V
DVP2VE;27;0;V
ELE04ITD;27;0;NULL
EXV1VE;27;27;V
EXV1VH;27;27;V
DHT3VI;26;0;V
DSB2VA;26;0;V
DSN4LVB;26;0;NULL
DXV1VF;26;26;V
EME3VB;26;0;V
EME3VC;26;0;V
ESP1DDB2;26;0;D
EXR0EROC;26;0;NULL
EXR4P123;26;0;NULL
EXV1VF;26;26;V
EXV1VG;26;26;V
DLB4VB;25;0;V
DMK2IB;25;1;V
DRO1VC;25;0;V
DRO2IB;25;1;V
ECE1DTV;25;0;D
ECE2DTV;25;0;D
EFY1MSA;25;0;NULL
EME4VI;25;0;V
ESP2VG1;25;1;V
MHEDEN1Z;25;0;V
AHH3EI;24;0;NULL
DFM3VK;24;3;V
DHT3VK;24;3;V
DLB01M;24;0;V
DLB01N;24;0;V
DXV1VB;24;0;V
ECP3/4;24;0;NULL
EIB6b;24;0;V
EIM07;24;0;NULL
EME3VA;24;0;V
ASE1VC;23;0;V
ASE2VB;23;0;V
DCE004;23;0;NULL
DSO2IB;23;1;V
DTB2D;23;0;D
DXV1VJ;23;23;V
EBRD01;23;0;NULL
ECE6Fb;23;0;NULL
EHR2VB2;23;0;V
EIN3VITc;23;0;V
EKT2Vd1;23;0;V
EKT2Vd2;23;0;V
EKT2Vd6;23;0;V
EME1VF;23;0;V
EMW1VH1;23;0;V
ESB2DDU;23;0;D
ESB4V;23;0;V
EXV1VO;23;0;V
MINDED;23;0;NULL
MISHVa2;23;0;NULL
DFM3VJ;22;0;V
DFM3VL;22;0;V
DHT3EI;22;0;NULL
DHT3ES;22;0;NULL
DSJ4VA;22;0;V
DSJ4VB;22;0;V
DSJ4VC;22;0;V
DXN4LVA;22;0;NULL
ECH3-4;22;0;NULL
ECT1WTV;22;0;NULL
EEL3A;22;0;D
EFY4VF;22;0;V
EHO1;22;22;V
EHO2;22;22;V
EHO3;22;22;V
EKT2Vd3;22;0;V
EKT2Vd4;22;0;V
EKT2Vd5;22;0;V
EKT2Vd7;22;0;V
EKT2Vd8;22;0;V
ELE01ITD;22;0;NULL
EVP4DA;22;0;D
MFAMB;22;0;V
MHETEa;22;0;NULL
MLGVT;22;0;NULL
MPOVL3;22;0;NULL
MWIGKa2;22;0;NULL
AHH4EH;21;0;NULL
DCE0V06;21;0;V
DHT3VJ;21;0;V
DHT4EH;21;0;NULL
EBK4;21;0;V
EIB2d;21;0;D
EIP3A;21;0;V
EMW1VH2;21;0;V
ESB1D;21;0;D
MAOR;21;0;NULL
MFMDT;21;0;NULL
AHH3ES;20;0;NULL
AHH3VI;20;0;V
AHH3VJ;20;0;V
AHH3VL;20;0;V
DBM1I;20;0;V
DCE001;20;0;NULL
DCE002;20;0;NULL
DIV3VA;20;0;V
DLB1Sa;20;0;NULL
DXV1VG;20;20;V
EXV1VN;20;20;V
AHH3EM;19;0;NULL
DEC2CE;19;0;D
DHT3EK;19;0;NULL
DHT3EM;19;0;NULL
DSB3VA;19;0;V
ECE1inte;19;0;NULL
ECE3Dc;19;0;D
EHS1M1;19;0;NULL
EIM03;19;0;NULL
EIM04;19;0;NULL
EIN3VBDc;19;0;V
EKT19;19;0;NULL
EMI2VMEb;19;0;V
EPO4VA;19;0;V
EPO4VB;19;0;V
MAPE1;19;1;V
AHH3VS;18;0;V
DFM3VM;18;0;V
DGZ1HCSW;18;0;NULL
DHT3VS;18;0;V
DXN4LVB;18;0;NULL
EBT3D;18;0;D
ETI3VST;18;0;V
MAPE2;18;1;V
AHH3EK;17;0;NULL
DDSTE;17;0;NULL
DHT3VL;17;0;V
EFO3;17;0;V
EHR1DA;17;0;D
ERE3VC;17;0;V
MLOAR1;17;0;NULL
DCE0V03;16;0;V
DCE0V04;16;0;V
DCE0V05;16;0;V
DCE0V09;16;0;V
DXN4LVC;16;0;NULL
EGZ1ANP;16;0;NULL
EGZ2ANP;16;0;NULL
EIB2c;16;1;V
EIM09;16;0;NULL
EMM1D92C;16;1;V
ESB3D;16;0;D
EXR3B123;16;0;NULL
EXV1VQ;16;0;V
MCSERa;16;0;NULL
MCSERb;16;0;NULL
MINDM;16;0;NULL
AHH3VK;15;3;V
DAR4VA;15;0;V
DAR4VB;15;0;V
DAR5VA;15;0;V
DAR5VB;15;0;V
DAR6V;15;0;V
DSB3D;15;0;D
DVP1DA;15;0;D
EBS1VB;15;0;V
EEL3IA;15;0;D
EME1VV;15;0;V
EMM-OmgS;15;0;V
EMM-SeIn;15;0;V
EMM-SocV;15;0;V
EMM-Soll;15;0;V
EMM-STVR;15;0;V
ESB2VE;15;0;V
ESB4D;15;0;D
EVP1VS;15;0;V
EXV1VP;15;0;V
MNILE;15;0;NULL
DFM2DA;14;0;D
DFM4VH;14;0;V
DMA2Da;14;0;D
DVP1VP;14;0;V
DVP1VS;14;0;V
DVP2DA;14;0;D
ECT2IWT;14;0;NULL
ELEDLS1;14;0;NULL
EMM4SDP;14;0;V
EPO4VS;14;0;V
ESB2VA;14;0;V
ESB2VB;14;0;V
ESB2VC;14;0;V
ESB2VD;14;0;V
EVP5UA;14;0;NULL
EVP5UC;14;0;NULL
MBIME;14;0;NULL
MLOAE2;14;0;NULL
MOPTR;14;0;NULL
MPPR;14;0;V
DFM3VS;13;0;V
DHT4VH;13;0;V
DLB2GNH1;13;13;V
DLB2GNH2;13;12;V
DLB3VI;13;0;V
DTP3VW;13;0;V
DXV1VH;13;13;V
EBRFY1;13;0;NULL
EHR2D;13;0;D
EKT01;13;0;NULL
ER1MECPO;13;0;NULL
EXV1VJ;13;13;V
MZMIA;13;0;NULL
DBI3DA;12;0;D
DEC3CE;12;0;D
DFM3VR;12;1;V
DHT3EO;12;0;NULL
DHT3VR;12;1;V
EFR3VB;12;3;V
EFY0XA;12;0;NULL
EIM08;12;0;NULL
EVM1VA;12;0;V
EVM1VB;12;0;V
EVP2BSA;12;0;NULL
EVP2BSB;12;0;NULL
EVP2BSC;12;0;NULL
MFAMBD;12;0;NULL
MVPNP;12;0;NULL
AHH2DA;11;0;D
AHH3EO;11;0;NULL
DFM3VO;11;1;V
DHT2DA;11;0;D
DHT3VO;11;0;V
DHT3VP;11;0;V
DID3VA;11;0;V
DLB45K;11;0;V
DLB45L;11;0;V
ECI4;11;0;V
EHS1M2;11;0;NULL
EIB7;11;1;V
ERE1VH;11;0;V
EVM1A;11;0;V
EVM1B;11;0;V
EVM2VA;11;0;V
MALON1;11;0;NULL
AHH1DA;10;0;D
AHH3VO;10;0;V
AHH3VR;10;1;V
AHH4DB;10;0;D
ATHIP01;10;0;V
ATHNL01;10;0;V
ATHNL03;10;0;V
DFM1DA;10;0;D
DFM3VP;10;1;V
DFM4DB;10;0;D
DHT1DA;10;0;D
DHT4DB;10;0;D
DIMx10;10;0;NULL
DSJ2DA;10;0;D
DSNTENT2;10;0;NULL
DUMMY1;10;0;NULL
EMM-Enge;10;0;V
EVM2VB;10;0;V
AHH3VN;9;0;V
AHH3VP;9;0;V
ATHNL02;9;1;V
ATHNL04;9;0;V
DCE003;9;0;NULL
DFM3VN;9;1;V
DHT3VN;9;0;V
DSN4LVC;9;0;NULL
DSNTENT3;9;0;NULL
ECE3Fe;9;0;NULL
ECE7;9;0;V
EIL7;9;0;V
EMM1V92H;9;0;V
EMW4DA2;9;3;V
EMW4VA1;9;0;V
EMW4VA2;9;0;V
EMW4VB1;9;0;V
EMW4VC1;9;0;V
EMW4VC2;9;0;V
EMW4VD1;9;0;V
EMW4VD2;9;0;V
ESP4VA1;9;0;V
ESP4VB1;9;0;V
ESP4VC1;9;0;V
ESP4VC2;9;0;V
ESP4VD2;9;0;V
ESP4VE2;9;0;V
ESP4VF2;9;0;V
AHH3EN;8;0;NULL
ATH4IP01;8;0;NULL
DGZ2HCSW;8;0;NULL
DHT3EN;8;0;NULL
DRO4VC;8;0;V
DSB3VB;8;0;V
DSB4D;8;0;D
DSN1LVD;8;0;NULL
DSNTENT4;8;0;NULL
DTB3D;8;0;D
DXN4AVA;8;0;NULL
DXV1VP;8;0;V
EIP3B;8;0;V
EKT15;8;0;NULL
EMAD01;8;0;NULL
EMM-GGZ;8;0;V
EMW4DA1;8;2;V
ESB3VD;8;0;V
ESP4DA1;8;2;V
ESP4VA2;8;0;V
ESP4VD1;8;0;V
ESP4VE1;8;0;V
ESP4VF1;8;0;V
ETC1Vl;8;0;V
EVM2A;8;0;V
EVM2B;8;0;V
EVP1VR;8;0;V
EWB1AV;8;0;NULL
EXV1VL;8;0;V
EXV1VM;8;0;V
MFAMBE;8;0;NULL
MM4JZa;8;0;V
MM4JZb;8;0;V
MPDVL;8;0;NULL
ATH4NL01;7;0;NULL
ATH4NL02;7;0;NULL
ATH4NL04;7;0;NULL
DCE4IA;7;0;NULL
DHR0P1;7;7;V
DSB5D;7;0;D
DSJ3DA;7;0;D
DSN3PVAB;7;0;NULL
DVP2BSA;7;0;NULL
DXN0T6;7;0;NULL
DXV1VQ;7;0;V
EHR3VB1;7;0;V
EHR3VB2;7;0;V
ELK3;7;0;V
ER3B123;7;0;NULL
ESB3VA;7;0;V
ESB3VB;7;0;V
ETC1Vk;7;0;V
ETC2Vh;7;0;V
ETE1Vf;7;0;V
EVP2BSD;7;0;NULL
MAKL;7;0;NULL
MKUJHC2;7;0;NULL
MLOAR2;7;0;NULL
ATH4NL03;6;0;NULL
ATHIP03;6;0;V
ATHNL10;6;0;V
ATHNL11;6;0;V
DAR3V12;6;2;V
DAR3V34;6;2;V
DAR3V56;6;0;V
DAR3V78;6;0;V
DIMx06;6;0;NULL
DTP0V2;6;3;V
EFY1MSKA;6;0;NULL
EFY4VIA;6;0;V
EHR3VA1;6;0;V
ELE02ITD;6;0;NULL
ELK2;6;0;V
EME4VA;6;0;V
EME4VB;6;0;V
EME4VC;6;0;V
ERE1D;6;0;D
EVP2VBSA;6;0;V
EVP2VBSB;6;0;V
EVP2VBSC;6;0;V
EVP2VBSD;6;0;V
EVP4VGTA;6;0;V
MDULE;6;0;NULL
MMUSCIB;6;0;NULL
ASE1D;5;0;D
ATH4NL05;5;0;NULL
ATHIP04;5;0;V
ATHNL07;5;0;V
ATHNL08;5;0;V
ATHNL09;5;0;V
ATHNL12;5;0;V
DSJ1DA;5;0;D
DTP3VZ;5;0;V
DVP2BSB;5;0;NULL
DVP2DB;5;0;D
DXN4LV4;5;0;NULL
EHR3VA2;5;0;V
EIT3Vb;5;0;V
EIT3Vf;5;0;V
ELE03ITD;5;0;NULL
ETC4Va;5;0;V
EVP2VBSE;5;0;V
EVP2VBSF;5;0;V
MSPMA;5;0;NULL
AHH3UO;4;0;V
AHH4EA;4;0;V
AHH4EA1;4;0;V
AHH4EA2;4;0;V
AHH4VA;4;0;V
AHH4VA1;4;0;V
AHH4VA2;4;0;V
AHH4VA3;4;0;V
AHH4VA4;4;0;V
AHH4VA5;4;0;V
ATH4IP02;4;0;NULL
ATH4NL06;4;0;NULL
ATH4NL10;4;0;NULL
ATHIP02;4;0;V
DCE005;4;0;NULL
DCE0V07;4;0;V
DCE0V08;4;0;V
DFM3UO;4;0;NULL
DFM4EA;4;0;NULL
DFM4VA;4;0;V
DFM4VA1;4;0;V
DFM4VA2;4;0;V
DFM4VA3;4;0;V
DFM4VA4;4;0;V
DFM4VA5;4;0;V
DFM4VA6;4;0;V
DHT3UO;4;0;NULL
DHT4EA;4;0;V
DHT4EA1;4;0;V
DHT4EA2;4;0;V
DHT4VA;4;0;V
DHT4VA1;4;0;V
DHT4VA2;4;0;V
DHT4VA3;4;0;V
DHT4VA4;4;0;V
DHT4VA5;4;0;V
DHT4VA6;4;0;V
DID1VC;4;0;V
DSN3PVAC;4;0;NULL
DSN3PVBA;4;0;NULL
DSNTENT1;4;0;NULL
DXV0BC0A;4;0;V
EBK3;4;0;V
ECI3;4;0;V
EGZ1ANPb;4;0;NULL
EIM05;4;0;NULL
ELK6;4;0;V
ELK9;4;0;V
EME1D;4;0;D
EME2D;4;0;D
ERE2D;4;0;D
MFYVE;4;0;NULL
MLAWS;4;0;NULL
MPOSA;4;0;NULL
AHH4DA;3;0;D
ASE2D;3;0;D
ATH4IP03;3;0;NULL
ATH4IP04;3;0;NULL
ATH4NL07;3;0;NULL
ATH4NL08;3;0;NULL
ATH4NL09;3;0;NULL
DFM4DA;3;0;D
DHT4DA;3;0;D
DID4VA;3;0;V
DSO2VB;3;0;V
EBT4V;3;0;V
EGZ1ANPa;3;0;NULL
EPO4VC;3;0;V
ESB2D;3;0;D
ETB4VA;3;0;V
EVM4A;3;0;V
ATHNL05;2;0;V
ATHNL06;2;0;V
DAG0;2;0;V
DHB0doc1;2;0;D
DIMx01;2;0;NULL
DPREP-A;2;0;NULL
DPREP-B;2;0;NULL
DPREP-C;2;0;NULL
DPREP-D;2;0;NULL
DSNTENT5;2;0;NULL
EBRD05;2;0;NULL
EBS3D;2;0;D
EHR1DB;2;0;D
EIC1Vj;2;0;V
EIC1Vk;2;0;V
EIC1Vl;2;0;V
EIV3VB;2;0;V
EKT2Vf;2;0;V
EKT2Vg;2;0;V
ELK10;2;0;NULL
ERE3D;2;0;D
EROB01;2;0;NULL
ESB1VF;2;0;V
EVP4VGTB;2;0;V
MPOBE;2;0;NULL
DAR7V;1;0;V
DAR8V;1;0;V
DBI4VA;1;0;V
DCE0V10;1;0;V
DIM3VB;1;0;V
DIV1D;1;0;D
DIV1VF;1;0;V
DIV2D;1;0;D
DIV3D;1;0;D
DLB2GH1A;1;0;V
DLB2GH1B;1;0;V
DMK3VA;1;0;V
DSB1VD;1;0;V
DSN2LVC;1;0;NULL
DSN3LVD;1;0;NULL
DSN3PDAA;1;0;NULL
DTP0V3;1;0;V
DTP0V4;1;0;V
DTP0V5;1;0;V
EBI4Va;1;0;V
EBK5;1;0;V
EBRMHBOa;1;0;NULL
EHR4V;1;0;V
EHR4VB;1;0;V
ELK8;1;0;V
EME3D;1;0;D
EMI1Vl;1;0;V
EMI3;1;0;V
EMI3/4;1;0;NULL
EMW4VB2;1;0;V
ESP4VB2;1;0;V
ETC3st;1;0;NULL
EVM4VM;1;0;V
MAEOP;1;0;NULL
MCRIP;1;0;NULL
MKeuze6;1;0;NULL
MLEIN;1;0;NULL
