class;"scheduled days";"scheduled days around dinner time";"days with too short dinner time"
AHH1DA;82;70;4
AHH2DA;85;69;0
AHH4DA;7;5;0
AHH4DB;49;43;0
ASE1D;66;64;63
ASE2D;65;63;63
ASE3D;17;17;16
DBE1DA;61;61;23
DBE2DA;63;63;29
DBE3DA;30;30;21
DBI1DA;54;54;0
DBI2DA;111;111;3
DBI3DA;23;23;0
DBI4DA;16;16;16
DBM1D;143;50;29
DEC1CE;67;67;67
DEC2CE;68;68;68
DEC3CE;36;36;36
DFM1DA;82;70;4
DFM2DA;83;60;0
DFM4DA;7;5;0
DFM4DB;50;44;0
DHR1DA;61;61;2
DHR1HZ;29;29;1
DHR2DA;66;63;5
DHR2DB;38;38;4
DHR3DA;32;31;2
DHR3DB;32;32;1
DHT1DA;82;70;4
DHT2DA;85;69;0
DHT4DA;7;5;0
DHT4DB;50;44;0
DIV1D;34;34;33
DIV2D;34;32;32
DIV3D;12;12;12
DLB1DA;85;73;15
DLB2DA;80;48;13
DLB2DB;95;71;19
DLB2DC;63;43;18
DLB2DD;61;45;19
DLB3DA;150;124;49
DLB3DB;153;127;26
DLB4DA;78;59;13
DMA2Da;17;17;0
DMZ2DC;10;10;0
DSB2D;30;30;18
DSB3D;53;46;27
DSB4D;61;61;46
DSB5D;31;31;15
DSJ1DA;66;64;64
DSJ2DA;65;63;62
DSJ3DA;29;29;28
DTB2D;30;30;14
DTB3D;38;36;7
DTP1DA;64;61;12
DTP1DB;64;61;12
DTP2DA;70;65;20
DTP2DB;34;32;11
DTP3DA;44;33;9
DTP3DG;52;35;13
DTP3DP;47;37;11
DTP3DT;83;66;9
DVP1DA;17;17;1
DVP2DA;22;22;2
DVP2DB;12;11;2
DVP3DA;156;51;20
DVP3UMA;65;41;12
DVP3UMB;66;46;18
DVP3UMC;65;44;15
DVP3UMD;65;44;14
DVP4DA;158;51;21
DVP4DB;155;53;21
EBK1D;61;11;6
EBK2D;265;95;54
EBM1D;277;96;54
EBM2D;34;18;8
EBS3D;13;13;13
EBT1D;60;60;14
EBT2D;59;57;16
EBT3D;62;43;5
ECE1d;145;26;14
ECE1DT;64;64;2
ECE1DTV;33;33;4
ECE2d;145;45;25
ECE2DT;64;64;0
ECE2DTV;28;28;0
ECE3Dc;43;5;1
ECE3De;72;23;10
ECE3DT;64;64;0
ECE4Dc;71;20;8
ECE4De;72;29;24
ECE4DT;47;47;0
ECE6Db;90;13;3
ECE6Dc;98;21;16
EEL1A;303;97;69
EEL1B;294;98;69
EEL1I;136;46;28
EEL1IA;144;60;36
EEL1IB;93;49;17
EEL1MBO;40;3;2
EEL1SA;107;16;10
EEL1SB;109;18;10
EEL2A;286;116;78
EEL2B;292;115;65
EEL2IA;286;113;77
EEL2IB;278;106;64
EEL3A;148;59;47
EEL3B;144;72;47
EEL3IA;140;58;46
EEL3IB;137;58;46
EEL5A;119;119;0
EEL5B;59;59;0
EEL5P;120;119;0
EEM1DSPD;45;45;1
EEM2DSPD;60;60;0
EEM3DSPD;14;14;0
EFO1D;2;2;0
EHR1DA;64;64;3
EHR1DB;40;40;3
EHR2D;60;60;1
EHR3D;32;32;0
EIB1d;123;20;4
EIB2d;65;14;6
EIB3Dgf;146;50;29
EIB4Dgf;142;52;20
EME1D;66;64;64
EME2D;65;63;63
EME3D;31;30;29
EMT1D;133;41;27
ER1D123;163;10;1
ERE1D;66;64;63
ERE2D;65;63;62
ERE3D;30;30;28
ESB1D;61;61;31
ESB2D;61;61;2
ESB2DDU;23;23;0
ESB3D;61;61;9
ESB3DDU;31;31;0
ESB4D;42;31;0
ESP1DDA1;60;15;4
ESP1DDA2;60;12;3
ESP1DDB1;60;25;7
ESP1DDB2;29;14;0
ESP2DDA1;63;23;6
ESP2DDA2;63;30;6
ESP2DDB1;63;23;6
ESP2DDB2;33;15;1
ESP2DDC1;33;15;1
ESP2DDC2;33;15;1
ESP2DDD1;39;22;1
ESP2DDD2;33;23;1
ESP2DDE1;33;19;0
ESP2DDE2;33;19;0
ESP2DDF1;33;14;0
ESP2DDF2;33;15;0
ESP2DDG1;33;24;3
ESP2DDG2;33;24;3
ESP2DDH1;33;18;0
ESP2DDH2;33;17;0
ESP3DDA1;58;12;12
ESP3DDA2;58;14;14
ESP3DDB1;58;12;12
ESP3DDB2;58;20;20
ESP3DDC1;58;23;23
ESP3DDC2;58;27;23
ESP3DDD1;58;17;16
ESP3DDD2;58;28;28
ESP3DDE1;58;16;16
ESP3DDE2;58;9;8
ESP3DDF1;58;14;14
ESP3DDF2;58;17;16
ESP3DDG1;58;22;16
ESP3DDG2;58;18;15
ESP3DDH1;58;24;15
ESP3DDH2;58;23;15
ESP4DDA1;63;2;1
ESP4DDA2;62;2;1
ESP4DDB1;63;1;0
ESP4DDB2;63;4;2
ESP4DDC1;63;2;1
ESP4DDC2;63;6;4
ESP4DDD1;63;3;0
ESP4DDD2;62;3;0
ESP4DDE1;48;3;1
ESP4DDE2;32;2;0
ETB1D;57;56;14
ETB2D;57;57;8
ETB3D;60;59;12
ETB4FY;98;12;3
ETN1D;232;101;75
EVP4DA;32;15;12
EWB1D;272;106;43
EWB2D;133;17;0
EXR1D123;169;70;2
MFMMA4D;66;3;0
