class;"scheduled days";"days without sufficient break";"days with sufficient break"
AHH1DA;18;8;10
AHH1EE;106;7;57
AHH1EF;111;7;65
AHH1EG;98;0;60
AHH1EH;96;0;53
AHH1V2;178;0;111
AHH1VA;209;7;151
AHH1VB;207;7;143
AHH1VC;200;7;131
AHH1VD;201;7;131
AHH1VE;204;9;127
AHH1VF;201;10;130
AHH1VH;98;1;64
AHH2DA;18;7;11
AHH2EA;87;2;77
AHH2EB;43;1;38
AHH2VA;89;3;82
AHH2VB;80;3;73
AHH2VC;85;3;77
AHH2VE;84;3;78
AHH2VF;83;3;76
AHH2VG;38;2;32
AHH3EA;86;3;71
AHH3EB;38;2;28
AHH3EC;38;2;29
AHH3EI;26;1;25
AHH3EK;19;2;13
AHH3EM;22;1;21
AHH3EN;8;0;8
AHH3EO;11;0;11
AHH3ES;20;2;18
AHH3UO;4;0;4
AHH3VA;224;13;165
AHH3VB;175;8;137
AHH3VC;56;2;41
AHH3VD;65;3;48
AHH3VH;65;3;50
AHH3VI;21;1;13
AHH3VJ;21;1;19
AHH3VK;16;1;6
AHH3VL;21;1;19
AHH3VM;30;1;28
AHH3VN;9;0;9
AHH3VO;10;0;9
AHH3VP;9;0;9
AHH3VR;10;1;7
AHH3VS;18;0;15
AHH4DA;3;0;2
AHH4DB;11;4;6
AHH4EA;4;0;4
AHH4EA1;4;0;4
AHH4EA2;4;0;4
AHH4EB;37;2;27
AHH4EC;38;2;29
AHH4EH;23;0;23
AHH4VA;4;0;4
AHH4VA1;4;0;4
AHH4VA2;4;0;4
AHH4VA3;4;0;4
AHH4VA4;4;0;4
AHH4VA5;4;0;4
ASE1D;7;0;7
ASE1VA;50;15;35
ASE1VB;41;13;26
ASE1VC;28;2;26
ASE2D;4;0;4
ASE2VA;79;3;67
ASE2VB;27;2;25
ASE3VA;34;3;31
ATH4IP01;8;0;7
ATH4IP02;4;0;3
ATH4IP03;3;0;2
ATH4IP04;3;0;2
ATH4NL01;7;0;7
ATH4NL02;7;0;6
ATH4NL03;6;0;5
ATH4NL04;7;0;7
ATH4NL05;5;0;5
ATH4NL06;4;0;4
ATH4NL07;3;0;2
ATH4NL08;3;0;2
ATH4NL09;3;0;2
ATH4NL10;4;0;4
ATH4NL99;53;0;52
ATHIP01;10;0;10
ATHIP02;4;0;4
ATHIP03;6;0;6
ATHIP04;5;0;5
ATHNL01;10;0;10
ATHNL02;9;0;8
ATHNL03;10;0;10
ATHNL04;9;0;9
ATHNL05;2;0;2
ATHNL06;2;0;2
ATHNL07;5;0;5
ATHNL08;5;0;5
ATHNL09;5;0;5
ATHNL10;6;0;6
ATHNL11;6;0;6
ATHNL12;5;0;5
DAC3VA;129;0;116
DAC4VA;91;3;73
DAG0;36;0;35
DAR1VA;219;44;140
DAR1VB;215;46;133
DAR1VC;192;21;141
DAR2VA;190;10;138
DAR2VB;193;11;145
DAR3V12;10;0;10
DAR3V34;10;0;10
DAR3V56;10;0;10
DAR3V78;10;0;10
DAR3VA;165;28;90
DAR3VB;172;20;88
DAR3VC;87;10;52
DAR4VA;36;1;35
DAR4VB;31;0;31
DAR5VA;30;1;29
DAR5VB;30;1;29
DAR6V;31;1;30
DAR7V;13;1;12
DAR8V;12;1;11
DBE1DA;56;5;40
DBE2DA;56;18;36
DBE3DA;28;13;9
DBE3VA;201;0;144
DBI1DA;45;0;45
DBI1VA;129;1;107
DBI1VB;130;1;107
DBI2DA;86;0;86
DBI2VA;199;3;165
DBI3DA;20;0;20
DBI3VA;48;0;48
DBI4VA;1;0;1
DBM1A;222;1;163
DBM1B;225;1;165
DBM1C;217;1;142
DBM1D;118;1;64
DBM1I;89;0;81
DBM2A;140;2;124
DBM2B;146;2;120
DBM2C;95;2;60
DBM3a;2;1;1
DBM3b;2;1;1
DBM4a;2;1;1
DBM4b;2;1;1
DBMint1;4;0;4
DBO01;3;0;3
DCE001;28;0;27
DCE002;28;0;27
DCE003;11;0;11
DCE004;31;0;30
DCE005;5;0;5
DCE0V01;47;17;29
DCE0V02;46;6;40
DCE0V03;18;2;16
DCE0V04;18;2;16
DCE0V05;16;0;16
DCE0V06;38;3;35
DCE0V07;7;2;5
DCE0V08;5;0;5
DCE0V09;17;0;17
DCE0V10;4;2;2
DCE1VA;164;11;141
DCE1VB;167;11;144
DCE1VC;165;11;142
DCE1VD;174;11;147
DCE1VE;159;11;132
DCE1VF;162;11;135
DCE1VG;83;9;70
DCE1VH;84;9;70
DCE2IA;118;11;105
DCE2VA;200;35;102
DCE2VB;204;35;122
DCE3IA;120;20;97
DCE3VA;88;13;61
DCE3VB;87;14;53
DCE4IA;9;0;9
DCEdoc2;28;0;28
DCEdoc3;2;0;2
DCEEHL;2;0;2
DCEMHAVO;8;0;8
DCH1;95;1;70
DCH1A;102;1;68
DCH1B;107;0;78
DCH1I;187;2;144
DCH2;131;3;107
DCH3;3;2;1
DCH4;3;2;1
DCHint1;3;0;3
DCS1VA;200;11;169
DCS1VB;187;11;152
DCS1VC;189;13;146
DCS1VD;182;11;149
DCS1VE;183;11;146
DCS1VF;184;11;148
DCS1VG;105;9;88
DCS1VH;107;9;93
DCS1VR;55;0;55
DCS2VA;186;28;128
DCS2VB;181;25;129
DCS2VR;60;3;57
DCS3VA;74;13;56
DCS3VB;47;13;30
DCS3VR;41;2;39
DCS4VA;42;7;33
DCS4VR;2;0;2
DCT4VIB;40;5;31
DDSTE;19;0;19
DEC1CE;43;24;0
DEC2CE;37;19;1
DEC3CE;18;8;0
DEM1VA;237;1;161
DEM1VB;236;1;157
DEM1VC;243;1;191
DEM1VD;245;1;176
DEM1VE;115;0;87
DEM2VA;238;0;187
DEM2VB;237;0;189
DEM2VC;225;0;160
DFM1DA;18;8;10
DFM1V2;137;2;84
DFM1V2A;46;1;23
DFM1V2B;46;1;22
DFM1VA;198;9;110
DFM1VB;197;9;107
DFM1VC;199;9;120
DFM1VD;197;9;112
DFM1VE;205;9;129
DFM1VF;206;9;136
DFM1VG;205;9;127
DFM1VH;206;9;126
DFM1VI;205;10;128
DFM1VJ;204;9;126
DFM1VK;54;1;34
DFM2DA;21;9;12
DFM2VA;95;2;86
DFM2VB;100;2;90
DFM2VC;47;0;42
DFM2VE;96;4;85
DFM2VF;95;4;83
DFM2VG;95;6;80
DFM2VH;49;4;43
DFM2VI;50;2;43
DFM3UO;4;0;4
DFM3VA;124;21;97
DFM3VB;124;21;99
DFM3VC;102;13;78
DFM3VD;31;2;24
DFM3VH;68;2;56
DFM3VI;28;0;25
DFM3VJ;23;0;21
DFM3VK;24;2;16
DFM3VL;23;0;21
DFM3VM;19;0;17
DFM3VN;9;0;9
DFM3VO;11;0;11
DFM3VP;10;1;9
DFM3VR;12;1;9
DFM3VS;13;1;12
DFM4DA;3;0;2
DFM4DB;11;4;6
DFM4EA;4;0;4
DFM4VA;4;0;4
DFM4VA1;4;0;4
DFM4VA2;4;0;4
DFM4VA3;4;0;4
DFM4VA4;4;0;4
DFM4VA5;4;0;4
DFM4VA6;4;0;4
DFM4VH;15;0;15
DFS3VA;255;0;71
DFS5VX;123;0;29
DFT1VA;71;4;66
DFT2VA;5;4;1
DGZ01;9;0;9
DGZ1HCSW;20;0;8
DGZ2HCSW;8;0;5
DHB0doc1;3;0;3
DHR0P1;39;7;32
DHR0P2;12;0;12
DHR0P3;2;0;2
DHR1DA;61;0;0
DHR1HE;131;0;88
DHR1HF;70;0;51
DHR1HZ;29;0;0
DHR1VA;232;0;197
DHR1VB;231;0;188
DHR1VC;228;0;181
DHR1VD;229;0;181
DHR1VE;121;0;102
DHR1VF;43;0;43
DHR1VS;119;0;100
DHR1VT;66;0;60
DHR2DA;62;0;4
DHR2DB;38;0;1
DHR2VA;145;0;97
DHR2VB;150;0;111
DHR2VC;75;0;52
DHR2VD;150;0;103
DHR2VE;75;0;52
DHR2VF;74;0;47
DHR3DA;31;0;18
DHR3DB;32;0;0
DHR3VA;87;0;75
DHR3VB;87;1;74
DHR3VC;91;0;76
DHR3VD;93;0;77
DHR3VE;47;0;39
DHT1DA;18;8;10
DHT1EA;203;8;128
DHT1EB;157;8;100
DHT1EC;103;1;73
DHT1ED;57;1;45
DHT1EE;99;0;68
DHT1EF;209;7;130
DHT1V2;124;0;73
DHT1VA;207;7;135
DHT1VB;208;7;134
DHT1VC;200;8;124
DHT1VD;200;8;125
DHT1VE;208;7;115
DHT1VF;207;7;134
DHT1VG;204;9;127
DHT1VH;205;7;134
DHT1VI;105;0;70
DHT1VJ;101;0;68
DHT1VK;103;0;68
DHT2DA;18;7;11
DHT2EA;98;2;90
DHT2EB;96;2;88
DHT2EE;99;0;89
DHT2EF;101;0;95
DHT2VA;89;1;83
DHT2VB;86;3;80
DHT2VC;87;1;83
DHT2VD;44;1;41
DHT2VE;87;1;82
DHT2VF;86;1;81
DHT2VG;91;1;86
DHT2VH;40;1;38
DHT3EA;92;10;81
DHT3EB;93;10;81
DHT3EC;36;7;29
DHT3ED;35;7;28
DHT3EE;35;7;28
DHT3EH;1;1;0
DHT3EI;24;3;21
DHT3EK;21;3;16
DHT3EM;21;1;20
DHT3EN;8;0;8
DHT3EO;12;0;12
DHT3ES;22;1;21
DHT3UO;4;0;4
DHT3VA;114;16;98
DHT3VB;89;10;79
DHT3VC;52;6;46
DHT3VD;52;6;46
DHT3VE;31;1;30
DHT3VF;31;1;30
DHT3VH;68;2;57
DHT3VI;26;0;19
DHT3VJ;22;0;20
DHT3VK;24;2;14
DHT3VL;18;0;15
DHT3VM;31;0;29
DHT3VN;9;0;9
DHT3VO;11;0;11
DHT3VP;11;0;10
DHT3VR;12;1;9
DHT3VS;18;1;15
DHT4DA;3;0;2
DHT4DB;11;4;6
DHT4EA;4;0;4
DHT4EA1;4;0;4
DHT4EA2;4;0;4
DHT4EC;35;7;28
DHT4ED;35;7;28
DHT4EH;23;0;23
DHT4VA;4;0;4
DHT4VA1;4;0;4
DHT4VA2;4;0;4
DHT4VA3;4;0;4
DHT4VA4;4;0;4
DHT4VA5;4;0;4
DHT4VA6;4;0;4
DHT4VH;14;0;14
DID1VA;127;5;95
DID1VB;125;8;90
DID1VC;4;0;3
DID2VA;231;17;192
DID2VB;232;17;190
DID3VA;11;0;11
DID4VA;3;0;3
DID4VAid;54;0;53
DID4VAis;46;3;39
DIM1VA;158;9;134
DIM1VB;172;16;134
DIM1VC;168;9;147
DIM1VF;89;3;78
DIM2VA;134;26;91
DIM2VB;39;19;19
DIM3VA;86;17;65
DIM3VB;3;2;1
DIM4VAm;1;0;1
DIM4VB;2;2;0
DIMx01;23;1;22
DIMx02;14;3;11
DIMx03;7;1;6
DIMx04;11;1;10
DIMx05;14;9;5
DIMx06;15;5;10
DIMx08;3;0;3
DIMx09;9;4;4
DIMx10;20;5;14
DIV1D;2;0;2
DIV1VA;76;9;65
DIV1VB;85;2;83
DIV1VF;1;0;1
DIV2D;4;1;2
DIV2VA;69;5;62
DIV3D;1;0;1
DIV3VA;22;5;16
DLB01;60;0;60
DLB01K;81;16;63
DLB01L;81;16;64
DLB01M;34;0;33
DLB01N;33;0;32
DLB12K;169;52;100
DLB12L;169;53;101
DLB1DA;68;0;62
DLB1Sa;20;0;20
DLB1VA;188;58;119
DLB1VB;188;57;121
DLB1VC;195;58;126
DLB1VD;154;50;101
DLB1VE;158;46;101
DLB1VF;153;50;98
DLB1VG;192;58;124
DLB1VH;195;58;128
DLB1VI;177;68;101
DLB1VO;139;29;97
DLB1VP;103;26;67
DLB1VX;99;15;77
DLB1VY;98;15;73
DLB23K;166;34;78
DLB23L;169;36;89
DLB2DA;47;1;44
DLB2DB;74;0;69
DLB2DC;47;0;44
DLB2DD;47;0;44
DLB2GH1A;3;0;3
DLB2GH1B;3;0;3
DLB2GH2A;2;0;2
DLB2GH2B;2;0;2
DLB2GNEA;3;0;3
DLB2GNEB;3;0;3
DLB2GNH1;15;0;7
DLB2GNH2;15;0;6
DLB2VA;195;68;117
DLB2VB;194;68;111
DLB2VC;193;69;118
DLB2VD;196;68;121
DLB2VE;189;70;113
DLB2VF;190;70;114
DLB2VI;119;64;50
DLB34K;101;16;59
DLB34L;49;6;30
DLB3DA;133;2;65
DLB3DB;136;2;107
DLB3VA;228;72;69
DLB3VB;215;75;61
DLB3VC;220;72;78
DLB3VD;220;72;69
DLB3VE;230;73;70
DLB3VF;80;2;42
DLB3VI;103;74;28
DLB45K;16;0;16
DLB45L;16;0;16
DLB4DA;64;0;63
DLB4VA;39;0;33
DLB4VB;32;0;32
DLB4VC;39;0;39
DLB4VD;43;0;43
DLB4VE;2;0;2
DLB4VF;2;0;2
DLO32;108;0;93
DLO41A;107;0;87
DLO41B;104;0;84
DLO42c;100;0;85
DLO42m;81;0;70
DLO43c;62;0;62
DLO43m;54;0;41
DMA2Da;15;0;0
DMH1;20;3;16
DMK1VA;93;12;62
DMK2IB;88;20;63
DMK2VA;183;28;138
DMK3VA;2;0;2
DMK4VA;55;1;51
DMK4VIB;95;10;76
DPA1SA;106;0;81
DPA1SB;107;0;85
DPA1SC;51;0;39
DPREP-A;2;0;2
DPREP-B;2;0;2
DPREP-C;2;0;2
DPREP-D;2;0;2
DRO1VA;115;13;90
DRO1VB;114;13;87
DRO1VC;36;3;28
DRO2IB;88;20;63
DRO2VA;191;26;141
DRO2VB;125;14;93
DRO2VC;124;15;92
DRO4VA;56;2;50
DRO4VB;44;2;37
DRO4VC;14;0;14
DRO4VIB;73;6;60
DSB1VA;150;41;103
DSB1VB;151;41;105
DSB1VC;149;41;102
DSB1VD;64;0;61
DSB2D;23;0;1
DSB2VA;146;10;117
DSB2VB;158;8;134
DSB2VC;1;0;1
DSB3D;46;20;15
DSB3VA;130;0;90
DSB3VB;9;0;9
DSB4D;54;8;23
DSB4V;128;1;126
DSB5D;31;0;31
DSB5V;75;0;68
DSJ1DA;8;1;7
DSJ1VA;80;6;73
DSJ1VB;76;1;68
DSJ1VC;80;0;80
DSJ1VD;76;8;68
DSJ1VE;84;1;82
DSJ1VF;35;0;35
DSJ2DA;12;2;10
DSJ2VA;66;4;62
DSJ2VB;62;4;58
DSJ2VC;69;3;66
DSJ2VD;31;2;29
DSJ3DA;9;0;9
DSJ4VA;22;0;22
DSJ4VB;22;0;22
DSJ4VC;23;7;16
DSN1LVA;55;55;0
DSN1LVB;55;55;0
DSN1LVC;44;44;0
DSN1LVD;8;8;0
DSN2LVA;41;41;0
DSN2LVB;41;41;0
DSN2LVC;1;1;0
DSN3LVA;49;49;0
DSN3LVB;47;47;0
DSN3LVC;65;65;0
DSN3LVD;1;1;0
DSN3PDAA;1;0;1
DSN3PVAA;35;0;26
DSN3PVAB;7;0;7
DSN3PVAC;4;0;4
DSN3PVBA;4;0;4
DSN4LVA;32;29;3
DSN4LVB;26;26;0
DSN4LVC;15;15;0
DSNLV4;15;15;0
DSNTENT1;5;0;5
DSNTENT2;11;0;11
DSNTENT3;12;3;9
DSNTENT4;8;0;8
DSNTENT5;3;0;3
DSO1VA;102;11;74
DSO1VB;107;13;73
DSO2IB;88;20;63
DSO2VA;212;35;129
DSO2VB;3;3;0
DSO3VA;188;35;115
DSO4VIB;103;25;67
DTB1VA;166;3;156
DTB1VB;177;3;162
DTB2D;23;0;15
DTB2V;88;1;80
DTB3D;12;0;5
DTB3V;56;0;49
DTB4V;5;0;5
DTP0D2;16;0;16
DTP0V0;13;0;13
DTP0V1;32;0;31
DTP0V2;42;0;42
DTP0V3;4;0;4
DTP0V4;12;0;12
DTP0V5;14;0;14
DTP0V8;9;0;9
DTP0V9;8;0;8
DTP1DA;63;0;2
DTP1DB;63;0;2
DTP1VA;231;0;171
DTP1VB;231;0;171
DTP1VC;235;0;176
DTP1VD;232;0;180
DTP1VE;239;0;182
DTP1VF;238;0;182
DTP1VG;234;0;172
DTP1VH;234;0;180
DTP1VJ;232;0;180
DTP1VK;234;0;185
DTP1VL;228;0;172
DTP1VM;232;0;180
DTP1VN;240;0;189
DTP1VO;242;0;197
DTP1VP;238;0;186
DTP1VR;240;0;189
DTP1VS;247;0;196
DTP1VT;251;0;209
DTP1VU;242;0;197
DTP1VV;183;0;134
DTP1VW;124;0;94
DTP1VX;122;1;95
DTP1VY;120;0;84
DTP1VZ;62;0;37
DTP2DA;65;1;3
DTP2DB;32;1;2
DTP2VA;211;6;157
DTP2VB;217;6;160
DTP2VC;222;6;170
DTP2VD;225;6;179
DTP2VE;236;5;197
DTP2VF;227;5;176
DTP2VG;228;7;177
DTP2VH;230;6;189
DTP2VI;237;5;195
DTP2VJ;217;6;164
DTP2VK;220;6;177
DTP2VL;223;6;168
DTP2VZ;170;0;159
DTP3DA;43;0;11
DTP3DG;50;1;18
DTP3DP;40;0;9
DTP3DT;83;0;25
DTP3VA;115;0;93
DTP3VB;44;0;37
DTP3VG;91;0;77
DTP3VH;89;0;81
DTP3VI;42;0;38
DTP3VM;83;0;67
DTP3VN;41;0;29
DTP3VO;38;0;27
DTP3VT;155;0;141
DTP3VU;124;0;114
DTP3VV;87;0;85
DTP3VW;13;0;13
DTP3VZ;8;0;8
DUMMY1;10;0;10
DUS1VA;49;7;26
DUS1VB;48;7;25
DUS1VC;48;7;25
DUS1VD;49;8;25
DVJ1VA;1;0;1
DVJ1VC;100;0;100
DVJ1VD;44;0;44
DVJ1VE;18;0;18
DVJ1VF;5;0;5
DVJ1VG;9;0;9
DVJ1VH;7;0;7
DVP1DA;15;0;11
DVP1VA;213;0;163
DVP1VB;208;1;158
DVP1VC;208;1;161
DVP1VD;212;1;157
DVP1VE;188;1;154
DVP1VF;109;1;96
DVP1VG;106;1;89
DVP1VH;106;1;92
DVP1VP;17;0;3
DVP1VS;17;0;3
DVP2BSA;11;0;10
DVP2BSB;6;0;5
DVP2DA;17;0;17
DVP2DB;9;0;9
DVP2VA;55;0;45
DVP2VB;71;0;54
DVP2VBSA;43;0;34
DVP2VBSB;43;0;33
DVP2VC;76;0;61
DVP2VD;112;0;90
DVP2VE;28;0;18
DVP2VZBC;34;0;28
DVP2VZBD;34;0;25
DVP2VZBE;34;0;26
DVP2VZBF;34;0;27
DVP2VZBG;33;0;23
DVP2VZOA;65;0;45
DVP2VZOB;35;0;29
DVP2VZOC;34;0;29
DVP2VZOD;36;0;30
DVP2VZOE;34;0;26
DVP2VZOF;34;0;27
DVP2VZRA;70;8;32
DVP2VZRB;62;0;33
DVP2VZRC;35;0;25
DVP2VZRD;44;8;23
DVP3DA;124;0;101
DVP3UA;127;0;107
DVP3UB;96;0;77
DVP3UC;96;0;77
DVP3UD;62;0;55
DVP3UMA;51;20;17
DVP3UMB;52;20;17
DVP3UMC;51;20;15
DVP3UMD;51;20;17
DVP3VA;125;0;105
DVP3VB;126;0;106
DVP3VC;126;0;104
DVP3VD;126;0;105
DVP3VE;98;0;79
DVP3VF;99;0;78
DVP3VMA;134;0;119
DVP3VMB;134;0;118
DVP3VMC;120;0;105
DVP4DA;125;0;104
DVP4DB;124;0;104
DVP4UA;125;0;105
DVP4UB;60;0;53
DVP4UC;43;0;37
DVP4VA;126;0;107
DVP4VB;125;0;105
DVP4VC;125;0;103
DVP4VD;105;0;85
DVP5VA;75;0;59
DXD0E;2;0;2
DXN0T6;7;0;7
DXN1LVA;56;55;1
DXN1LVB;56;55;1
DXN1LVC;57;56;1
DXN2LVA;39;39;0
DXN2LVB;38;38;0
DXN2LVC;41;41;0
DXN3LVA;53;53;0
DXN3LVB;66;66;0
DXN3PV4;3;0;3
DXN3PVBC;5;0;5
DXN4AVA;8;8;0
DXN4LV4;7;7;0
DXN4LVA;22;22;0
DXN4LVB;18;18;0
DXN4LVC;18;18;0
DXP0A;119;0;110
DXP0B;119;0;110
DXP0C;119;0;110
DXV0BC0A;4;0;4
DXV1VA;48;0;48
DXV1VB;24;0;24
DXV1VC;120;1;119
DXV1VF;26;0;26
DXV1VG;20;0;20
DXV1VH;13;0;13
DXV1VJ;23;0;23
DXV1VL;8;0;8
DXV1VM;8;0;8
DXV1VP;8;0;8
DXV1VQ;7;0;7
EAC3VA;131;0;115
EAC4VA;94;3;82
EBE3VA;188;0;103
EBE3VB;137;0;73
EBE3VC;28;0;28
EBI1Va;208;3;128
EBI1Vb;266;2;186
EBI1Vc;269;3;192
EBI1Vd;138;1;91
EBI2Va;204;4;173
EBI2Vb;125;4;97
EBI3Va;49;0;49
EBI4Va;1;0;1
EBK1A;223;6;176
EBK1B;219;6;172
EBK1C;209;7;173
EBK1D;59;0;56
EBK2A;245;1;206
EBK2B;245;1;206
EBK2C;245;1;205
EBK2D;245;1;205
EBK2E;245;1;206
EBK2F;246;1;207
EBK2G;246;1;208
EBK2H;246;1;208
EBK2I;126;0;111
EBK2J;126;0;111
EBK3;13;0;13
EBK4;108;11;95
EBK5;9;0;9
EBM0int1;3;0;3
EBM1A;217;6;174
EBM1B;199;10;143
EBM1C;231;9;180
EBM1D;213;4;157
EBM1E;227;4;175
EBM1F;116;5;89
EBM1V;190;16;148
EBM2;71;11;58
EBM2A;73;5;48
EBM2B;73;5;48
EBM3-4;156;1;155
EBMint1;4;0;4
EBRD01;23;2;21
EBRD04;42;0;42
EBRD05;2;0;2
EBRFY1;13;0;13
EBRMHBOa;1;0;1
EBS1VA;41;1;39
EBS1VB;15;0;15
EBS2VA;76;10;63
EBS3D;2;0;2
EBS3VA;30;5;25
EBT1D;47;0;19
EBT1VA;205;3;156
EBT1VB;207;3;163
EBT2D;53;0;41
EBT2V;63;0;60
EBT2VA;61;0;55
EBT2VB;60;0;57
EBT3D;35;0;29
EBT3V;73;2;57
EBT4V;10;0;10
ECE1a;121;0;113
ECE1b;118;0;116
ECE1BAM;64;1;62
ECE1c;110;0;105
ECE1d;108;0;102
ECE1DT;52;0;51
ECE1DTV;27;0;26
ECE1e;108;0;102
ECE1f;110;0;105
ECE1g;120;1;112
ECE1h;126;0;118
ECE1i;116;0;109
ECE1inte;21;0;20
ECE2a;104;0;83
ECE2b;111;0;94
ECE2c;101;0;85
ECE2d;103;0;86
ECE2DT;53;0;53
ECE2DTV;25;0;25
ECE2e;105;0;88
ECE2f;104;0;88
ECE2g;103;0;80
ECE2h;106;0;74
ECE2i;53;0;40
ECE3Aa;105;2;91
ECE3Ab;102;2;89
ECE3Ac;104;2;89
ECE3Ad;101;3;82
ECE3Ax;43;1;35
ECE3Dc;32;1;28
ECE3De;46;3;34
ECE3DT;53;0;53
ECE3Fe;16;0;14
ECE3rep;42;0;37
ECE3Se;82;2;71
ECE3Sf;44;1;36
ECE4Aa;105;0;79
ECE4Ab;107;0;75
ECE4Ac;105;0;76
ECE4Ad;100;0;71
ECE4Ax;51;0;40
ECE4Dc;53;0;43
ECE4De;55;1;28
ECE4DT;42;0;42
ECE4Se;54;0;40
ECE4Sf;55;1;43
ECE6Aa;203;20;139
ECE6Ab;163;22;121
ECE6Ax;209;20;152
ECE6Db;74;1;63
ECE6Dc;88;2;78
ECE6Fb;30;0;28
ECE6Sb;74;1;63
ECE6Sc;126;11;97
ECE7;33;0;33
ECH1A;220;6;157
ECH1ACS;207;4;155
ECH1B;217;6;160
ECH1BCS;205;9;148
ECH1C;119;4;98
ECH1CCS;99;0;70
ECH1V;37;1;36
ECH2;118;12;97
ECH2ACS;123;5;116
ECH2BCS;123;5;116
ECH2WT;7;4;3
ECH3-4;47;3;44
ECHint1;3;0;3
ECI1;186;8;149
ECI2;165;5;120
ECI3;4;0;4
ECI4;24;7;16
ECP3/4;24;0;24
ECS3-4;68;1;67
ECT1;135;12;86
ECT1A;128;2;86
ECT1B;119;2;57
ECT1IWT;3;1;2
ECT1V;2;1;1
ECT1WTV;24;0;24
ECT2;102;43;58
ECT2IWT;33;8;24
ECT2WT;50;6;44
ECT3-4;47;1;46
ECTint1;4;0;4
EDSTE;2;0;2
EDSTWNT;2;0;2
EDSTWT;2;0;2
EEL1A;289;9;195
EEL1B;285;3;198
EEL1I;131;0;89
EEL1IA;135;1;91
EEL1IB;90;1;57
EEL1MBO;33;1;29
EEL1SA;100;3;86
EEL1SB;102;2;86
EEL2A;250;7;167
EEL2B;267;7;202
EEL2IA;260;8;199
EEL2IB;255;10;184
EEL3A;108;2;106
EEL3B;109;2;107
EEL3IA;100;2;98
EEL3IB;108;1;102
EEL5A;71;0;71
EEL5B;57;0;57
EEL5P;52;0;52
EELFY;67;0;55
EEM1DNOA;47;47;0
EEM1DSPD;45;0;45
EEM1VA;229;0;157
EEM1VB;229;0;155
EEM1VC;224;0;164
EEM1VD;228;0;160
EEM1VE;221;0;146
EEM1VF;235;0;168
EEM1VG;233;0;158
EEM1VH;236;0;166
EEM1VI;169;0;110
EEM1VJ;118;0;79
EEM1VK;59;0;41
EEM2DNOA;47;47;0
EEM2DSPD;60;0;60
EEM2VA;235;0;172
EEM2VB;236;0;187
EEM2VC;238;0;202
EEM2VD;239;0;181
EEM2VE;236;0;186
EEM3DNOA;45;20;25
EEM3DSPD;14;0;14
EEMBO;29;0;29
EFO1A;153;8;135
EFO1B;160;8;139
EFO1C;167;8;151
EFO1Cz;1;1;0
EFO1D;2;1;1
EFO2A;162;15;134
EFO2B;166;16;137
EFO3;30;1;28
EFR3VA;129;0;98
EFR3VB;12;0;8
EFR3VL;43;0;32
EFR4VA;28;0;28
EFY0XA;12;12;0
EFY1MSA;27;0;1
EFY1MSKA;6;0;6
EFY1VA;225;1;131
EFY1VB;236;1;150
EFY1VC;237;3;157
EFY1VD;244;2;175
EFY1VE;225;3;145
EFY1VF;233;2;149
EFY1VI;246;2;104
EFY2MSA;37;2;10
EFY2VA;231;8;95
EFY2VB;232;12;103
EFY2VC;242;28;100
EFY2VD;232;20;100
EFY2VE;225;25;91
EFY2VF;248;38;86
EFY2VIA;245;1;159
EFY2VIB;247;1;161
EFY3MSA;37;1;18
EFY3VA;183;3;130
EFY3VB;68;0;41
EFY3VC;58;5;35
EFY3VD;60;5;33
EFY3VE;63;5;44
EFY3VF;44;1;34
EFY3VIA;133;1;111
EFY3VIB;141;4;109
EFY4VA;65;4;38
EFY4VB;63;0;23
EFY4VC;62;0;28
EFY4VD;58;0;32
EFY4VE;29;0;22
EFY4VF;22;0;18
EFY4VIA;6;5;1
EFY4VP;63;0;57
EGZ1ANP;17;2;8
EGZ1ANPa;5;1;4
EGZ1ANPb;8;0;7
EGZ2ANP;16;5;3
EHO1;22;0;22
EHO2;22;0;22
EHO3;22;0;22
EHP1;22;0;22
EHP1HS1;32;0;32
EHP1HS2;32;0;32
EHP1HS3;30;0;30
EHP2;22;0;22
EHP3;22;0;22
EHPHCSW1;31;0;31
EHPHCSW2;31;0;31
EHR1DA;19;0;12
EHR1DB;3;0;3
EHR1VA1;175;2;167
EHR1VA2;176;2;167
EHR1VB1;167;2;156
EHR1VB2;168;2;158
EHR1VC1;172;2;163
EHR1VC2;171;2;158
EHR1VD1;153;2;139
EHR1VD2;151;2;134
EHR1VE1;184;2;170
EHR1VE2;5;0;5
EHR1VIA;135;6;119
EHR1VIB;130;6;111
EHR2D;15;0;9
EHR2VA1;84;0;82
EHR2VA2;86;0;86
EHR2VB1;82;0;81
EHR2VB2;34;0;33
EHR2VC1;81;0;80
EHR2VC2;78;0;78
EHR2VIA;58;16;29
EHR2VSD;32;2;30
EHR3VA1;6;0;5
EHR3VA2;5;0;4
EHR3VB1;16;0;15
EHR3VB2;16;0;15
EHR3VIA;46;5;41
EHR4V;8;0;8
EHR4VA;5;0;5
EHR4VB;1;0;1
EHS1M1;21;0;5
EHS1M2;11;0;4
EIB1a;59;0;39
EIB1b;74;0;68
EIB1c;34;0;27
EIB1d;68;0;62
EIB1e;84;0;79
EIB1f;83;0;78
EIB1g;71;0;62
EIB1h;76;0;71
EIB2a;52;1;50
EIB2b;62;1;61
EIB2c;32;0;32
EIB2d;26;0;26
EIB2e;54;0;52
EIB2f;64;0;63
EIB2g;57;0;54
EIB2h;53;0;52
EIB3As;68;6;42
EIB3Bs;59;4;34
EIB3Cs;14;0;14
EIB3Dgf;72;6;43
EIB3Ed;50;0;43
EIB3Fd;14;0;14
EIB3rep;44;0;41
EIB4As;78;6;66
EIB4Bs;68;4;60
EIB4Dgf;79;12;63
EIB4Ed;51;1;46
EIB6a;75;3;72
EIB6b;43;2;41
EIB6c;52;10;41
EIB7;33;0;33
EIC1Va;126;0;114
EIC1Vb;125;0;115
EIC1Vc;125;0;114
EIC1Vd;122;0;108
EIC1Ve;135;0;105
EIC1Vf;136;0;106
EIC1Vg;71;0;60
EIC1Vh;71;0;62
EIC1Vi;70;0;58
EIC1Vj;2;0;2
EIC1Vk;2;0;2
EIC1Vl;2;0;2
EIC2Va;110;0;108
EIC2Vb;110;0;108
EIC2Vc;111;0;107
EIC2Vd;55;0;51
EIC2Ve;55;0;53
EIC2Vf;32;0;29
EIC2Vg;81;0;74
EIC2Vh;81;0;76
EIC2Vi;72;0;64
EIC2Vj;31;0;28
EIC3VSBa;72;0;72
EIC3VSBb;72;0;72
EIC3VSBc;72;0;72
EIC3VSBd;72;0;72
EIC3VSBe;72;0;72
EIC3VSBf;72;0;72
EIC4Vbha;73;0;73
EIC4Vbhb;76;0;76
EIC4Vbhc;75;0;75
EIC4Vbhd;75;0;74
EIC4Vbhe;74;0;73
EIC4Vbhf;77;0;77
EIF1VA;207;0;150
EIF1VB;66;0;63
EIF2VA;206;0;160
EIF3VA;100;0;98
EII4AMIa;77;0;77
EII4Vaaa;79;0;78
EII4Vsca;79;0;65
EII4Vscb;79;0;67
EII4Vscc;79;0;68
EII4Vscd;74;0;61
EIL1a;124;0;107
EIL1b;128;0;106
EIL1c;125;0;102
EIL2a;93;1;78
EIL2b;96;1;81
EIL3a;53;9;36
EIL3Aa;42;2;38
EIL3Cb;46;2;44
EIL4a;53;3;32
EIL4Aa;47;3;36
EIL4Cb;42;3;29
EIL6a;45;1;41
EIL6Aa;148;5;124
EIL7;34;0;34
EIM01;66;15;49
EIM02;53;37;15
EIM03;41;11;30
EIM04;31;4;27
EIM05;15;2;13
EIM06;52;4;46
EIM07;25;0;24
EIM08;13;3;10
EIM09;22;19;3
EIN1Va;100;0;84
EIN1Vb;118;0;109
EIN1Vc;114;0;99
EIN1Vd;114;0;102
EIN1Ve;106;2;87
EIN1Vf;111;0;100
EIN1Vg;109;1;88
EIN1Vgta;264;0;211
EIN1Vgtb;261;2;210
EIN1Vgtc;215;0;178
EIN1Vgtd;206;1;174
EIN1Vgte;63;0;53
EIN1Vh;105;2;88
EIN1Vp;171;0;132
EIN1Vq;172;0;138
EIN1Vr;177;1;140
EIN1Vs;177;1;134
EIN1Vt;176;0;138
EIN1Vu;176;1;140
EIN2Va;271;30;150
EIN2Vb;272;30;154
EIN2Vc;279;30;151
EIN2Vd;277;30;152
EIN2Vgta;236;3;207
EIN2Vgtb;231;3;197
EIN2Vgtx;18;0;18
EIN3VBDa;142;9;113
EIN3VBDb;70;8;59
EIN3VBDc;37;0;36
EIN3VESa;72;1;64
EIN3Vgta;83;12;64
EIN3VITa;133;8;114
EIN3VITb;132;8;113
EIN3VITc;60;7;48
EIN3VMHa;72;26;16
EIN3VMHb;72;25;15
EIN3VMHc;72;27;16
EIN3VMHd;73;25;17
EIN3VST;1;0;1
EIN3VUEa;128;9;108
EIN3VUEb;128;9;105
EIN4VGTa;22;0;22
EIP1A;249;52;139
EIP1B;256;25;150
EIP2A;139;5;129
EIP2B;1;0;1
EIP3A;26;2;24
EIP3B;9;0;9
EIT1Va;132;1;110
EIT1Vb;130;1;106
EIT1Vc;131;1;104
EIT1Vd;129;1;97
EIT1Ve;127;1;99
EIT1Vf;127;1;98
EIT1Vg;134;1;76
EIT1Vh;133;1;77
EIT1Vi;70;1;36
EIT1Vj;71;1;40
EIT2Va;100;0;93
EIT2Vb;99;0;91
EIT2Vc;99;0;92
EIT2Ve;97;0;88
EIT2Vf;98;0;89
EIT2Vg;99;0;97
EIT2Vh;100;0;98
EIT3ST;1;0;1
EIT3Va;62;0;56
EIT3Vb;5;0;3
EIT3Vc;62;0;57
EIT3Vd;61;0;55
EIT3Ve;61;0;56
EIT3Vf;5;0;5
EIT3Vg;63;0;59
EIV1VA;81;12;67
EIV1VB;86;3;83
EIV1VC;42;5;37
EIV2VA;75;13;62
EIV2VB;35;7;28
EIV3VA;33;3;30
EIV3VB;4;3;1
EKT01;20;0;20
EKT02;44;7;37
EKT03;37;16;20
EKT04;102;7;90
EKT05;54;4;49
EKT06;79;4;65
EKT07;54;1;51
EKT08;65;2;60
EKT09;43;0;42
EKT10;33;1;32
EKT11;34;0;34
EKT12;39;4;32
EKT13;37;2;35
EKT14;59;21;34
EKT15;12;0;12
EKT16;38;5;33
EKT17;50;15;34
EKT18;74;3;59
EKT19;34;9;21
EKT1Va;255;2;206
EKT1Vb;256;5;203
EKT1Vc;258;3;201
EKT1Vd;253;3;209
EKT1Ve;252;6;200
EKT1Vf;252;3;193
EKT1Vg;31;0;28
EKT1Vgca;272;2;213
EKT1Vgcb;271;2;208
EKT1Vgcc;216;1;168
EKT1Vgcd;212;1;177
EKT1Vgce;68;0;59
EKT1Vi1;257;3;189
EKT1Vi2;255;5;192
EKT1Vi3;163;2;117
EKT1Vi4;130;0;106
EKT2Va;185;7;170
EKT2Vb;189;7;169
EKT2Vc;185;7;167
EKT2Vd;189;7;169
EKT2Vd1;23;0;23
EKT2Vd2;23;0;23
EKT2Vd3;22;0;22
EKT2Vd4;22;0;22
EKT2Vd5;22;0;22
EKT2Vd6;23;0;23
EKT2Vd7;22;0;22
EKT2Vd8;22;0;22
EKT2Ve;178;7;157
EKT2Vf;3;0;3
EKT2Vg;3;0;3
EKT2VG1;48;11;28
EKT2VG2;51;12;33
EKT2Vgca;236;3;208
EKT2Vgcb;239;3;210
EKT2Vgcx;17;0;17
EKT2Vi1;170;6;144
EKT2Vi2;174;6;157
EKT2Vi3;33;1;29
EKT3Vadv;105;1;99
EKT3Vbrc;97;8;77
EKT3Vcpa;102;2;82
EKT3Vedu;99;2;88
EKT3Vgca;84;12;65
EKT3Vweb;74;0;73
EKT4SD;75;7;56
EKT4Vadv;163;1;155
EKT4Vbrc;177;14;150
EKT4Vcpa;74;39;26
EKT4Vedu;155;3;141
EKT4Vgca;22;0;22
EKT4VSD;83;0;67
EKT4Vweb;109;0;107
ELE01ITD;35;0;35
ELE02ITD;6;1;5
ELE03ITD;5;0;5
ELE04ITD;27;0;26
ELEDEL;58;0;58
ELEDLS;48;1;47
ELEDLS1;14;0;14
ELEDMECH;31;0;31
ELEDNAN;30;0;30
ELEDTN;31;0;31
ELEDVER;62;0;42
ELEDVERG;122;0;122
ELK10;2;0;2
ELK1A;8;0;8
ELK2;6;0;6
ELK3;8;0;8
ELK6;4;0;4
ELK8;1;0;1
ELK9;4;0;4
EMAD01;20;0;20
EME1D;5;2;2
EME1VA;104;3;100
EME1VB;100;8;92
EME1VC;77;28;49
EME1VD;102;3;99
EME1VE;48;2;46
EME1VF;24;1;23
EME1VV;17;1;16
EME2D;6;1;4
EME2VA;106;6;97
EME2VB;95;14;81
EME2VC;57;6;51
EME3D;4;1;3
EME3VA;38;6;21
EME3VB;39;6;22
EME3VC;39;6;22
EME4VA;7;0;7
EME4VB;7;0;7
EME4VC;7;0;7
EME4VI;34;1;33
EMI1Va;252;1;195
EMI1Vb;252;1;193
EMI1Vc;250;1;201
EMI1Vd;247;1;200
EMI1Ve;253;2;202
EMI1Vf;254;2;192
EMI1Vg;247;2;185
EMI1Vh;253;2;200
EMI1Vi;252;2;204
EMI1Vj;254;2;202
EMI1Vl;1;0;1
EMI2Va;156;4;115
EMI2Vb;155;4;112
EMI2Vc;159;5;116
EMI2Vd;160;5;114
EMI2Ve;160;4;122
EMI2Vf;154;4;112
EMI2Vg;158;14;108
EMI2VMEa;93;5;53
EMI2VMEb;19;0;18
EMI2VMFa;95;6;58
EMI2VMFb;97;5;63
EMI2VMMa;90;3;59
EMI2VMMb;87;3;54
EMI2VMMc;90;3;57
EMI2VNIa;91;3;63
EMI3;1;0;1
EMI3/4;1;0;1
EMI3VMCa;92;1;84
EMI3Vmfa;194;1;160
EMI3Vmfb;197;2;160
EMI3Vmma;178;2;143
EMI3Vmmb;133;1;102
EMI3Vnia;180;1;148
EMI4V;51;4;40
EMM-Enge;10;0;10
EMM-GGZ;8;0;8
EMM-OmgS;15;0;15
EMM-SeIn;15;0;15
EMM-SocV;15;0;15
EMM-Soll;15;0;15
EMM-STVR;15;0;15
EMM0Enge;9;0;9
EMM0GGZ;11;0;11
EMM0Mfn1;15;0;15
EMM0Mfn2;15;0;15
EMM0OmgS;14;0;14
EMM0SeIn;15;0;15
EMM0SocV;10;0;10
EMM0Soll;15;0;15
EMM0STVR;13;0;13
EMM1D92A;32;0;3
EMM1D92B;32;0;3
EMM1D92C;16;0;2
EMM1V92A;87;0;81
EMM1V92B;83;0;75
EMM1V92C;79;0;71
EMM1V92D;81;0;72
EMM1V92E;87;0;81
EMM1V92F;85;0;79
EMM1V92G;91;0;89
EMM1V92H;9;0;9
EMM2V92A;86;0;76
EMM2V92B;47;0;47
EMM2V92C;1;0;1
EMM3D92A;32;0;11
EMM3JZa1;29;0;18
EMM3JZa2;29;0;17
EMM3JZb;30;0;18
EMM3V92A;81;0;75
EMM3V92B;79;0;70
EMM3V92C;71;0;59
EMM3V92D;71;0;58
EMM3V92E;78;0;61
EMM3V92F;78;0;72
EMM3V92G;1;0;1
EMM4EPa;76;5;53
EMM4SDP;14;0;9
EMT1A;238;3;194
EMT1B;227;10;174
EMT1C;101;3;94
EMT1D;102;4;94
EMT2A;214;4;175
EMT2B;204;8;165
EMT3;77;0;46
EMT4;51;8;43
EMW1DA1;61;1;6
EMW1DA2;38;1;6
EMW1VA1;206;0;131
EMW1VA2;212;1;140
EMW1VB1;214;0;151
EMW1VB2;218;1;155
EMW1VC1;216;1;149
EMW1VC2;209;1;137
EMW1VD1;206;1;129
EMW1VD2;208;1;126
EMW1VE1;207;1;132
EMW1VE2;196;1;116
EMW1VF1;198;1;121
EMW1VF2;200;1;122
EMW1VG1;204;1;123
EMW1VG2;63;0;45
EMW1VH1;23;0;23
EMW1VH2;21;0;21
EMW2DA1;65;0;7
EMW2DA2;65;0;6
EMW2VA1;141;0;95
EMW2VA2;143;0;92
EMW2VB1;140;0;90
EMW2VB2;137;0;85
EMW2VC1;77;0;56
EMW2VC2;77;0;53
EMW2VD1;153;1;107
EMW2VD2;142;0;99
EMW2VE1;154;0;111
EMW2VE2;147;0;102
EMW2VF1;134;0;95
EMW2VF2;136;0;83
EMW2VG1;67;0;40
EMW3DA1;63;0;44
EMW3DA2;31;0;30
EMW3VA1;31;0;15
EMW3VA2;30;0;29
EMW3VB1;59;0;44
EMW3VB2;59;0;40
EMW3VC1;31;0;16
EMW3VC2;30;0;15
EMW3VD1;60;0;44
EMW3VD2;60;0;47
EMW3VE1;60;0;44
EMW3VE2;46;0;33
EMW3VF1;61;0;46
EMW3VF2;30;0;18
EMW4DA1;8;0;8
EMW4DA2;9;0;9
EMW4VA1;9;0;9
EMW4VA2;9;0;9
EMW4VB1;9;0;9
EMW4VB2;1;0;1
EMW4VC1;9;0;9
EMW4VC2;9;0;9
EMW4VD1;9;0;9
EMW4VD2;9;0;9
ENA3;121;10;94
ENA4;38;3;35
EPO1VA;231;3;177
EPO1VB;231;3;177
EPO1VC;233;7;176
EPO1VD;206;4;158
EPO1VE;239;9;190
EPO1VF;240;6;193
EPO1VG;115;0;99
EPO1VH;118;0;101
EPO2VA;194;59;70
EPO2VB;183;51;62
EPO2VC;198;51;83
EPO2VD;198;50;86
EPO2VE;194;49;81
EPO2VF;119;24;51
EPO3VA;77;6;50
EPO3VB;73;7;40
EPO3VC;36;1;21
EPO3VD;39;1;26
EPO4VA;23;0;9
EPO4VB;22;0;8
EPO4VC;4;0;1
EPO4VS;23;0;19
EPS1VA1;118;0;87
EPS1VA2;115;0;81
EPS1VB1;115;0;86
EPS1VB2;128;0;112
EPS1VC1;123;0;94
EPS1VC2;123;0;98
EPS1VD1;56;0;34
EPS1VMA1;92;1;58
EPS1VMA2;95;0;67
EPS1VSA1;86;1;50
EPS1VSA2;94;1;64
EPS1VSB1;42;1;25
ER1A123;92;0;92
ER1B123;102;0;100
ER1C123;98;0;92
ER1D123;101;0;98
ER1MECPO;13;0;13
ER2A123;97;0;97
ER2A456;90;0;89
ER2B123;91;1;82
ER2MECPO;28;0;28
ER2P123;85;0;84
ER3B123;8;0;8
ER3C123;97;2;68
ER3K123;52;2;50
ER3M123;51;2;49
ER3P123;5;0;5
ER3P456;41;1;40
ERCVERG1;31;0;31
ERE1D;7;3;4
ERE1VA;81;1;77
ERE1VB;79;1;77
ERE1VC;78;3;75
ERE1VD;74;4;70
ERE1VE;57;1;55
ERE1VF;54;3;51
ERE1VG;35;1;33
ERE1VH;12;0;12
ERE2D;6;1;5
ERE2VA;92;1;91
ERE2VB;83;2;81
ERE2VC;41;8;33
ERE3D;4;0;4
ERE3VA;37;3;34
ERE3VB;40;4;36
ERE3VC;17;1;16
ERE4VA;34;0;34
ERE4VB;34;0;34
ERE4VC;35;0;35
EROB01;2;0;2
ESB1D;39;10;3
ESB1VA;169;89;79
ESB1VB;168;89;76
ESB1VC;173;89;77
ESB1VD;171;89;79
ESB1VE;171;89;80
ESB1VF;68;21;47
ESB2D;46;0;26
ESB2DDU;23;0;23
ESB2VA;116;20;89
ESB2VB;104;20;75
ESB2VC;88;20;60
ESB2VD;100;20;70
ESB2VE;71;0;68
ESB3D;45;0;29
ESB3DDU;7;0;7
ESB3VA;82;0;67
ESB3VB;74;0;59
ESB3VD;9;0;9
ESB4D;34;0;26
ESB4V;54;0;54
ESB4VA;73;0;72
ESB5V;93;0;65
ESB6VA;3;0;3
ESB6VB;3;0;3
ESE1VA1;169;0;37
ESE1VA2;169;0;40
ESE1VB1;171;0;40
ESE1VB2;170;0;35
ESE1VC1;170;0;39
ESE1VC2;88;0;27
ESE1VD1;170;0;39
ESE1VD2;82;0;17
ESE1VE1;171;0;47
ESE2VA2;58;0;18
ESE2VB1;58;0;23
ESE2VB2;58;0;22
ESE2VD1;58;0;21
ESE2VD2;58;0;18
ESP1DA1;53;1;3
ESP1DDA1;52;0;0
ESP1DDA2;52;0;0
ESP1DDB1;52;0;0
ESP1DDB2;26;0;0
ESP1VA1;193;0;105
ESP1VA2;197;1;120
ESP1VB1;205;1;127
ESP1VB2;200;0;125
ESP1VC1;195;0;109
ESP1VC2;197;1;121
ESP1VD1;198;0;129
ESP1VD2;204;1;134
ESP1VE1;196;0;114
ESP1VE2;200;1;119
ESP1VF1;192;1;112
ESP1VF2;195;1;117
ESP1VG1;198;1;119
ESP1VG2;200;0;131
ESP2DA1;65;0;10
ESP2DDA1;57;0;22
ESP2DDA2;57;0;21
ESP2DDB1;57;0;21
ESP2DDB2;30;0;16
ESP2DDC1;30;0;16
ESP2DDC2;30;0;16
ESP2DDD1;30;0;16
ESP2DDD2;30;0;16
ESP2DDE1;30;0;16
ESP2DDE2;30;0;16
ESP2DDF1;30;0;16
ESP2DDF2;30;0;16
ESP2DDG1;30;0;16
ESP2DDG2;30;0;16
ESP2DDH1;30;0;16
ESP2DDH2;30;0;16
ESP2VA1;151;0;90
ESP2VA2;150;0;89
ESP2VB1;148;0;91
ESP2VB2;147;0;87
ESP2VC1;153;0;91
ESP2VC2;154;0;102
ESP2VD1;150;0;92
ESP2VD2;156;0;100
ESP2VE1;78;0;41
ESP2VE2;153;1;94
ESP2VF1;150;0;85
ESP2VF2;155;0;99
ESP2VG1;27;0;24
ESP2VG2;75;0;49
ESP3DA1;63;0;48
ESP3DDA1;56;0;37
ESP3DDA2;56;0;37
ESP3DDB1;56;0;37
ESP3DDB2;56;0;37
ESP3DDC1;56;0;38
ESP3DDC2;56;0;38
ESP3DDD1;56;0;38
ESP3DDD2;56;0;38
ESP3DDE1;56;0;37
ESP3DDE2;56;0;37
ESP3DDF1;56;0;37
ESP3DDF2;56;0;37
ESP3DDG1;56;0;37
ESP3DDG2;56;0;37
ESP3DDH1;56;0;37
ESP3DDH2;56;0;37
ESP3VA1;60;0;41
ESP3VA2;61;0;52
ESP3VB1;31;0;28
ESP3VB2;37;0;25
ESP3VC1;60;0;50
ESP3VD1;61;0;47
ESP3VD2;59;0;47
ESP3VE1;28;0;26
ESP3VE2;61;0;50
ESP3VF1;61;0;49
ESP3VF2;30;0;19
ESP4DA1;8;0;8
ESP4DDA1;61;0;38
ESP4DDA2;60;0;38
ESP4DDB1;61;0;38
ESP4DDB2;61;0;38
ESP4DDC1;60;0;35
ESP4DDC2;61;0;38
ESP4DDD1;61;0;37
ESP4DDD2;60;0;37
ESP4DDE1;47;0;29
ESP4DDE2;31;0;19
ESP4VA1;9;0;9
ESP4VA2;8;0;8
ESP4VB1;9;0;9
ESP4VB2;1;0;1
ESP4VC1;9;0;9
ESP4VC2;9;0;9
ESP4VD1;8;0;8
ESP4VD2;9;0;9
ESP4VE1;8;0;8
ESP4VE2;9;0;9
ESP4VF1;8;0;8
ESP4VF2;9;0;9
ETB1D;57;0;33
ETB1VA;225;1;175
ETB1VB;230;1;178
ETB1VC;232;1;185
ETB1VD;214;2;164
ETB2D;46;0;35
ETB2VA;118;0;116
ETB2VB;110;0;110
ETB2VC;62;0;59
ETB3D;33;0;17
ETB3VA;55;2;52
ETB3VB;48;2;45
ETB4FY;96;1;71
ETB4V;2;0;2
ETB4VA;6;0;6
ETB4VB;2;0;2
ETB5VA;152;0;110
ETB5VB;157;0;110
ETC1Va;266;1;195
ETC1Vb;266;1;192
ETC1Vc;273;1;193
ETC1Vd;275;1;199
ETC1Ve;272;1;199
ETC1Vf;273;1;200
ETC1Vg;269;1;194
ETC1Vh;268;1;193
ETC1Vi;263;1;188
ETC1Vj;262;1;183
ETC1Vk;13;0;9
ETC1Vl;12;0;10
ETC2VA;140;0;100
ETC2VB;141;0;98
ETC2VC;145;0;105
ETC2VD;148;0;112
ETC2VE;150;0;111
ETC2VF;151;0;115
ETC2VG;146;0;103
ETC2Vh;14;0;12
ETC2VMF1;60;1;48
ETC2VMF2;66;1;55
ETC2VMF3;62;1;51
ETC2VMF4;68;1;61
ETC2VMF5;71;1;52
ETC2VMF6;72;1;44
ETC2VMS1;55;0;42
ETC2VMT1;68;2;55
ETC2VMT2;64;2;51
ETC2VPF1;64;0;53
ETC2VPF2;63;0;46
ETC2VPF3;66;0;47
ETC2VPF4;62;0;46
ETC2VPF5;63;0;44
ETC2VPFa;2;0;2
ETC2VPFb;2;0;2
ETC2VPFc;2;0;2
ETC2VPFd;2;0;2
ETC2VPFe;2;0;2
ETC2VPT1;61;1;41
ETC2VPT2;60;1;41
ETC2VPTa;2;0;2
ETC2VPTb;2;0;2
ETC3st;1;0;1
ETC4Va;5;0;3
ETC4VMFa;54;3;47
ETC4VMFb;52;3;44
ETC4VMFc;55;3;50
ETC4VMFd;53;3;46
ETC4VMSa;40;1;39
ETC4VMTa;49;3;44
ETE1Va;265;1;185
ETE1Vb;269;1;191
ETE1Vc;263;1;184
ETE1Vd;136;0;106
ETE1Ve;45;0;34
ETE1Vf;13;0;10
ETE2Va;137;0;96
ETE2Vb;135;0;91
ETE2Vc;132;0;92
ETE2Vd;68;0;47
ETE2VMF1;66;1;56
ETE2VMF2;70;2;45
ETE2VMS1;57;0;50
ETE2VMT1;65;2;56
ETE2VPF1;61;0;50
ETE2VPF2;63;0;55
ETE2VPFa;3;0;3
ETE2VPFb;3;0;3
ETE2VPT1;61;1;48
ETE2VPTa;3;0;3
ETE4SD;93;1;72
ETE4VSD;55;3;43
ETI1A;152;2;110
ETI1B;140;2;92
ETI1Va;129;1;97
ETI1Vb;131;1;102
ETI2A;113;3;98
ETI2B;110;3;101
ETI2Va;107;6;78
ETI3;74;1;73
ETI3VST;31;0;26
ETN1A;279;8;198
ETN1B;214;1;156
ETN1C;283;1;193
ETN1D;221;1;167
ETN2;130;0;58
ETN2A;123;1;108
ETN2B;133;6;107
ETN4;71;0;68
ETN4A;86;9;68
ETN4B;86;9;68
EVJ1VA;1;0;1
EVJ1VC;43;0;43
EVJ1VD;62;0;62
EVJ1VE;13;0;13
EVJ1VF;13;0;13
EVJ1VG;13;0;13
EVJ1VJ;14;0;14
EVJ1VK;8;0;8
EVM1A;25;12;11
EVM1B;24;12;10
EVM1VA;56;14;35
EVM1VB;47;13;27
EVM2A;17;9;8
EVM2B;17;9;8
EVM2VA;38;5;32
EVM2VB;38;6;32
EVM4A;3;0;3
EVM4VM;3;0;3
EVP1VA;245;28;162
EVP1VB;244;28;164
EVP1VC;246;29;160
EVP1VD;246;29;160
EVP1VE;252;28;168
EVP1VF;250;29;166
EVP1VG;141;29;80
EVP1VGTA;238;3;171
EVP1VGTB;243;3;179
EVP1VGTC;243;3;168
EVP1VGTD;241;3;168
EVP1VGTE;120;0;87
EVP1VGTF;1;0;1
EVP1VH;250;29;170
EVP1VI;251;28;174
EVP1VJ;242;28;158
EVP1VK;104;0;83
EVP1VL;105;0;88
EVP1VM;105;0;86
EVP1VN;103;0;88
EVP1VO;105;0;88
EVP1VP;104;0;86
EVP1VQ;111;0;92
EVP1VR;11;0;5
EVP1VS;18;7;5
EVP2BSA;20;8;4
EVP2BSB;12;0;4
EVP2BSC;13;0;5
EVP2BSD;7;0;0
EVP2VA;33;0;26
EVP2VB;33;0;26
EVP2VBSA;9;0;6
EVP2VBSB;9;0;6
EVP2VBSC;9;0;6
EVP2VBSD;9;0;6
EVP2VBSE;8;0;5
EVP2VBSF;8;0;5
EVP2VC;68;1;56
EVP2VD;49;1;36
EVP2VE;51;1;37
EVP2VF;111;2;87
EVP2VG;90;2;72
EVP2VGTA;218;30;96
EVP2VGTB;210;26;103
EVP2VGTC;205;26;118
EVP2VGTD;109;11;53
EVP2VH;40;1;32
EVP2VI;83;1;71
EVP2VJ;30;1;25
EVP2VZBE;35;0;24
EVP2VZBF;35;0;22
EVP2VZBG;67;0;53
EVP2VZBH;68;0;56
EVP2VZBI;67;0;56
EVP2VZBJ;65;0;54
EVP2VZBK;34;0;28
EVP2VZBL;34;0;28
EVP2VZBM;35;0;28
EVP2VZOA;37;0;29
EVP2VZOB;36;0;26
EVP2VZOC;37;0;27
EVP2VZOD;37;0;28
EVP2VZOE;70;0;54
EVP2VZOF;71;0;60
EVP2VZOG;37;0;29
EVP2VZOH;37;0;29
EVP2VZOI;37;0;31
EVP2VZOJ;38;0;30
EVP2VZOK;38;0;30
EVP2VZOL;38;0;28
EVP2VZOM;38;0;28
EVP2VZRA;34;0;25
EVP2VZRB;35;0;26
EVP2VZRC;34;0;27
EVP2VZRD;35;0;25
EVP2ZRE;38;0;21
EVP2ZRF;38;0;23
EVP2ZRG;39;0;25
EVP2ZRH;38;0;23
EVP2ZRI;39;0;22
EVP2ZRJ;36;0;15
EVP2ZRK;38;0;21
EVP2ZRL;39;0;21
EVP2ZRM;38;0;21
EVP2ZRN;37;0;21
EVP3UA;122;0;98
EVP3VA;121;0;97
EVP3VB;120;0;96
EVP3VC;121;0;97
EVP3VD;122;0;98
EVP3VE;124;0;100
EVP3VF;122;0;98
EVP3VFA;66;0;51
EVP3VFB;68;0;53
EVP3VG;123;0;100
EVP3VGTA;99;0;74
EVP3VGTB;106;0;42
EVP3VGTC;90;0;65
EVP3VGTD;47;0;30
EVP3VH;122;0;98
EVP3VI;54;0;46
EVP4DA;23;0;22
EVP4UA;121;0;97
EVP4UB;68;0;53
EVP4UC;68;0;53
EVP4VA;120;0;96
EVP4VB;121;0;97
EVP4VC;121;0;97
EVP4VD;54;0;45
EVP4VE;121;0;97
EVP4VF;122;0;99
EVP4VFA;119;0;96
EVP4VFB;67;0;51
EVP4VG;124;0;101
EVP4VGTA;34;2;32
EVP4VGTB;17;2;15
EVP4VGTC;13;0;13
EVP4VGTD;13;0;13
EVP4VGTE;13;0;13
EVP4VH;68;0;53
EVP5UA;19;0;15
EVP5UC;17;0;13
EVP5VA;110;0;86
EVP5VB;124;0;100
EVP5VC;65;0;49
EVP5VFa;52;0;45
EWB1A;205;5;192
EWB1AD;205;5;193
EWB1AV;8;0;8
EWB1B;183;5;162
EWB1C;198;12;177
EWB1D;174;5;148
EWB1F;87;3;84
EWB1FS;94;3;91
EWB1IPD;193;21;109
EWB2A;175;4;169
EWB2AD;40;2;37
EWB2B;172;4;165
EWB2C;173;4;151
EWB2D;51;2;43
EWB2F;155;4;137
EWB2IPD;133;4;128
EWB3AV;1;0;1
EWB4IPD;109;6;94
EXD0E;4;0;4
EXD0WNT;4;0;4
EXD0WT;4;0;4
EXR0EROC;89;0;26
EXR1A123;95;0;94
EXR1B123;98;0;98
EXR1BBL;122;91;31
EXR1C123;93;0;88
EXR1D123;94;0;91
EXR1E123;57;0;56
EXR1MECP;28;20;0
EXR2A123;94;0;93
EXR2A456;85;0;84
EXR2B123;95;0;94
EXR2MECP;23;17;0
EXR2P123;87;1;84
EXR3B123;16;0;16
EXR3C123;57;0;57
EXR3K123;66;0;66
EXR3M123;58;0;58
EXR3P123;1;0;1
EXR3P456;64;2;62
EXR4P123;26;0;26
EXV0BC0A;32;0;32
EXV1VA;64;0;64
EXV1VB;100;0;100
EXV1VC;32;0;32
EXV1VD;90;0;90
EXV1VE;27;0;27
EXV1VF;26;0;26
EXV1VG;26;0;26
EXV1VH;27;0;27
EXV1VJ;13;0;13
EXV1VK;74;0;74
EXV1VL;8;0;8
EXV1VM;8;0;8
EXV1VN;20;0;20
EXV1VO;23;0;23
EXV1VP;15;0;15
EXV1VQ;16;0;16
EXV1VS;42;0;42
FSIP1;75;2;55
FSIP2;75;2;56
FSNL1;73;5;64
FSNL2;74;5;67
FSNL3;74;5;62
FSNL4;73;5;60
HBIE1;81;7;56
HBIE2;84;13;58
LEDWBIPO;31;1;30
MACZO;56;3;41
MAEOP;36;0;35
MAKL;8;0;8
MALON1;15;11;4
MAOR;26;5;19
MAPE1;22;2;18
MAPE2;20;2;16
MARGEE;139;0;131
MBHESa;81;0;81
MBHESb;80;0;79
MBHESc;80;0;80
MBHESd;80;0;80
MBHESe;81;0;81
MBHESf;81;0;80
MBHESg;40;0;40
MBIDA;36;0;32
MBIME;14;14;0
MBRTE1;64;2;48
MCOSC1EA;168;17;146
MCOSC1EB;83;7;73
MCOWE1;106;1;66
MCOWE2;104;0;65
MCPO1E;46;0;46
MCRIP;15;14;1
MCSERa;80;0;79
MCSERb;80;0;79
MDULE;6;0;6
MEALG;131;9;112
MEES;84;33;49
MEXPD;134;40;94
MFAMB;31;0;31
MFAMBD;12;0;12
MFAMBE;8;7;1
MFMDT;21;0;21
MFMMA4D;66;0;45
MFMMA4E;121;0;79
MFYVE;5;0;5
MGESC;63;0;63
MGGZH1A1;57;2;12
MGGZH1A2;62;2;30
MHEDEN1Z;25;0;25
MHETEa;31;1;22
MHONP;7;0;7
MHRAC4;1;0;1
MIDM01;73;5;61
MINBP;34;7;27
MINDED;51;8;43
MINDER;6;4;2
MINDM;42;21;21
MINTWE;90;0;70
MIOR;97;9;56
MISHVa1;37;0;18
MISHVa2;23;0;9
MITMA1D;131;0;105
MITMA1E;154;7;123
MJZA1;73;0;15
MJZA2;52;0;9
MKeuze6;1;0;1
MKUJHA1;58;0;17
MKUJHA2;56;0;19
MKUJHB1;59;0;19
MKUJHB2;59;0;19
MKUJHC1;29;0;18
MKUJHC2;7;0;7
MKuM1;52;0;23
MKuM2;30;0;19
MLAWS;4;0;4
MLEIN;13;12;1
MLGVT;49;9;34
MLOAE1;29;1;21
MLOAE2;14;0;0
MLOAR1;18;1;14
MLOAR2;8;0;1
MLSWb;37;0;24
MM3JZa;30;0;24
MM3JZb;30;0;21
MM4JZa;8;0;8
MM4JZb;8;0;8
MMEMHa1;59;4;3
MMEMHa2;32;2;4
MMEVE;51;8;43
MMEVEa;110;4;104
MMEVEk;173;6;166
MMKBA4;84;0;77
MMUSCIA;116;0;98
MMUSCIB;6;0;6
MMUSKEA;219;0;174
MMUSKEB;125;0;98
MNILE;15;0;8
MONDN;107;20;81
MONST1;81;0;80
MOPTR;36;0;20
MOPTR1;94;0;66
MOPTR8;49;0;21
MOWZW;111;4;43
MPDVL;8;0;8
MPEOR1;29;0;20
MPOBE;2;0;2
MPOSA;4;0;4
MPOVL1;128;9;97
MPOVL2;130;6;96
MPOVL3;28;0;21
MPPR;14;0;5
MPREP1;131;1;103
MPREP2;68;0;53
MRPCA;229;2;176
MRSVE;68;10;50
MSCMA;40;7;5
MSECUa;80;0;77
MSECUb;80;0;77
MSECUc;80;0;77
MSECUd;75;0;71
MSOPSa1;58;7;7
MSOPSa2;57;6;7
MSPIRa1;162;4;114
MSPIRa2;164;4;122
MSPMA;5;0;5
MSUIB;56;9;35
MSVO;15;11;2
MVPNP;14;0;5
MWBA;59;0;56
MWIGK1;29;0;21
MWIGKa2;22;0;8
MZMIA;15;0;15
