teacher;"scheduled days";"days with too many contact hours";"late nights with too busy next mornings"
EXTERN;487;308;2
"EXTERNE DOCENT";247;94;1
M7640015;135;0;0
M7640024;69;5;0
M7640064;3;0;0
M7640074;16;0;0
M7640124;405;38;2
M7640158;220;5;0
M7640159;121;0;0
M7640167;485;64;0
M7640185;129;0;0
M7640197;175;17;0
M7640198;166;41;0
M7640201;454;70;1
M7640211;22;0;0
M7640216;30;0;0
M7640227;445;35;2
M7640235;331;16;0
M7640249;269;5;0
M7640252;279;17;0
M7640269;239;79;0
M7640283;66;0;0
M7640309;1;0;0
M7640326;14;0;0
M7640341;194;19;0
M7640365;18;0;0
M7640367;581;209;2
M7640377;4;0;0
M7640399;179;3;0
M7640400;632;276;5
M7640406;54;0;0
M7640411;155;5;0
M7640432;223;1;0
M7640439;585;41;0
M7640444;1;0;0
M7640445;438;42;1
M7640452;604;215;6
M7640454;27;0;0
M7640476;189;0;0
M7640491;100;18;0
M7640499;43;0;0
M7640501;80;0;0
M7640502;163;48;0
M7640504;34;0;0
M7640524;318;57;0
M7640567;21;0;0
M7640577;3;0;0
M7640608;71;0;0
M7640630;392;15;0
M7640634;183;10;0
M7640635;104;36;0
M7640640;94;9;0
M7640642;39;0;0
M7640644;78;1;0
M7640662;42;1;0
M7640668;2;0;0
M7640674;5;0;0
M7640694;57;0;0
M7640699;10;0;0
M7640703;17;0;0
M7640707;14;0;0
M7640714;155;2;0
M7640721;77;0;0
M7640732;10;0;0
M7640743;2;0;0
M7640746;27;0;0
M7640753;57;0;0
M7640757;24;0;0
M7640765;145;1;0
M7640777;19;0;0
M7640779;12;0;0
M7640787;244;29;0
M7640798;178;20;1
M7640803;107;1;0
M7640809;99;40;0
M7640831;26;0;0
M7640834;422;31;0
M7640852;10;0;0
M7640853;449;78;1
M7640859;626;163;4
M7640861;346;79;0
M7640869;390;52;1
M7640870;265;20;0
M7640874;152;9;0
M7640887;157;5;0
M7640904;143;39;0
M7640905;398;63;0
M7640906;309;98;0
M7640916;486;94;0
M7640927;61;0;0
M7640929;98;1;0
M7640935;2;0;0
M7640943;180;6;0
M7640945;142;3;0
M7640954;64;0;0
M7640961;333;21;0
M7640965;285;15;0
M7640977;301;82;0
M7640993;93;1;0
M7640999;198;1;0
M7641003;25;0;0
M7641004;564;86;1
M7641010;30;0;0
M7641013;591;190;5
M7641014;646;221;5
M7641015;64;0;0
M7641017;23;0;0
M7641036;113;29;0
M7641038;305;20;0
M7641039;11;0;0
M7641041;346;95;0
M7641042;163;1;0
M7641049;48;0;0
M7641054;234;38;0
M7641058;478;92;0
M7641059;206;42;0
M7641065;38;0;0
M7641066;1;0;0
M7641078;333;52;0
M7641079;135;0;0
M7641081;20;0;0
M7641083;49;0;0
M7641084;190;16;1
M7641092;22;0;0
M7641098;47;0;0
M7641100;596;193;1
M7641102;338;66;2
M7641107;663;306;3
M7641109;91;13;0
M7641110;25;0;0
M7641124;515;169;0
M7641129;392;12;0
M7641134;72;0;0
M7641136;68;1;0
M7641139;63;0;0
M7641147;571;128;0
M7641163;735;396;16
M7641168;36;0;0
M7641171;360;124;0
M7641175;80;0;0
M7641181;36;1;0
M7641185;42;0;0
M7641199;136;3;0
M7641211;231;8;0
M7641214;51;0;0
M7641227;191;2;0
M7641232;173;11;0
M7641233;269;13;0
M7641239;227;0;0
M7641240;195;10;0
M7641244;623;305;6
M7641270;393;113;0
M7641281;449;38;1
M7641300;185;47;0
M7641322;4;0;0
M7641333;81;0;0
M7641345;340;72;0
M7641349;4;0;0
M7641359;216;29;1
M7641362;182;0;0
M7641370;145;1;0
M7641378;102;18;0
M7641414;6;0;0
M7641455;26;1;0
M7641462;654;232;5
M7641466;78;3;0
M7641488;191;15;0
M7641519;220;74;0
M7641525;348;89;0
M7641576;203;3;0
M7641586;435;109;3
M7641643;63;2;0
M7641655;332;45;0
M7641679;75;0;0
M7641695;38;0;0
M7641696;65;0;0
M7641720;422;76;0
M7641741;321;29;0
M7641774;407;61;0
M7641837;209;3;0
M7641843;103;0;0
M7641909;114;1;0
M7641910;46;0;0
M7641912;114;19;0
M7641915;177;16;0
M7641928;545;269;2
M7641930;432;136;1
M7641940;140;1;0
M7641944;297;4;0
M7641953;225;10;0
M7641956;45;1;0
M7641964;24;0;0
M7641966;40;0;0
M7641971;495;26;0
M7641985;214;10;0
M7641988;360;65;1
M7641990;20;0;0
M7642003;164;4;0
M7642010;41;0;0
M7642013;106;9;1
M7642022;105;7;0
M7642031;165;24;0
M7642036;265;4;0
M7642060;100;0;0
M7642065;571;244;2
M7642074;77;10;0
M7642078;154;6;0
M7642085;361;14;0
M7642086;347;56;0
M7642088;326;16;0
M7642103;71;0;0
M7642106;228;4;0
M7642130;486;97;2
M7642142;101;11;0
M7642151;6;0;0
M7642156;37;0;0
M7642159;199;4;0
M7642180;25;0;0
M7642186;505;84;3
M7642213;318;60;0
M7642220;241;26;0
M7642225;390;38;0
M7642230;54;0;0
M7642268;90;0;0
M7642278;139;0;0
M7642305;74;0;0
M7642319;98;1;0
M7642342;29;0;0
M7642351;383;51;0
M7642352;70;0;0
M7642411;26;0;0
M7642434;183;21;1
M7642468;32;0;0
M7642483;145;0;0
M7642490;669;341;5
M7642504;260;26;0
M7642512;39;16;0
M7642527;39;0;0
M7642577;49;11;0
M7642603;20;0;0
M7642641;71;1;0
M7642648;256;4;0
M7642650;238;8;0
M7642681;210;3;0
M7642707;166;4;0
M7642708;461;88;0
M7642709;301;22;1
M7642731;333;91;0
M7642736;178;6;0
M7642740;136;1;0
M7642763;253;10;0
M7642776;5;0;0
M7642835;419;170;0
M7642857;76;0;0
M7642863;1;0;0
M7642902;256;15;0
M7642907;231;29;0
M7642908;245;18;0
M7642931;298;40;0
M7642940;1;0;0
M7642944;20;0;0
M7642980;168;2;0
M7643001;151;2;0
M7643013;41;0;0
M7643039;144;0;0
M7643041;80;0;0
M7643058;680;283;5
M7643098;4;0;0
M7643179;146;13;0
M7643206;401;79;0
M7643214;371;28;0
M7643229;394;94;0
M7643236;113;0;0
M7643241;522;181;0
M7643242;234;68;0
M7643247;408;17;0
M7643268;154;2;0
M7643270;391;17;0
M7643281;540;78;1
M7643291;410;127;0
M7643294;367;76;0
M7643301;545;167;5
M7643342;348;10;2
M7643345;3;0;0
M7643357;135;0;0
M7643368;305;38;1
M7643373;393;34;0
M7643393;341;30;0
M7643394;283;18;0
M7643419;28;0;0
M7643422;46;1;0
M7643450;431;37;0
M7643472;236;20;0
M7643513;101;6;0
M7643516;14;0;0
M7643543;29;0;0
M7643546;40;0;0
M7643547;18;0;0
M7643549;36;0;0
M7643552;165;0;0
M7643591;8;0;0
M7643613;16;0;0
M7643650;325;65;0
M7643656;27;0;0
M7643723;385;21;0
M7643724;321;61;2
M7643816;90;2;0
M7643827;64;0;0
M7643945;64;1;0
M7643956;374;41;0
M7643977;181;0;0
M7643983;350;25;0
M7644010;202;36;0
M7644054;179;1;0
M7644057;42;1;0
M7644064;373;22;1
M7644067;2;0;0
M7644069;119;2;0
M7644079;231;21;1
M7644122;235;4;0
M7644135;128;0;0
M7644141;186;2;0
M7644151;163;0;0
M7644172;1;0;0
M7644216;253;5;0
M7644253;86;0;0
M7644261;80;0;0
M7644266;5;0;0
M7644270;272;5;0
M7644272;40;0;0
M7644358;15;0;0
M7644386;4;0;0
M7644387;526;64;0
M7644398;147;1;0
M7644406;22;0;0
M7644414;365;10;0
M7644431;26;0;0
M7644473;308;34;0
M7644511;162;4;0
M7644520;11;0;0
M7644598;70;0;0
M7644645;192;1;1
M7644653;95;1;0
M7644685;177;1;0
M7644693;392;56;0
M7644722;1;0;0
M7644747;264;69;0
M7644779;131;0;0
M7644790;25;0;0
M7645017;10;0;0
M7645056;195;4;0
M7645130;234;1;0
M7645283;142;2;0
M7645289;527;93;3
M7645316;161;0;0
M7645325;304;27;0
M7645505;51;8;0
M7645515;6;0;0
M7645632;173;0;0
M7645648;182;9;0
M7645839;187;1;0
M7645900;105;0;0
M7645950;8;0;0
M7645955;36;0;0
M7645967;314;119;0
M7646044;538;119;0
M7646062;23;0;0
M7646064;298;31;1
M7646085;8;0;0
M7646100;21;0;0
M7646101;376;34;1
M7646125;680;262;6
M7646183;142;1;0
M7646215;316;4;0
M7646268;349;27;0
M7646288;55;0;0
M7646339;72;0;0
M7646349;171;11;0
M7646351;71;2;0
M7646374;106;0;0
M7646387;8;0;0
M7646389;279;36;0
M7646390;101;0;0
M7646440;240;10;2
M7646441;62;1;0
M7646446;223;23;0
M7646500;60;0;0
M7646543;97;5;0
M7646554;13;0;0
M7646563;251;12;0
M7646598;99;0;0
M7646604;143;11;0
M7646660;120;26;0
M7646667;583;134;0
M7646684;427;112;1
M7646687;392;50;0
M7646701;131;7;0
M7646703;492;87;0
M7646749;198;2;0
M7646848;463;134;2
M7646898;426;103;1
M7646927;228;5;0
M7646963;12;0;0
M7646976;44;0;0
M7647031;13;0;0
M7647056;585;94;7
M7647083;257;4;0
M7647118;109;2;0
M7647119;215;3;0
M7647139;324;6;0
M7647145;193;0;0
M7647170;436;110;0
M7647181;81;0;0
M7647221;538;119;0
M7647230;170;0;0
M7647233;483;16;0
M7647239;248;39;0
M7647251;35;0;0
M7647294;6;0;0
M7647326;84;0;0
M7647333;18;0;0
M7647335;6;0;0
M7647338;5;0;0
M7647354;495;201;4
M7647376;68;0;0
M7647383;199;57;0
M7647395;432;102;1
M7647415;384;104;0
M7647418;28;0;0
M7647473;339;70;0
M7647476;352;83;0
M7647484;37;0;0
M7647491;525;87;1
M7647519;36;0;0
M7647563;157;0;0
M7647598;61;9;0
M7647645;116;1;0
M7647830;59;0;0
M7647839;103;0;0
M7647908;132;1;0
M7647924;91;0;0
M7647973;4;0;0
M7648006;79;0;0
M7648048;307;73;0
M7648086;102;1;0
M7648180;532;133;1
M7648186;50;0;0
M7648197;87;2;0
M7648267;306;27;0
M7648290;39;0;0
M7648295;59;0;0
M7648308;333;23;0
M7648330;403;72;0
M7648338;55;8;0
M7648397;159;5;0
M7648564;234;56;0
M7648569;75;2;0
M7648604;204;4;0
M7648616;35;0;0
M7648624;164;7;0
M7648658;149;2;0
M7648665;158;22;0
M7648691;203;23;0
M7648732;195;46;0
M7648843;291;2;0
M7648865;303;41;1
M7648877;335;12;0
M7648910;196;8;0
M7648958;173;42;1
M7649046;212;12;0
M7649200;39;0;0
M7649248;219;35;0
M7649262;190;1;0
M7649437;101;6;0
M7649450;60;0;0
M7649481;480;67;4
M7649493;473;88;3
M7649500;63;0;0
M7649501;55;0;0
M7649502;53;3;0
M7649504;71;15;0
M7649508;70;0;0
M7649510;95;1;0
M7649594;460;136;0
M7649607;15;0;0
M7649622;346;29;0
M7660017;7;0;0
M7660070;59;0;0
M7660077;63;0;0
M7660098;16;0;0
M7660099;280;39;0
M7660100;262;6;0
M7660111;88;1;0
M7660214;253;19;0
M7660253;347;105;1
M7660319;129;4;0
M7660320;60;1;0
M7660347;8;0;0
M7660349;37;2;0
M7660404;297;75;0
M7660424;208;58;3
M7660479;51;1;0
M7660482;36;1;0
M7660536;38;5;0
M7660613;29;3;0
M7660620;35;3;0
M7660656;48;0;0
M7660676;41;0;0
M7660722;14;0;0
M7660724;14;0;0
M7660742;75;2;0
M7660745;4;1;0
M7660764;4;0;0
M7660845;10;0;0
M7660846;17;0;0
M7660860;3;0;0
M7660871;222;18;0
M7660895;33;0;0
M7660924;96;13;0
M7660962;72;24;0
M7661071;18;1;0
M7661166;106;6;0
M7661167;4;0;0
M7661181;16;0;0
M7661299;4;0;0
M7661304;131;24;0
M7661334;42;2;0
M7661339;305;58;1
M7661346;1;0;0
M7661358;52;1;0
M7661361;9;0;0
M7661484;51;1;0
M7661509;45;1;0
M7661545;15;0;0
M7661588;28;0;0
M7661656;29;2;0
M7661669;107;5;0
M7661690;5;0;0
M7661710;37;0;0
M7661754;60;9;0
M7661760;26;0;0
M7661799;187;0;0
M7661826;147;41;0
M7661833;8;0;0
M7661849;107;30;0
M7661875;40;0;0
M7661931;37;3;0
M7661963;5;0;0
M7661967;5;0;0
M7662020;20;0;0
M7662054;48;1;0
M7662163;55;2;0
M7662193;18;0;0
M7662197;113;7;0
M7662203;120;6;0
M7662266;22;0;0
M7662285;107;4;0
M7662288;43;1;0
M7662293;21;0;0
M7662294;62;8;0
M7662335;12;0;0
M7662360;162;58;0
M7662375;2;0;0
M7662385;164;88;1
M7662416;33;0;0
M7662428;205;80;0
M7662441;32;5;0
M7662516;4;0;0
M7662538;24;1;0
M7662544;111;10;0
M7662599;42;0;0
M7662673;69;15;0
M7662823;1;0;0
M7662842;3;0;0
M7662899;74;1;0
M7662954;56;5;0
M7662998;26;0;0
M7663027;98;25;0
M7663332;42;3;0
M7663404;16;0;0
M7663460;11;0;0
M7663524;8;0;0
M7665010;119;0;0
M7665046;374;79;0
M7665047;6;0;0
M7665115;28;0;0
M7665193;25;2;0
M7665207;105;1;0
M7665373;19;0;0
M7665445;2;0;0
M7665471;482;77;3
M7665495;383;52;1
M7665509;114;0;0
M7665520;291;34;0
M7665552;18;0;0
M7665573;12;0;0
M7665579;61;0;0
M7665581;43;0;0
M7665589;176;4;0
M7665661;15;0;0
M7680005;35;0;0
M7680053;10;0;0
M7680146;357;85;0
M7680308;143;3;0
M7680348;135;0;0
M7680394;349;79;0
M7680401;6;0;0
M7680470;288;36;0
M7680523;153;9;0
M7680576;86;0;0
M7680577;93;0;0
M7680734;2;0;0
M7680839;35;0;0
M7680913;140;19;0
M7680975;100;0;0
M7680998;53;0;0
M7681030;194;3;0
M7681079;166;10;0
M7681127;353;30;0
M7681157;11;0;0
M7681158;54;0;0
M7681210;184;2;0
M7681216;363;26;1
M7681230;68;1;0
M7681246;468;80;1
M7681257;369;47;1
M7681336;172;0;0
M7681343;418;55;1
M7681441;133;0;0
M7681450;315;61;0
M7681469;522;233;1
M7681595;221;3;0
M7681614;277;51;0
M7681627;247;10;1
M7681718;255;14;0
M7681730;43;1;0
M7681740;167;0;0
M7681776;205;60;0
M7681802;4;0;0
M7681870;254;9;0
M7681879;21;0;0
M7681891;198;32;0
M7681901;156;35;0
M7681940;120;0;0
M7681951;78;30;0
M7681981;319;18;1
M7681984;114;0;0
M7682179;232;30;0
M7682191;37;1;0
M7682358;351;55;0
M7682383;303;4;0
M7682553;206;42;0
M7682708;514;97;2
M7682743;205;20;0
M7682800;74;2;0
M7682816;259;37;0
M7682843;56;0;0
M7682866;207;9;0
M7682870;202;44;0
M7682950;2;0;0
M7682958;285;6;0
M7683049;45;4;0
M7683058;528;64;0
M7683072;31;0;0
M7683108;136;0;0
M7683142;188;24;0
M7683226;17;0;0
M7683237;38;13;0
M7683239;53;0;0
M7683298;286;21;0
M7683304;27;0;0
M7683338;30;0;0
M7683424;143;5;0
M7683447;167;79;0
M7683471;46;1;0
M7683472;393;85;0
M7683481;55;8;0
M7683482;91;23;0
M7683492;211;10;0
M7683494;26;0;0
M7683507;5;0;0
M7683557;10;0;0
M7683652;345;33;2
M7683670;121;0;0
M7683678;327;92;0
M7683723;21;0;0
M7683762;18;0;0
M7683807;201;5;0
M7683918;18;0;0
M7683920;11;0;0
M7683948;47;8;0
M7683989;198;12;0
M7684157;233;37;0
M7684185;10;0;0
M7684360;3;0;0
M7684381;281;1;0
M7684401;1;0;0
M7684417;26;0;0
M7684471;539;57;0
M7684542;53;3;0
M7684566;41;1;0
M7684686;2;0;0
M7684697;42;0;0
M7684711;8;0;0
M7684783;148;13;0
M7684796;352;79;1
M7684906;8;0;0
M7685015;117;0;0
M7685061;8;0;0
M7685083;24;0;0
M7685152;57;1;0
M7685226;265;34;0
M7685240;4;0;0
M7685370;20;0;0
M7685394;123;61;0
M7685423;282;65;0
M7685429;9;0;0
M7685437;140;2;0
M7685498;3;0;0
M7685514;33;0;0
M7685520;40;6;0
M7685556;38;0;0
M7685560;74;1;0
M7685572;2;0;0
M7685576;446;73;0
M7685578;14;0;0
M7685594;235;83;0
M7685621;74;1;0
M7685630;18;1;0
M7685642;2;0;0
M7685686;100;30;0
M7685735;14;0;0
M7685750;21;0;0
M7685768;312;60;1
M7685803;365;43;0
M7685857;15;0;0
M7685891;411;204;0
M7685944;62;1;0
M7686013;34;2;0
M7686051;141;0;0
M7686055;30;1;0
M7686176;85;1;0
M7686199;257;26;0
M7686213;64;0;0
M7686415;100;2;0
M7686441;600;166;3
M7686480;262;29;0
M7686527;72;1;0
M7686530;460;145;0
M7686539;46;0;0
M7686543;29;0;0
M7686546;3;0;0
M7686587;352;84;0
M7686610;174;34;0
M7686618;309;59;0
M7686653;33;2;0
M7686667;44;3;0
M7686723;158;3;1
M7686743;44;1;0
M7686788;80;2;0
M7686799;276;27;0
M7686827;98;2;0
M7686844;47;0;0
M7686943;268;120;0
M7686978;150;1;0
M7687008;368;51;0
M7687014;2;0;0
M7687015;89;0;0
M7687024;28;0;0
M7687052;2;0;0
M7687053;2;0;0
M7687063;23;0;0
M7687078;1;0;0
M7687086;248;13;1
M7687097;1;0;0
M7687124;33;1;0
M7687132;39;0;0
M7687133;11;0;0
M7687154;252;53;3
M7687163;187;3;0
M7687168;585;141;5
M7687214;1;0;0
M7687235;228;1;0
M7687239;333;11;0
M7687297;50;0;0
M7687306;74;0;0
M7687311;131;10;0
M7687332;63;0;0
M7687355;452;58;0
M7687383;292;13;0
M7687386;139;7;0
M7687417;272;1;0
M7687456;93;12;0
M7687466;253;30;0
M7687532;100;4;0
M7687535;150;19;0
M7687560;133;25;0
M7687594;79;26;0
M7687601;200;17;0
M7687612;258;77;0
M7687632;63;0;0
M7687636;8;0;0
M7687691;146;10;1
M7687713;32;1;0
M7687794;248;45;0
M7687808;34;0;0
M7687811;6;0;0
M7687836;340;57;1
M7687889;1;1;0
M7687929;119;0;0
M7687998;42;0;0
M7687999;232;7;0
M7688008;420;78;1
M7688011;9;0;0
M7688040;26;0;0
M7688041;50;33;0
M7688058;145;8;0
M7688073;155;1;0
M7688095;247;1;0
M7688100;253;9;0
M7688126;24;0;0
M7688222;2;0;0
M7688235;3;0;0
M7688239;2;0;0
M7688253;19;0;0
M7688264;3;0;0
M7688305;54;0;0
M7688348;239;11;0
M7688349;65;0;0
M7688357;347;112;3
M7688367;16;0;0
M7688370;10;0;0
M7688381;66;0;0
M7688393;8;0;0
M7688447;450;245;0
M7688482;197;4;0
M7688504;29;0;0
M7688530;3;0;0
M7688543;351;22;0
M7688549;214;56;0
M7688558;80;4;0
M7688585;528;74;0
M7688589;257;59;0
M7688619;13;0;0
M7688659;4;0;0
M7688680;443;47;0
M7688716;33;0;0
M7688748;110;5;0
M7688749;342;13;0
M7688759;139;6;0
M7688792;160;6;0
M7688863;459;117;3
M7688895;73;0;0
M7688900;65;7;0
M7688923;12;0;0
M7688961;272;15;0
M7688973;369;97;4
M7688987;149;2;0
M7689021;74;9;0
M7689029;16;0;0
M7689037;188;7;0
M7689079;165;25;0
M7689104;140;2;0
M7689126;50;8;0
M7689132;37;0;0
M7689139;161;5;0
M7689147;134;1;0
M7689175;308;69;0
M7689194;305;47;0
M7689286;131;0;0
M7689341;94;0;0
M7689397;19;0;0
M7689425;209;7;0
M7689431;188;0;0
M7689450;182;10;0
M7689451;310;36;0
M7689470;530;124;0
M7689504;86;0;0
M7689539;48;0;0
M7689564;1;0;0
M7689599;71;0;0
M7689628;126;2;0
M7689637;74;1;0
M7689758;11;0;0
M7689765;72;0;0
M7689774;57;1;0
M7689809;1;1;0
M7689847;107;1;0
M7689856;72;0;0
M7689871;83;5;0
M7689878;42;0;0
M7689880;36;0;0
M7689882;42;0;0
M7689921;68;0;0
M7689924;26;0;0
M7689957;72;0;0
M7689980;9;0;0
M7689989;13;0;0
M7689993;87;2;0
M7690041;409;39;0
M7690059;3;0;0
M7690064;84;0;0
M7690073;61;12;0
M7690091;107;7;0
M7690145;103;0;0
M7690163;485;122;2
M7690164;80;1;0
M7690171;36;0;0
M7690172;201;2;0
M7690190;49;17;0
M7690234;26;0;0
M7690252;223;30;0
M7690293;2;0;0
M7690301;10;0;0
M7690314;127;3;0
M7690349;300;4;0
M7691551;11;0;0
M7691556;116;1;0
M7691579;4;0;0
M7691620;54;0;0
M7691633;49;0;0
M7691661;55;8;0
M7691697;16;0;0
M7691722;114;1;0
M7691850;286;74;1
M7691908;15;0;0
M7691934;55;0;0
M7691944;21;0;0
M7691945;10;0;0
M7691959;74;29;0
M7692019;18;0;0
M7692029;59;0;0
M7692038;343;5;0
M7692040;204;7;0
M7692048;213;0;0
M7692051;38;0;0
M7692058;14;0;0
M7692112;6;0;0
M7692138;124;4;0
M7692144;195;1;0
M7692168;115;0;0
M7692184;172;5;0
M7692187;253;28;0
M7692191;84;2;0
M7692200;38;0;0
M7692216;16;0;0
M7692228;60;0;0
M7692258;66;0;0
M7692303;13;0;0
M7692334;160;23;0
M7692342;154;24;0
M7692351;42;0;0
M7692387;631;199;4
M7692392;220;74;0
M7692396;89;0;0
M7692397;227;25;0
M7692419;305;17;0
M7692443;71;1;0
M7692473;17;0;0
M7692501;252;44;0
M7692518;67;18;0
M7692537;4;0;0
M7692541;48;0;0
M7692548;271;5;1
M7692560;4;0;0
M7692562;11;0;0
M7692601;8;0;0
M7692618;435;103;0
M7692763;53;3;0
M7692766;427;80;0
M7692781;44;0;0
M7692827;67;1;0
M7692850;94;0;0
M7692892;17;0;0
M7692898;7;1;0
M7692909;4;0;0
M7692915;2;0;0
M7692975;68;0;0
M7693007;97;1;0
M7693008;115;0;0
M7693023;87;1;0
M7693085;2;0;0
M7693143;33;0;0
M7693166;36;0;0
M7693169;51;0;0
M7693257;326;22;0
M7693278;47;0;0
M7693283;166;4;0
M7693295;40;0;0
M7693322;95;1;0
M7693381;5;0;0
M7693430;191;0;0
M7693506;103;2;0
M7693524;8;0;0
M7693531;2;0;0
M7693588;8;0;0
M7693620;4;0;0
M7693636;235;57;0
M7693645;12;0;0
M7693661;27;1;0
M7693667;17;0;0
M7693709;263;13;0
M7693720;51;0;0
M7693730;209;49;0
M7693802;52;0;0
M7693822;58;0;0
M7693823;33;0;0
M7693831;73;1;0
M7693842;36;1;0
M7693848;27;1;0
M7693851;74;0;0
M7693885;81;0;0
M7693887;37;3;0
M7693898;7;0;0
M7693955;42;0;0
M7693999;264;6;0
M7694030;59;0;0
M7694124;63;0;0
M7694139;8;0;0
M7694158;32;0;0
M7694199;44;0;0
M7694202;30;1;0
M7694218;169;23;0
M7694219;407;52;0
M7694221;255;15;0
M7694239;8;0;0
M7694247;46;7;0
M7694264;3;0;0
M7694272;18;0;0
M7694291;91;13;0
M7694299;41;0;0
M7694342;50;6;0
M7694357;41;0;0
M7694359;61;1;0
M7694407;10;1;0
M7694445;17;0;0
M7694477;35;1;0
M7694541;255;86;0
M7694552;51;17;0
M7694554;16;0;0
M7694757;430;131;0
M7694761;47;0;0
M7694787;9;0;0
M7694796;4;0;0
M7694836;19;0;0
M7694860;16;0;0
M7694863;241;18;2
M7694973;359;90;0
M7694987;14;0;0
M7694992;3;0;0
M7695001;24;0;0
M7695046;7;0;0
M7695361;238;2;0
M7695372;71;0;0
M7695426;78;1;0
M7695432;165;24;0
M7695467;28;0;0
M7695503;78;0;0
M7695506;20;0;0
M7695515;85;0;0
M7695525;14;0;0
M7695541;3;0;0
M7695596;26;1;0
M7695615;16;0;0
M7695619;16;0;0
M7695743;289;9;0
M7695757;6;0;0
M7695770;59;0;0
M7695790;100;43;0
M7695793;211;12;0
M7695811;121;2;0
M7695812;527;141;0
M7695816;19;0;0
M7695817;15;0;0
M7695849;100;43;0
M7695865;30;1;0
M7695871;213;1;0
M7695874;168;2;0
M7695890;88;5;0
M7695985;41;0;0
M7695987;98;0;0
M7695989;234;69;0
M7695991;1;0;0
M7695998;1;0;0
M7696037;130;22;0
M7696041;39;0;0
M7696071;14;0;0
M7696106;57;0;0
M7696126;8;0;0
M7696160;238;21;0
M7696221;3;0;0
M7696243;140;22;0
M7696276;48;1;0
M7696282;38;0;0
M7696332;7;0;0
M7696349;26;0;0
M7696351;52;0;0
M7696352;104;0;0
M7696415;39;1;0
M7696496;67;0;0
M7696526;16;0;0
M7696580;14;0;0
M7696605;264;40;0
M7696660;3;0;0
M7696685;4;0;0
M7696698;52;16;0
M7696727;8;0;0
M7696738;1;0;0
M7696748;29;0;0
M7696753;166;5;0
M7696754;55;0;0
M7696756;53;0;0
M7696764;19;0;0
M7696769;22;0;0
M7696778;25;0;0
M7696807;12;0;0
M7696826;150;33;0
M7696840;170;4;0
M7696913;2;0;0
M7696964;107;0;0
M7697004;268;47;0
M7697118;69;1;0
M7697135;4;0;0
M7697184;13;0;0
M7697202;12;0;0
M7697249;30;0;0
M7697255;52;0;0
M7697297;3;0;0
M7697303;47;3;0
M7697321;27;1;0
M7697364;36;0;0
M7697367;447;162;4
M7697383;4;0;0
M7697393;52;16;0
M7697414;104;1;0
M7697429;165;59;0
M7697437;141;1;0
M7697479;11;0;0
M7697482;16;0;0
M7697495;10;0;0
M7697511;7;0;0
M7697513;90;0;0
M7697514;59;0;0
M7697515;171;2;0
M7697530;74;2;0
M7697605;18;0;0
M7697650;30;0;0
M7697662;14;0;0
M7697679;327;49;5
M7697702;84;5;0
M7697710;69;0;0
M7697769;69;0;0
M7697772;28;1;0
M7697778;144;11;0
M7697802;42;0;0
M7697807;19;0;0
M7697810;11;0;0
M7697836;253;66;1
M7697853;67;0;0
M7697855;26;0;0
M7697858;105;22;0
M7697919;12;0;0
M7697992;222;9;0
M7698026;250;4;0
M7698085;10;0;0
M7698163;14;0;0
M7698173;3;0;0
M7698199;146;2;0
M7698244;24;0;0
M7698278;2;0;0
M7698295;37;3;0
M7698342;94;0;0
M7698386;4;0;0
M7698421;10;0;0
M7698500;204;28;0
M7698518;113;5;0
M7698544;244;39;0
M7698553;264;82;0
M7698576;109;5;0
M7698588;21;0;0
M7698768;92;4;0
M7698769;7;0;0
M7698791;45;2;0
M7698858;26;0;0
M7698921;78;2;0
M7698952;95;0;0
M7698957;42;0;0
M7698963;131;14;0
M7698967;107;20;0
M7698989;4;0;0
M7699012;145;14;0
M7699031;7;0;0
M7699035;26;0;0
M7699058;184;8;0
M7699063;112;1;0
M7699066;59;14;0
M7699068;75;10;0
M7699080;173;8;0
M7699111;4;0;0
M7699115;85;14;0
M7699117;48;0;0
M7699120;127;4;0
M7699143;24;0;0
M7699168;18;0;0
M7699178;105;21;0
M7699195;150;29;1
M7699198;222;1;0
M7699208;274;7;0
M7699243;238;31;0
M7699254;19;0;0
M7699338;70;2;0
M7699345;98;2;0
M7699401;17;0;0
M7699406;1;0;0
M7699433;36;0;0
M7699454;29;0;0
M7699533;103;5;0
M7699554;28;1;0
M7699609;18;0;0
M7699653;35;0;0
M7699668;47;4;0
M7699726;204;51;0
M7699738;12;0;0
M7699743;318;71;0
M7699747;17;0;0
M7699780;2;0;0
M7699840;45;2;0
