teacher;"working days";"excessively long working days"
04AGR;17;0
04bM;2;0
04EEN;19;0
04GAST1;14;0
04GAST2;2;0
04GASTCA;3;0
04GBO;14;0
04HHA;17;0
04HvB;2;0
04LWA;18;0
04Marijk;3;0
04MdGr;3;0
04Mrij;20;0
04SA2;40;0
04VACAK;15;0
04VACEvR;12;0
04VACJOU;1;0
04VACMWE;1;0
04VACQR;2;0
04VACrad;21;0
04WSL;2;0
10ABR;7;0
10AWI;4;0
10DFA;3;0
10ENI;32;0
10FNI;7;0
10FRB;7;0
10HGR;35;0
10JKL;7;0
10LRO;7;0
10MSC;8;0
10MTH;3;0
10PHO;6;0
10PRU;4;0
10REEF;10;0
10SJA;8;0
10vac;85;0
11vac;1;0
11vacR;1;0
12BAA;8;0
12BK;1;0
12BLA;9;0
12djo;1;0
12DUU;7;0
12KEM;5;0
12MAR;7;0
12MOL;1;0
12PRO;12;0
12REU;5;0
12SAV;8;0
12SCH;6;0
12SLA;6;0
12vBSK;1;0
12VEL;8;0
12vHBR;1;0
12VM;1;0
1AG1HB;1;0
1AG9BR;16;0
1DG0AM;8;0
1DG0AP;11;0
1DG0BR;19;0
1DG0HB;12;0
1DG1AP;6;0
1DG1BR;13;0
1DG1HB;3;0
1DG2AC;1;0
1DG3BR;2;0
1DG3HB;3;0
1DG5MI;14;1
1DG6AG;40;0
1DG6MI;11;1
1DG7AG;15;0
1DG7MI;16;1
1DG8AG;3;0
1DG8MI;5;0
1DG9AG;13;0
1DG9MI;16;0
1DS0FE;7;0
1DS1FE;6;0
1DS2FE;6;0
1DS3FE;6;0
1DS4FE;6;0
1DS5FE;6;0
1DS6FE;6;0
1DV0AP;7;0
1DV0HB;2;0
1DV1AG;27;0
1DV1AP;5;0
1DV2AG;3;0
1DV2AM;1;0
1DV2AP;5;0
1DV3AG;5;0
1DV3AM;1;0
1DV3HB;1;0
1DV4AG;24;0
1DV4AM;1;0
1DV4AP;9;0
1DV5AG;4;0
1DV5MI;28;0
1DV6MI;14;0
1DV7MI;11;0
1DV8MI;23;0
1EG0AC;13;0
1EG0AG;57;0
1EG0MI;10;0
1EG0MM;12;0
1EG0XC;1;0
1EG1AC;9;0
1EG1AG;55;0
1EG1MI;5;1
1EG1MM;2;0
1EG2AC;18;0
1EG2AG;28;0
1EG2MI;1;0
1EG2MM;1;0
1EG3AG;30;0
1EG3MI;1;0
1EG4AG;38;0
1EG4BR;3;0
1EG4MM;2;0
1EG5AG;40;0
1EG5AM;23;0
1EG5MM;10;0
1EG6AM;19;0
1EG6BR;1;0
1EG6MM;2;0
1EG7AM;2;0
1EG7MM;1;0
1EG8MM;4;0
1EG9AC;32;0
1EG9MM;7;0
1ES0FE;12;0
1ES1FE;14;0
1ES2FE;12;0
1ES3FE;12;0
1ES4FE;12;0
1ES5FE;6;0
1ES6FE;6;0
1ES7FE;6;0
1ES8FE;6;0
1ES9FE;6;0
1EV0MI;23;0
1EV0MM;10;0
1EV1AC;6;0
1EV1AG;7;0
1EV1BR;1;0
1EV1LE;16;2
1EV1MI;13;0
1EV1MM;17;0
1EV2AG;11;0
1EV2MI;1;0
1EV2MM;6;0
1EV3AG;21;0
1EV3MM;2;0
1EV4AG;7;0
1EV4MI;32;0
1EV4MM;2;0
1EV5AG;17;0
1EV5BR;2;0
1EV5MM;3;0
1EV6MM;4;0
1EV7AC;9;0
1EV7MM;8;0
1EV8MM;10;0
1EV9AC;20;0
1EV9MM;18;0
1XG0BT;16;0
1XG0LE;42;0
1XG1BT;4;0
1XG1FE;17;0
1XG1LE;10;0
1XG2BT;1;0
1XG2FE;15;0
1XG2LE;5;0
1XG3BT;9;0
1XG3FE;7;0
1XG4AC;2;0
1XG4BT;29;0
1XG4FE;14;0
1XG5AC;5;0
1XG5BT;20;0
1XG5LE;1;0
1XG6BT;19;0
1XG7BT;29;0
1XG7FE;1;0
1XG7LE;2;0
1XG8BT;21;6
1XG8LE;16;0
1XG9LE;3;0
1XS1FE;14;0
1XS2FE;7;0
1XS3FE;7;0
1XS4FE;7;0
1XS5FE;7;0
1XS6FE;6;0
1XS7FE;6;0
1XS8FE;6;0
1XS9FE;12;0
1XV0AG;13;0
1XV0BR;9;0
1XV0LE;12;0
1XV0XP;68;0
1XV0XV;53;0
1XV1BT;12;0
1XV1FE;1;0
1XV1XC;1;0
1XV1XP;68;0
1XV2BR;1;0
1XV2BT;27;0
1XV2LE;6;0
1XV2XP;51;0
1XV3BT;7;0
1XV3LE;14;0
1XV4LE;2;0
1XV5BT;3;0
1XV5LE;4;0
1XV6AG;28;0
1XV6BR;1;0
1XV6BT;1;0
1XV6LE;14;0
1XV7AG;20;0
1XV7BR;4;0
1XV7BT;9;0
1XV7LE;48;0
1XV8AG;42;0
1XV8BR;2;0
1XV8BT;26;0
1XV8FE;4;0
1XV8XC;10;0
1XV9AG;33;0
1XV9BR;6;0
1XV9BT;30;0
2ABRMI;10;0
2ACHAG;1;0
2AMUAG;3;0
2ASCVJ;6;0
2AWELE;13;0
2BPAMI;6;0
2BTUAG;4;0
2CPEAG;2;0
2DFAMI;7;0
2DHEAC;66;0
2DVAMI;14;0
2EKEAG;2;0
2ENIMI;33;0
2EWAAG;1;0
2GEEAM;3;0
2GMTAM;3;0
2HGRMI;27;0
2HJOLE;15;0
2HMAAG;2;0
2HMAMM;10;0
2HOEbr;15;0
2HREAC;5;0
2HVOAG;1;0
2IBEAP;5;0
2IEMAC;18;0
2ISIAG;1;0
2JBOAG;15;0
2JESAG;1;0
2JKLMI;7;0
2JLUMI;1;0
2JMEXD;12;0
2JSMAC;30;0
2KEMBR;7;0
2KLIAC;2;0
2LBEAG;4;0
2LBEMI;18;0
2LREAG;2;0
2LWIAC;8;0
2MARBR;7;0
2MBEMI;102;0
2MDIAG;8;0
2MDIAP;12;0
2MLUAG;1;0
2MSCMI;9;0
2MWIAG;8;0
2NDUAC;20;0
2ONBAC;40;0
2ORNbr;7;0
2PHOMI;6;0
2PMEMI;36;0
2PRUMI;4;0
2PWIAP;11;0
2REEMI;6;0
2ROOAG;4;0
2RSNAG;1;0
2SCHBR;14;0
2SJAMI;42;0
2SREAC;1;0
2TGEMI;17;0
2TLAMI;12;0
2TUPBR;7;0
2VEKAM;4;0
2VELbr;15;0
2VHALE;49;0
2VMWAM;12;0
2VPMAM;19;0
2XG0FE;15;0
AAL99;4;0
AAN02;82;0
AAR;53;0
AAR01;20;0
ABA01;174;0
ABA02;78;1
ABE08;232;0
ABE13;189;0
ABE14;89;3
ABE17;94;0
ABE21;4;0
ABE99;1;0
ABI03;121;0
ABL04;192;1
ABO02;64;5
ABO06;97;0
ABO09;259;12
ABO10;13;0
ABO12;252;0
ABO19;92;0
ABR01;9;0
ABR02;84;0
ABR08;195;0
ABR12;111;0
ABR18;245;0
ABR20;36;0
ABR21;30;0
ABU01;98;0
ABU02;165;0
ABU03;13;0
ACO01;4;0
ADA05;191;4
ADE02;93;0
ADE05;32;0
ADE06;56;0
ADI06;128;0
ADU01;33;0
ADU02;39;0
AEE01;110;5
AEL05;3;0
AEM01;57;0
AEN01;46;0
AER02;242;0
AER03;17;0
AES01;192;0
AES02;90;0
AFE02;144;0
AFE03;64;0
AFL01;43;0
AFO01;64;0
AGA01;23;0
AGA03;118;0
AGE02;189;0
AGL02;124;0
AGO04;107;0
AGO05;11;0
AGR07;78;0
AGU01;32;0
AHA11;137;0
AHE07;174;0
AHE08;173;0
AHO06;156;0
AHO07;140;0
AHO08;170;0
AHU01;106;0
AHU58;27;0
AJU03;146;0
AKA01;36;0
AKA02;122;2
AKE04;29;0
AKI05;1;0
AKK;271;0
AKL01;127;0
AKL03;182;0
AKL04;182;0
AKO01;180;0
AKO13;45;0
AKR03;16;0
ALA03;53;0
ALA10;55;0
ALE04;28;0
ALO06;113;0
ALO07;66;0
AMA02;12;0
AMA06;69;0
AMA07;181;0
AME01;9;0
AME09;145;0
AME11;257;1
AME13;84;0
AMU01;88;2
AMU05;73;0
AOL03;66;0
AOU02;138;0
AOV02;129;0
AOV03;98;0
APA02;88;0
API02;17;0
API04;7;0
APO02;96;0
ARA59;13;0
ARE;163;0
ARE01;212;0
ARE02;290;0
ARE05;45;0
ARE08;2;0
ARO02;91;0
ARO05;140;0
ARO08;14;0
ASA03;172;0
ASC11;202;0
ASC14;80;0
ASC16;67;0
ASC17;20;0
ASC21;39;0
ASE01;180;0
ASE02;37;0
ASI04;4;0
ASL58;4;0
ASM02;166;0
ASO04;85;0
AST01;60;0
AST03;22;0
ATE02;92;2
ATI01;166;0
ATI05;216;0
ATO03;115;0
AVE02;194;0
AVE06;180;0
AVE07;121;0
AVE14;71;0
AVO04;74;0
AVO09;12;0
AVO99;1;0
AVR05;21;0
AWA02;1;0
AWA03;148;0
AWE08;52;0
AWE09;174;2
AWE10;125;0
AWI17;98;0
AWI19;176;0
AWI23;233;1
AWO03;113;0
AYU02;157;0
AYU03;181;0
AZE01;203;0
AZI01;102;0
AZO01;232;1
AZU01;19;0
AZU02;236;1
B25;185;2
B28;65;0
BAA;87;0
BAB02;79;0
BAK;136;0
BAK02;95;0
BAR;200;0
BAS02;12;0
BBE06;97;0
BBE09;2;0
BBE11;205;0
BBE13;73;0
BBO03;120;0
BBR01;253;0
BBR03;139;0
BBR04;255;0
BCA01;221;0
BCL04;98;1
BDE01;71;0
BDI01;108;0
BDI04;136;0
BDI05;268;0
BDU02;16;0
BEA;97;0
BED;214;0
BEJ;53;0
BEL;176;0
BEN;123;0
BEN02;174;0
BEN58;6;0
BEO;203;0
BER;80;0
BEU;11;0
BEV;121;0
BEZ;173;0
BFL02;240;0
BGE03;288;0
BGR03;270;1
BGR05;162;0
BGR08;90;0
BHA05;137;0
BHA07;28;0
BHA08;46;0
BHA10;14;0
BHA11;113;0
BHO03;323;0
BII;102;0
BIL;166;0
BIT;294;0
BJA01;126;0
BJA03;127;0
BKB;62;0
BKO04;128;0
BKR03;154;0
BKU02;133;0
BLA02;181;0
BLK;263;0
BLL;224;0
BLO;22;0
BMA;174;0
BME04;21;0
BME06;89;0
BML;4;0
BNE02;176;0
BOA;248;0
BOB;54;0
BOI;32;0
BOR;1;0
BOZ02;235;1
BPO01;94;8
BPO02;95;0
BPR58;10;0
BRE;121;0
BRE01;180;0
BRG;194;0
BRI03;167;0
BRR;56;0
BRY;81;0
BSC01;122;0
BSC06;14;0
BSE02;265;0
BSI;64;0
BSL02;309;0
BSO01;161;0
BST02;31;0
BST04;50;1
BSW;5;0
BSW01;257;0
BTU01;134;0
BUC;1;0
BUD;165;0
BUE;280;1
BUK;190;0
BUM;115;0
BUQ;118;0
BVE01;183;0
BVR01;131;0
BVR02;1;0
BVR03;172;0
BWA03;135;0
BWA04;38;0
BWE;149;0
BWE01;195;0
BWE03;225;0
BWU01;105;0
BZE01;93;0
BZE02;7;0
BZT;282;0
CBA02;109;0
CBA03;20;0
CBA06;35;0
CBA10;82;0
CBR02;150;0
CBR07;1;0
CDA03;7;0
CDO01;28;0
CDR02;78;1
CEI02;130;0
CEN01;1;0
CES02;29;0
CFR01;152;0
CGE01;49;0
CGO03;207;0
CGR03;156;0
CHE02;141;0
CHE03;186;0
CHE06;147;0
CHE07;153;0
CHI01;122;0
CHU03;57;0
CHU04;101;0
CJA01;194;0
CJO01;92;0
CJU02;9;0
CKI02;129;0
CKL01;7;0
CKL03;109;0
CKN01;47;0
CKN02;191;0
CKO05;21;1
CKU02;2;0
CLA03;278;2
CMA01;130;0
CME02;12;0
CMO01;60;0
CMO02;13;0
CNI03;125;0
CNO01;7;0
COL01;91;0
COM01;161;0
CON02;166;1
COO04;8;0
COR01;98;0
COU02;235;0
CPE02;159;0
CRA;66;0
CRA02;32;0
CRE01;151;0
CRI02;65;0
CRU03;202;0
CSA04;48;0
CSC09;120;0
CSC10;62;0
CSL01;55;0
CSL05;198;0
CSO01;21;0
CST05;228;0
CST06;25;0
CTE01;106;0
CTI02;20;0
CTI99;7;0
CTR01;78;0
CVE02;212;0
CVL01;107;0
CVL03;153;0
CVO04;121;0
CWE05;66;0
CWE07;65;0
CWI06;9;0
CZU02;145;0
DAA02;62;0
DAG01G;38;0
DAG01V;10;0
DAG02G;11;0
DAG02V;7;0
DAG03G;3;0
DAG04G;4;0
DAG05G;1;0
DAL;184;0
DAM;106;0
DBI58;6;0
DBO03;294;0
DBO06;28;0
DBR03;172;0
DBU02;240;0
DBU04;211;6
DDA01;176;0
DDE01;30;0
DDI03;168;1
DDO01;126;0
DEN;217;0
DEN02;54;0
DER01;105;0
DET;11;0
DGE04;155;0
DGE05;44;0
DGI02;171;2
DHA01;149;9
DHA11;7;0
DHE07;96;0
DHO02;198;0
DHO03;166;1
DID;13;0
DIL;15;0
DIS;47;0
DJA03;36;0
DJA04;63;0
DJK;250;0
DJO01;14;0
DJO03;77;0
DKE03;20;0
DKE05;37;0
DKO02;5;0
DKR01;30;0
DKR0X;7;0
DLA01;54;0
DLA02;121;0
DLO01;105;0
DMA05;51;0
DMU02;241;0
DOP02;210;0
DOU02;159;0
DPA01;129;0
DPA03;111;0
DPA04;31;0
DPO03;30;0
DQT;76;0
DRE01;37;0
DRO01G;12;0
DRO01V;8;0
DRO01Z;10;0
DRO02G;27;0
DRO02V;8;0
DRO04G;12;0
DSA01;16;0
DSC04;104;0
DSC05;215;0
DSI01;54;0
DST01;10;0
DST08;15;0
"Duits 1";3;0
"Duits 2";7;0
"Duits 4";2;0
"Duits 5";2;0
"Duits 6";1;0
dummy01;7;0
Dummy1;1;0
DVE07;221;0
DVO01;165;0
DVO03;145;0
DWA01;220;3
DWE06;77;0
DZI01;76;0
EAK02;190;0
EAS02;112;0
EBA05;138;1
EBE01;219;0
EBE02;79;0
EBE08;91;0
EBE10;136;0
EBE12;130;0
EBE13;60;0
EBL01;10;0
EBO;164;0
EBO01;81;0
EBO08;232;0
EBO09;109;0
EBO13;10;0
EBO14;67;0
EBO15;144;0
EBO21;14;0
EBO23;80;0
ECA03;216;0
EDA01;34;0
EDA02;84;0
EDE;267;2
EDI06;6;0
EDI10;205;0
EDI11;193;0
EDO01;155;0
EDU01;260;0
EEI02;253;0
EEN01;21;0
EEV01;147;0
EFF;35;0
EFO01;4;0
EFY01G;97;0
EFY01V;32;0
EFY02G;62;0
EFY02V;17;0
EFY03G;39;0
EFY03V;17;0
EFY04G;76;0
EFY04V;20;0
EFY05V;21;0
EFY06V;16;0
EFY07V;19;0
EGI01;3;0
EGO02;180;0
EGR06;63;0
EHA03;270;0
EHE02;76;0
EHE11;121;0
EHE12;74;0
EHO08;252;0
EHO11;216;0
EIJ;104;0
EIM01V;49;0
EIM02V;16;0
EIM03V;11;0
EIM04V;4;0
EIM07V;2;0
EIM08V;2;0
EIM09V;12;0
EJA02;177;0
EJO03;141;0
EKA06;26;0
EKA08;109;0
EKA09;41;0
EKE01;8;0
EKL03;51;0
EKO06;71;0
EKR03;76;0
EKR10;200;0
EKU04;118;0
ELA02;92;0
ELA03;55;0
ELA08;118;0
ELE04;164;0
ELE05;49;1
ELI02;314;0
ELI03;203;0
ELO01;6;0
ELO06;95;0
ELO07;98;0
EMA03;74;0
EME03;230;0
EME05;34;0
EMO03;104;0
EMU02;26;0
EMU04;74;0
EMU07;7;0
ENF;128;0
ENG;40;0
ENI04;232;0
ENN;171;0
ENR;159;0
ENU01;14;0
EOL01;151;0
EOO01;143;0
EOO02;100;0
EOV58;7;0
EPA01;89;0
EPO01G;17;0
EPO01V;20;0
EPO02G;9;0
EPO02V;37;0
EPO03V;40;0
EPU02;113;1
ERU02;16;0
ERU03;52;0
ESA01;107;0
ESA02;24;0
ESC10;176;0
ESC14;151;0
ESC16;115;0
ESC17;20;0
ESI05;220;0
ESN02;59;0
ESO01;111;1
ESP06;178;0
EST03;77;0
EST08;85;0
EST09;63;0
ESZ02;24;0
ETE04;134;3
ETI03;68;0
ETI0x;1;0
EVE11;104;0
EVE13;28;0
EVE14;54;0
EVE15;19;0
EVI04;29;0
EVP01G;35;0
EVP01V;30;0
EVP02G;29;0
EVP02V;24;0
EVP03G;27;0
EVP03V;31;0
EVP04G;42;0
EVP04V;34;0
EVP05G;13;0
EVP05V;38;0
EVP06G;19;0
EVP07G;19;0
EVP08G;23;0
EVR01;16;1
EVR01b;6;0
EVU02;11;0
EWA01;123;0
EWI03;1;0
EWI03a;8;0
EWI04;169;0
EXTERN;16;0
EZE01;48;0
EZW02;153;0
FAA02;146;1
FAB;30;0
FAL04;11;0
FAS01;33;0
FBA02;14;0
FBR01;145;0
FBR04;116;0
FBR06;61;0
FBR08;101;1
FCA02;112;0
FCO01;114;0
FCO03;28;0
FDI01;205;0
FDI03;94;0
FDO02;193;0
FDO03;161;0
FDR01;48;0
FDU01;20;0
FEE01;27;0
FEG01;86;0
FEI01;22;0
FEV01;14;0
FEV02;185;2
FFA01;17;0
FFO01;102;1
FFU02;252;1
FGE01;169;0
FGE04;10;0
FGO01;146;0
FHA06;82;0
FHE03;65;0
FHE04;69;0
FHO06;29;0
FIE;260;0
FIM02;164;0
FJA02;250;1
FJO01;1;0
FKE01;148;0
FKL03;71;0
FKL04;37;0
FLA03;5;0
FMO02;231;0
FMU03;10;0
FMU04;33;0
FNI02;30;0
FNI06;231;0
FNI13;18;0
FOK;132;0
FPI02;91;10
FPL03;9;0
FPO02;235;0
FRA01;13;0
FSC01;8;0
FSL02;149;2
FST06;28;0
FSW03;295;0
FUR;181;23
FVA02;215;0
FVE04;270;0
FVE05;116;0
FVI02;35;0
FWI02;211;0
FWI04;319;0
FWO01;213;0
FWO04;102;0
FZU03;203;0
GAB02;247;0
GABO01;27;0
GABO02;20;0
GAN01;36;0
Gast01;49;0
GAST02;18;0
Gast03;11;0
Gast04;2;0
Gast05;11;0
GASTAMA0;24;0
GASTAR1;5;0
GASTAR10;5;0
GASTAR2;7;0
GASTAR4;6;0
GASTAR5;1;0
GASTAR6;1;0
GASTAR7;13;0
GASTAR8;14;0
GASTAR9;2;0
GASTCII1;25;0
GASTDOC1;18;0
GASTDOC2;27;0
GASTDOC3;7;0
GASTDOC4;12;0
GASTDOC9;3;0
GastLED;27;0
GastLS1;5;0
GastLS2;4;0
GASTMIC;3;0
GastWB;4;0
GBA01;290;1
GBE08;184;0
GBO04;72;0
GBO05;108;0
GBR03;13;0
GBR08;99;0
GBR15;148;0
GCO01;81;0
GDA01;191;8
GDA02;116;0
GDE03;80;0
GDI01;38;0
GDO02;209;0
GDR01;31;0
GEB;252;0
GEE;79;0
GEI02;16;0
GEJ;300;0
GER;170;0
GEU;1;0
GFL01;109;0
GGA01;257;0
GGR05;108;0
GGU01;58;0
GHE01;189;0
GHO09;76;0
GHU03;71;0
GIL;43;0
GKL01;8;0
GKL99;6;0
GKO01;9;0
GKO03;21;0
GKU01;151;0
GLA02;2;0
GLI01;59;0
GLO01;196;0
GMC01;179;0
GME01;55;0
GME02;56;0
GMI05;195;2
GOL;254;0
GOS01;138;0
GPE02;2;0
GPE04;55;0
GRA;72;0
GRE02;308;0
GRI02;37;0
GRI03;74;0
GRL;118;0
GRM;3;0
GRO01;157;0
GRR;269;0
GRS;143;0
GRU;198;0
GSC03;42;0
GSC06;137;0
GSL01;17;0
GST01;34;0
GST04;70;0
GST06;99;3
GST07;108;0
GSTACTD1;6;0
GSTACTD2;2;0
GTA01;124;0
GTH03;97;0
GTO01;125;0
GTO02;89;0
GVE01;56;0
GVE02;56;0
GVI01;97;0
GVR01;253;0
GVR99;1;0
GWI01;126;0
GWI02;6;0
GWI09;83;0
H05;201;0
HAC;27;0
HAD;2;0
HAE;140;0
HAK02;154;0
HAU;58;0
HBA03;54;0
HBA11;14;0
HBE02;18;0
HBE07;213;0
HBE08;92;0
HBL01;108;0
HBL02;117;0
HBO01;156;0
HBO06;151;0
HBO08;72;0
HBR01;126;0
HBR02;135;0
HBR05;179;0
HBR06;265;0
HBU02;262;0
HCO02;6;0
HDA;267;1
HDE03;197;0
HDI05;271;0
HEC;206;0
HEE;26;0
HEE01;6;0
HEJ;265;0
HEN;184;0
HEN02;301;0
HES01;33;0
HEU;250;6
HEV;231;0
HFR01;60;0
HFU02;171;0
HGE01;158;0
HGE03;236;1
HGO01;13;0
HGO03;79;0
HHA01;21;0
HHA02;2;0
HHA04;79;0
HHA10;175;0
HHA11;65;0
HHE03;240;0
HHE09;114;0
HHE10;49;0
HHI02;104;4
HHO02;1;0
HHO03;194;0
HHO04;72;0
HHO06;56;0
HHO09;119;0
HHO10;83;0
HHO14;41;0
HHO19;152;0
HHU01;42;0
HHU05;60;1
HIH;98;0
HJA07;74;0
HJA08;85;0
HJO01;118;0
HKA01;6;0
HKA02;109;0
HKA05;99;0
HKA06;81;0
HKI03;229;0
HKO04;17;0
HKO05;23;0
HKO06;63;0
HKO07;33;0
HKO09;37;0
HKO98;14;0
HKU02;144;0
HKW02;228;0
HLE03;179;0
HLO02;9;0
HMA03;129;0
HME;67;0
HME08;15;0
HME09;28;0
HME99;3;0
HMU01;73;0
HNE01;108;1
HNI02;76;0
HOA;132;0
HOQ;13;0
HOS;257;2
HOV;68;0
HPA01;219;0
HPA02;49;0
HPI99;1;0
HPL01;222;7
HPO03;185;0
HPO05;218;0
HRI03;89;0
HRI05;17;0
HRO05;128;0
HRO08;56;0
HRS;247;0
HSA;3;0
HSC03;287;2
HSC04;145;0
HSC07;276;3
HSC10;261;0
HSE;191;0
HSI03;13;0
HSL02;9;0
HSL03;162;0
HSM03;110;0
HSN02;204;0
HSO02;268;0
HSP02;106;0
HST03;216;0
HST05;295;0
HSU03;66;0
HTE99;13;0
HTI02;209;0
HTS;32;0
HVO01;57;0
HVO02;109;0
HVO04;211;0
HWA01;71;0
HWA02;266;0
HWA05;46;0
HWE05;73;0
HWI05;252;1
HZA01;97;0
HZP;89;0
HZT;125;0
HZW;220;0
IAL99;2;0
IBE01;6;0
IBR06;19;0
IBU03;42;0
ICE02;66;0
IDE01;222;0
IDI02;133;1
IDU01;218;0
IEE;2;0
IEV0AC;8;0
IFA02;75;0
IGE03;157;0
IGI03;93;0
IGO03;138;0
IHA04;263;0
IHE02;87;0
IHE03;86;0
IHO01;128;0
IHO04;90;0
IJO01;97;0
IKA01;130;0
IKA03;86;0
IKO05;9;0
ILO01;44;0
INE01;152;0
IOE01;213;1
IPE02;253;15
IPE05;144;0
IRI99;23;0
IRO02;67;0
IRO03;66;0
ISA03;94;0
ISC03;158;0
ISC04;36;0
IST02;134;0
IST04;28;0
ITE01;121;0
ITI01;82;0
IVE03;9;0
IVE04;136;0
IVE06;94;0
IWE01;7;0
IWE03;26;0
IWE04;83;0
IWE99;21;0
IWI04;199;0
IWI06;67;0
IWO02;29;0
IWO03;105;0
IWO05;85;0
IZI02;137;0
JAA01;83;0
JAG;110;0
JAL01;12;0
JAN;312;1
JAQ;226;1
JBA01;8;0
JBA02;25;0
JBA10;167;0
JBA11;30;0
JBE10;193;0
JBI01;54;0
JBI99;2;0
JBL03;199;0
JBO05;177;0
JBO16;147;0
JBO18;186;0
JBO19;103;0
JBO21;155;0
JBR03;1;0
JBR06;20;0
JBR17;50;0
JBU01;93;0
JBU07;115;0
JCO02;280;0
JDA99;4;0
JDE03;7;0
JDI02;29;0
JDI08;281;0
JDO01;37;0
JDO05;7;0
JDR01;9;0
JDU02;149;0
JFE01;169;0
JFL02;87;0
JGE01;212;0
JGR07;205;4
JGR08;127;0
JGR10;31;0
JGR11;39;0
JHA02;155;0
JHA07;159;0
JHA09;208;0
JHA13;202;0
JHE02;240;0
JHE03;18;0
JHE08;134;0
JHE14;116;0
JHE15;91;0
JHE25;44;0
JHE26;7;0
JHO01;49;0
JHO08;329;0
JHO12;290;0
JHO13;163;0
JHO15;86;0
JHO19;85;0
JHU04;176;1
JHU05;14;0
JHU99;1;0
JIM58;6;0
JJA05;196;0
JJA06;125;0
JJO04;87;0
JJO07;216;0
JKA05;164;0
JKA06;81;0
JKE05;100;0
JKI02;20;0
JKI04;113;0
JKL09;54;0
JKL13;14;0
JKN01;2;0
JKO04;71;1
JKO07;147;1
JKO12;245;0
JKO13;137;0
JKO19;18;0
JKR09;60;0
JKR11;156;0
JKR12;20;0
JKR13;14;0
JKU01;233;0
JKU02;123;0
JLA04;164;0
JLA06;8;0
JLE04;37;2
JLE08;51;0
JLO01;72;0
JLU06;6;0
JMA09;14;0
JME02;23;0
JME03;2;0
JME11;142;0
JME12;62;0
JME16;36;0
JME24;57;0
JMI04;14;0
JMO06;6;0
JMU01;98;0
JNE03;113;0
JNI09;174;1
JNO03;19;0
JOE03;141;0
JOJ;9;0
JOO01;64;6
JOO05;10;0
JOS;67;0
JPA04;153;0
JPE03;9;0
JPI03;93;0
JPO01;309;2
JPO02;98;0
JPO03;122;0
JPO08;21;0
JRE02;54;0
JRE04;139;0
JRE09;147;0
JRI01;95;0
JRO01;114;0
JRO10;81;0
JRO11;88;0
JRO12;8;0
JSA02;114;0
JSC04;189;0
JSC24;200;0
JSC26;86;1
JSL01;188;0
JSL06;14;0
JSM05;28;0
JSM06;43;0
JSN01;77;0
JSN02;98;0
JSO03;156;0
JSP03;255;0
JSP04;42;0
JST08;201;0
JTA02;56;0
JTH01;63;0
JTI01;87;0
JTI04;131;0
JTU03;232;0
JVA03;19;0
JVE02;113;0
JVE10;32;0
JVE15;144;0
JVE19;97;0
JVI07;69;0
JVI09;65;1
JVR02;214;0
JWA01;120;0
JWE04;101;0
JWE05;19;0
JWI07;188;4
JWI12;3;0
JWI16;101;0
JWO01;118;0
JZA02;78;0
JZW03;45;0
JZW07;99;0
K09;141;0
KAH;219;0
KAP;259;0
KBA02;76;0
KBO03;47;0
KBO59;13;0
KBR06;268;0
KBU01;28;0
KCO01;205;0
KDU03;136;0
KEI;177;1
KEN;227;5
KER;62;0
KES;84;0
KEU;160;0
KEV;238;0
KGA02;7;0
KHA02;250;0
KHE01;16;0
KHE02;209;0
KHE03;148;0
KHE05;4;0
KHE09;120;0
KHE12;214;0
KHE13;104;0
KHO02;225;0
KHO03;150;0
KHU02;24;0
KIN;154;0
KKA02;245;0
KKO02;204;0
KLA03;14;0
KLE03;32;0
KLO99;4;0
KLS;6;0
KME06;34;0
KME08;23;0
KMI04;7;0
KMO02;65;2
KNA01;17;0
KOB;100;0
KOL;156;0
KON;288;0
KOY;46;1
KPE02;114;0
KPE03;175;0
KPL04;100;0
KPO01;37;0
KPU01;233;0
KRM;246;0
KRO;210;0
KSA03;239;0
KSC04;83;0
KSC08;7;0
KSL01;49;0
KSL02;194;0
KSM04;80;0
KSP02;106;0
KSP04;50;0
KST;207;0
KST01;31;0
KTA01;115;0
KTE02;164;1
KTH02;111;0
KTR01;21;0
KTU04;130;0
KVO03;110;0
KWO02;78;0
KYM;295;2
LAG;13;0
LAL01;48;0
LAM;7;0
LAN;187;0
LAS;259;0
LAS02;207;0
LBA03;106;0
LBA05;32;0
LBE06;49;0
LBE09;67;0
LBI01;107;0
LBO01;83;0
LBO04;84;2
LBO09;49;0
LBR09;140;0
LBU04;7;0
LCH02;209;0
LCO01;187;3
LDI01;84;0
LDO02;88;0
LEA;142;0
LEE;290;0
LEF;105;0
LEK02;213;0
LEL01;57;0
LEM;266;0
LER;56;0
LER01;175;1
LEU;11;0
LFO01;95;0
LGA02;148;0
LGE03;106;0
LGR06;165;0
LGU02;16;0
LHA09;95;0
LHA12;14;0
LHE05;96;0
LHE09;91;1
LHH;78;0
LHO03;27;0
LHO05;94;0
LHO14;116;0
LIN;278;2
LJO02;112;0
LKA01;66;0
LKA05;212;0
LKE02;133;0
LKI01;99;0
LKL02;154;0
LKL03;61;0
LKR01;113;0
LKU03;208;0
LLA02;181;0
LLE;155;0
LLE04;198;0
LLI03;13;0
LLI04;126;0
LMA05;42;0
LMO02;79;0
LMO99;1;0
LNO01;111;0
LOK;1;0
LOT01;143;0
LPA01;21;0
LPF01;227;0
LPR02;15;0
LQT;88;0
LRI01;150;1
LRU02;124;0
LSA01;16;0
LSC04;6;0
LSC05;55;0
LSC13;151;0
LSE03;21;0
LSI02;63;0
LSL06;178;0
LSN01;21;0
LST01;14;0
LTE01;29;0
LTI04;196;0
LTJ02;106;0
LUN;231;0
LUR;185;0
LUT;71;0
LVE02;140;0
LVE06;160;0
LVE08;20;0
LVE09;1;0
LVI03;29;0
LVR01;14;0
LWA04;61;0
LWA05;105;0
LWE03;2;0
LWI01;130;0
LZW01;37;0
M03;73;0
MAA;70;0
MAD;85;0
MAD02;147;0
MAE;68;0
MAL01;187;0
MAL02;136;0
MAL05;191;0
MAM01;8;0
MAN99;2;0
MAR04;19;0
MAS;263;0
MAU02;38;0
MBA11;123;0
MBA15;21;0
MBA20;52;0
MBE02;199;3
MBE05;169;0
MBE12;11;0
MBE14;172;0
MBE24;120;0
MBE28;7;0
MBE30;63;0
MBE99;1;0
MBI01;28;0
MBI05;170;0
MBL04;157;0
MBO04;179;2
MBO07;88;0
MBO0X;14;0
MBO13;43;0
MBO25;89;0
MBO26;32;0
MBO34;109;0
MBO50;54;0
MBO51;142;1
MBR09;137;0
MBR14;131;0
MBR24;26;0
MBR29;155;0
MBR39;14;0
MBU06;112;0
MBU12;33;0
MBU13;182;0
MBU15;8;0
MCA02;183;0
MCO01;51;0
MCR01;72;0
MCU01;81;0
MDA02;15;0
MDA05;68;0
MDA58;6;0
MDE02;53;0
MDE06;300;1
MDE07;7;0
MDE08;14;0
MDE09;102;0
MDE59;6;0
MDI03;97;0
MDI05;35;0
MDI07;141;0
MDO08;62;0
MDO09;72;0
MDR03;205;0
MDU06;121;0
MEI;170;0
MEK01;14;0
MEL87;7;0
MEM01;100;0
MEN01;119;0
MEN03;150;0
MEN05;26;0
MET;127;0
MEZ;107;0
MFA01;165;0
MFI04;209;0
MFL02;118;0
MGA05;2;0
MGI02;255;0
MGI04;15;0
MGO02;192;0
MGO03;155;0
MGO11;72;0
MGR05;99;0
MGR07;235;0
MGR14;291;0
MGR19;39;0
MHA06;150;0
MHA09;49;0
MHA14;100;0
MHA22;124;0
MHA37;29;0
MHE01;144;0
MHE08;104;0
MHE17;52;0
MHO07;146;0
MHO17;130;0
MHO22;3;0
MHO24;15;0
MHU04;88;0
MHU09;128;0
MHU10;113;0
MJA03;141;0
MJA09;102;0
MJA12;163;0
MJA17;28;0
MJA18;184;0
MKA09;4;0
MKA13;29;0
MKE11;56;0
MKE13;83;0
MKE15;1;0
MKI05;118;0
MKL07;191;0
MKL11;185;0
MKL19;90;0
MKO24;35;0
MKO28;17;1
MKO29;149;0
MKO36;109;0
MKR05;225;1
MKU01;131;0
MKU02;200;1
MKU07;32;0
MLA01;26;0
MLA09;261;0
MLA12;77;0
MLE01;108;0
MLE11;246;0
MLI01;121;0
MLI06;51;0
MLO01;93;0
MLO03;15;0
MLO04;75;0
MLO99;1;0
MLU01;79;0
MLU08;120;1
MLU10;101;0
MMA04;14;0
MME13;188;0
MME23;113;0
MME33;68;0
MME34;24;0
MMI02;67;0
MMO09;169;0
MMO18;37;0
MMU03;189;0
MNA02;2;0
MNI03;71;0
MNI05;137;0
MNI06;135;0
MNI08;119;0
MNI14;216;0
MNI17;7;0
MNU02;102;0
MOA01;91;0
MOE01;1;0
MOL03;242;0
MOM;83;0
MOO02;143;0
MOO04;220;0
MOO05;133;0
MOO06;7;0
MOR02;290;0
MOT;129;0
MOT01;70;0
MOT02;154;1
MOT03;85;0
MOU01;87;0
MOV01;116;0
MOV04;39;0
MOY01;213;0
MPA05;252;0
MPE01;50;0
MPE07;47;0
MPL01;48;0
MPL02;120;0
MPL03;184;0
MPL07;59;1
MPL58;6;0
MPR01;140;0
MPR07;42;0
MPU02;42;0
MRA01;197;0
MRE07;8;0
MRI01;137;0
MRI03;154;0
MRI11;157;1
MRI12;233;0
MRI14;81;0
MRI15;127;0
MRI99;1;0
MRO13;4;0
MRO58;6;0
MRU01;4;0
MRU04;86;0
MSA02;25;0
MSA03;138;0
MSA05;107;0
MSC11;138;0
MSC17;4;0
MSC19;294;0
MSC23;219;0
MSC33;20;0
MSE01;25;0
MSI02;136;0
MSI05;272;0
MSI07;297;0
MSI08;240;0
MSI09;93;0
MSL01;85;0
MSM05;19;0
MSM08;26;0
MSM99;7;0
MSN03;142;0
MSN04;19;0
MSN05;194;0
MSN06;162;0
MSP01;52;0
MSP06;24;0
MSP11;209;0
MST06;187;0
MST08;159;0
MST10;33;0
MST12;171;0
MST18;2;0
MST21;160;2
MST22;51;0
MST23;80;0
MST58;10;0
MST99;2;0
MSU;67;0
MSU02;5;0
MSZ01;135;0
MTA02;111;0
MTE02;140;0
MTI02;32;0
MTI15;78;0
MTI16;80;0
MTO04;11;0
MTR01;216;0
MUB;147;0
MUB01;58;0
MUD;226;0
MUI01;21;0
MUL;224;0
MUN;246;0
MUR;143;0
MVA01;155;0
MVE16;77;0
MVE18;121;3
MVE23;250;0
MVE29;4;0
MVI02;86;0
MVI03;146;0
MVI06;133;0
MVI09;10;0
MVO02;246;1
MVO05;129;0
MVO10;153;23
MVO14;16;0
MVR09;23;0
MWA01;53;0
MWE01;75;0
MWE04;95;0
MWE09;220;0
MWE13;48;0
MWE14;52;0
MWI02;196;0
MWI10;109;0
MWI13;136;0
MWI16;34;0
MWI20;54;0
MZI01;219;0
MZU04;179;0
NAK02;164;0
NBA01;44;0
NBA02;4;0
NBA05;16;1
NBE05;243;0
NBO10;102;0
NBR03;127;0
NBR04;215;0
NDU01;42;0
NDU02;127;0
NFA01;5;0
NGR01;108;0
NHO02;179;0
NIA;135;0
NIB;163;0
NIC;120;0
NIE;62;0
NIK;240;0
NIS;27;0
NJA03;243;0
NKA05;45;0
NKR02;29;0
NKU03;164;0
NLO02;156;1
NME02;18;0
NNI04;109;0
NNI08;15;0
NPR04;255;1
NQT;220;0
NRI03;180;0
NSA04;103;1
NSC01;10;0
NSC0X;6;0
NSC58;31;0
NTI01;6;0
NTO02;129;0
NTO03;242;0
NUO;224;0
NVE06;89;0
NWI01;182;0
NZE01;204;0
NZG;113;0
NZU02;145;0
OBO01;124;0
OFF58;70;0
OGR02;190;0
OGU01;13;1
OLD;77;0
OLE01;16;0
OLE02;174;0
OME01;17;0
OMO01;22;0
OOL;119;0
OOR;63;0
OOT;276;0
OPH01;138;0
OPO02;55;0
OUB;45;0
OUD;140;0
OUE;247;0
OUJ;233;1
OWE02;14;0
OZG;166;0
PAA;129;0
PAG02;103;0
PAK;177;0
PAL02;106;4
PAP;157;1
PBE05;311;0
PBI01;231;0
PBI04;164;0
PBI05;193;0
PBO04;14;0
PBR05;202;0
PBR06;210;0
PBR08;192;0
PBU04;220;0
PBU06;39;1
PCA02;143;0
PCR04;110;0
PDU01;226;0
PEI01;3;0
PGO01;88;0
PGO03;56;0
PGO04;2;0
PGR07;199;0
PGR09;286;0
PHA04;190;2
PHA10;10;0
PHE07;237;1
PHI01;132;0
PHI02;17;0
PHI58;7;0
PHO03;141;0
PHO05;141;0
PHO06;147;6
PHU04;321;0
PJO01;218;2
PJO03;90;2
PJU01;62;0
PKL01;21;0
PKL03;113;0
PKR99;1;0
PLA;103;0
PLE02;28;0
PLU01;159;0
PMA06;109;0
PMI01;5;0
PNA01;110;0
PNI01;34;0
POO02;161;0
POO07;264;0
POY;214;0
PPE01;32;0
PPE02;236;0
PPO01;122;0
PPO02;119;0
PRA;274;0
PRE02;155;0
PREPvac5;1;0
PRI99;1;0
PRO02;13;0
PRO04;123;0
PRU01;24;0
PSA02;197;0
PSA03;3;0
PSA99;4;0
PSC01;80;0
PSC08;33;0
PSI02;9;0
PSL04;203;0
PSM03;83;0
PSM06;247;0
PST01;78;0
PST02;109;0
PTA99;8;0
PTR02;116;0
PUN;66;0
PVE04;17;0
PVE07;14;0
PVO02;35;0
PVO03;265;0
PWI01;73;0
PWI02;85;0
PWI03;301;1
PWI05;191;0
PWI06;58;0
PWI0X;6;0
PWI10;95;0
PWI12;121;0
QHA01;9;0
RAE;223;0
RAL03;28;0
RAV;64;0
RBA02;73;0
RBA07;117;0
RBE01;180;0
RBE02;36;0
RBO02;42;0
RBO15;50;0
RBO17;94;0
RBO19;35;0
RBR06;78;0
RBR09;324;0
RBR17;161;0
RBU04;14;0
RCR01;158;0
RCU01;4;0
RDA02;61;0
RDE02;290;0
RDI01;44;0
RDI02;245;0
RDI09;97;2
RDK;54;0
RDO02;88;0
RDO99;14;0
RDR01;233;16
REE;114;0
REF02;255;0
REI03;20;0
REN01;134;0
RES01;78;0
REV02;149;0
REX01;181;0
RFE01;51;0
RFE02;105;0
RFE58;25;0
RFR01;29;1
RGE05;108;0
RGI01;13;0
RGL02;9;0
RGR05;314;0
RGR15;26;0
RHA02;12;0
RHA05;39;0
RHA11;11;0
RHE01;42;0
RHE08;107;0
RHE11;2;0
RHE59;13;0
RHO11;127;0
RHO13;151;0
RHU08;200;0
RIN;6;0
RIP;129;0
RJA05;7;0
RJO03;139;0
RJO06;114;0
RKL03;67;0
RKO01;39;0
RKO10;89;0
RKO15;156;0
RKO99;1;0
RKR02;136;0
RKR04;49;5
RLA02;87;0
RLE02;123;0
RLE03;55;0
RLE04;154;4
RLE05;51;0
RLI07;32;0
RMA02;147;0
RMA05;81;0
RMI02;176;0
RMI04;8;0
RNI01;20;0
RNI03;28;0
RNI04;148;0
RNI07;251;2
RNI15;83;0
RNU02;119;0
roc1vac;8;0
ROL;71;0
RON;218;0
ROO01;99;1
ROR;177;0
ROU99;1;0
RPA01;64;0
RPI04;3;0
RPL01;71;0
RRE01;234;9
RRE99;2;0
RRI01;161;10
RRI05;112;1
RRI06;251;0
RRO01;14;0
RRO02;229;0
RRO03;78;0
RSC01;159;0
RSC03;71;0
RSC09;7;0
RSC11;46;0
RSC99;3;0
RSL02;77;0
RSL05;145;0
RSM01;66;1
RSO01;33;0
RSU01;211;1
RTA02;287;0
RTE04;54;0
RTE05;123;0
RTE06;163;0
RTI02;223;0
RTI07;225;0
RTI09;175;0
RTO04;16;2
RUT;29;0
RVE03;97;0
RVE10;203;0
RVE12;45;0
RVI04;141;2
RVR01;153;0
RVR04;64;0
RVR08;49;0
RWA99;6;0
RWE03;27;0
RWE07;28;3
RWI05;162;0
RWO01;19;0
RWO05;173;0
RWO06;131;0
RZE01;60;0
RZQ;245;0
RZW03;82;0
SAA;180;0
SAK02;56;0
SAM;109;0
SAN;290;1
SAR04;149;1
SBA01;197;0
SBA05;201;0
SBE05;206;0
SBE19;36;0
SBI04;256;0
SBO06;172;0
SBO07;10;0
SBO12;23;0
SBO15;194;1
SBO25;241;0
SBO29;129;0
SBO30;71;0
SBO31;194;0
SBR01;132;0
SBR02;137;0
SBR04;219;0
SCA0X;7;0
SCF;8;0
SCL01;76;1
SCM;175;0
SCN;145;0
SCO02;65;0
SCR;169;0
SCT;238;0
SDO03;235;0
SDO05;22;0
SDO06;123;0
SDO07;17;0
SEK02;117;0
SEL02;272;0
SFA02;211;1
SGA03;86;0
SGAT;7;0
SGH02;118;0
SGO04;139;0
SGR07;177;0
SGR16;144;0
SGR20;17;0
SHA05;73;0
SHA10;129;0
SHA11;7;0
SHA12;63;0
SHE02;106;0
SHE03;38;0
SHE06;85;0
SHH;10;0
SHI;251;0
SHO;241;0
SHO01;91;0
SHO04;230;0
SHO09;86;0
SHT;225;0
SHU;169;0
SHU02;7;0
SHU03;104;0
SIK;238;0
SJA09;1;0
SJO06;140;0
SKA01;174;0
SKA0X;14;0
SKA12;40;0
SKA13;62;0
SKL03;178;0
SKN01;14;0
SKO12;57;0
SKO14;27;0
SKR03;32;0
SKU01;124;0
SLE03;136;1
SLI05;321;0
SLO05;75;0
SMA;1;0
SME07;184;0
SMH;243;1
SMO01;122;0
SMO03;161;0
SMO05;10;0
SMO06;152;0
SMS;183;1
SNI;306;0
SNI06;22;0
SOL01;182;0
SPE02;15;1
SPE06;76;0
SPH01;68;0
SPJ;175;0
SPN;111;0
SRA03;109;0
SRE01;210;4
SRE04;27;0
SRI04;24;0
SRO;253;0
SRO01;28;0
SRT;61;0
SSC01;244;0
SSC05;193;0
SSC12;44;0
SSC60;1;0
SSE02;138;0
SSL01;44;0
SSL02;167;0
SSP01;6;0
SST08;41;0
SSW02;85;0
STASS;18;0
STE01;101;0
STI01;176;0
STI02;107;0
STK;306;0
STL;238;0
STM;95;0
STO03;236;1
STS;138;0
STU;287;0
STUAMA1;16;0
STUAMA2;19;0
STUD001;22;0
STUD01;35;0
STUD010;35;0
STUD012;21;0
STUD02;21;0
STUD03;28;0
STUD04;28;0
STUD05;7;0
STUD06;28;0
STUD07;29;0
STUD08;21;0
STUD09;28;0
STUD1;26;0
STUD10;28;0
STUD11;28;0
STUD12;25;0
STUD13;25;0
STUD14;25;0
STUD15;14;0
STUD16;14;0
STUD17;14;0
STUD18;8;0
STUD19;7;0
STUD2;21;0
STUD20;7;0
STUD21;14;0
STUD22;14;0
STUD23;14;0
STUD3;21;0
STUD4;21;0
STUD5;21;0
STUD6;14;0
STUD7;21;0
STUD8;23;0
STUD9;21;0
STV;75;0
SUI;263;0
SVA01;52;0
SVAC;10;0
SVO02;44;0
SVO03;21;0
SVR02;62;0
SWA01;86;0
SWA02;179;0
SWA04;12;0
SWA06;112;0
SWA07;24;0
SWA08;86;0
SWE01;54;0
SWE03;93;0
SWE07;14;0
SXP;272;0
SXT;242;5
SZE02;84;0
SZG;147;0
TAL02;30;0
TAN01;1;0
TAN02;62;0
TAR02;97;0
TAS01;60;0
TBA06;168;0
TBE05;5;0
TBO01;64;0
TBO04;94;0
TBR01;32;0
TBR02;311;0
TBR08;196;0
TBR09;175;0
TCA02;134;0
TDE01;37;0
TDI03;87;0
TDI05;286;0
TDO01;150;0
TEM;32;0
TER;254;0
TFI01;47;0
TFR01;143;0
TGI02;197;0
TGO03;159;0
TGR01;190;0
TGR04;164;1
THE06;7;0
THI;273;0
TIE;32;0
TIF;82;0
TIM;256;0
TJE;53;0
TJO05;7;0
TKE09;79;0
TLE01;147;0
TLO02;313;0
TLO04;130;0
TLT;33;0
TME03;92;0
TMI03;138;0
TMO01;6;0
TMO03;222;0
TMU04;101;0
TNA02;52;0
TNI03;69;0
TPA02;194;5
TPL01;208;0
TPO01;290;0
TRH;72;0
TRI03;105;0
TRO02;212;0
TSC09;78;0
TSM01;2;0
TSM03;140;0
TTA01;187;0
TTA02;182;5
TTI02;90;0
TTO01;1;0
TUD02;148;0
TUI;160;0
TVE01;1;0
TWE06;21;0
TWI;325;0
TXQ;89;0
TZA01;90;0
TZG;71;0
UAK02;234;0
UBR02;93;0
UCR01;80;0
UKE02;95;0
UPO01;38;0
USI02;192;0
UWE01;60;0
V02;105;0
VABO01;36;0
VABO04;15;0
VAC-FEM;14;0
VAC-VJA;1;0
vac01;11;0
vac02;18;0
vac03;4;0
vac04;6;0
vac05;2;0
vac06;7;0
vac07;1;0
vac09;4;0
vac10;8;0
vac11;1;0
vac12;3;0
VACADO06;26;0
VACAMA1;6;0
VACBBT;8;0
VACBI1;25;0
VACELT;5;0
VACFOTO;44;0
VACI;7;0
VACLS;19;0
VACLS0;1;0
VACLS1;2;0
vacmim1;17;3
vacmim2;17;4
vacmim3;5;0
vacmim4;22;0
vacmim5;35;0
VACNANO;6;0
VACNano1;1;0
VACROB1;1;0
VACTN;8;0
VACWB;23;0
VBE02;229;1
VBO02;165;0
VDI01;120;0
VDO59;12;0
VET;14;0
VEU;79;0
VGE;34;0
VHO03;175;3
VJVAC2;9;0
VLB;15;0
VLO;166;1
VLU01;165;0
VNI03;114;0
VOA;81;0
VOD;1;0
VOG;266;0
VON;248;0
VRA02;41;0
VRD;16;0
VRH;214;0
VRK;205;0
VRM;7;0
VSC01;223;0
VSC02;26;0
VSK;19;0
VTI01;77;0
VUR01;112;0
WAG;238;0
WAN01;2;0
WAT02;110;0
WAV;8;0
WBE04;208;0
WBO01;169;2
WBO05;204;0
WBO11;9;0
WDE04;85;0
WEL01;136;0
WEN02;64;0
WEV;252;0
WFA02;7;0
WGL02;150;0
WHA06;179;0
WHO04;215;0
WHO10;4;0
WHU01;127;0
WIM;37;0
WIO;57;0
WIR;166;0
WIS;40;0
WIW;222;0
WJR;236;0
WKL01;19;0
WKO05;8;0
WKU01;78;0
WME02;128;0
WMO02;136;0
WOI;147;0
WOL03;119;0
WOO01;123;0
WOT;75;0
WRT;203;0
WSC04;67;0
WSE01;14;0
WSL01;33;0
WSM02;206;0
WSS;2;0
WST05;118;0
WTE02;14;0
WTI03;35;0
WTV;26;0
WVE01;226;0
WVE03;166;0
WVE05;107;0
WVE07;65;0
WVO01;63;3
WVO03;90;0
WWE02;66;0
WWI02;207;0
WWO01;30;0
WWO02;118;0
WZE02;286;0
WZI02;87;2
WZW02;2;0
XBPE;7;0
XGAST;12;0
XVAC1;8;0
XVAC2;1;0
XVAC3;1;0
YBR03;13;0
YDA01;145;0
YDE01;32;0
YDU01;51;0
YHO03;88;0
YKE03;62;0
YKL02;70;0
YMA01;125;0
YNA01;325;0
YTE02;178;0
YWA01;65;0
ZAG;230;0
ZGST1;2;0
ZGST5;1;0
ZGST6;8;0
ZGST7;8;0
ZGSTA;12;0
ZGSTB;1;0
ZIL;224;0
ZUU;230;0
ZVACBRTE;1;0
ZVACR;6;0
ZVACS;3;0
ZVALG;2;0
